Place,Name,BirthYear,Country,BodyweightKg,Best3SquatKg,Best3BenchKg,Best3DeadliftKg,TotalKg,WeightClassKg,Sex,CyrillicName,Event,Equipment,Division
1,Marina Ermakova,1988,Russia,46.7,100,50,110,260,48,F,Марина Ермакова,SBD,Single-ply,Open
1,Marina Zotova,1983,Russia,51.1,137.5,90,165,392.5,52,F,Марина Зотова,SBD,Single-ply,Open
2,Svetlana Kotikova,1971,Russia,51.5,115,77.5,130,322.5,52,F,Светлана Котикова,SBD,Single-ply,Open
1,Anna Komlaeva,1979,Russia,55.6,200,115,182.5,497.5,56,F,Анна Комлаева,SBD,Single-ply,Open
2,Elizaveta Barkova,1980,Russia,54.85,130,87.5,130,347.5,56,F,Елизавета Баркова,SBD,Single-ply,Open
1,Darya Lukyanovich,1988,Russia,65.95,150,95,150,395,67.5,F,Дарья Лукьянович,SBD,Single-ply,Open
2,Anastasiya Putilina,1995,Russia,60.85,135,65,100,300,67.5,F,Анастасия Путилина,SBD,Single-ply,Open
1,Olga Tikhomirova,1989,Russia,75,245,110,215,570,75,F,Ольга Тихомирова,SBD,Single-ply,Open
2,Valentina Kharina,1977,Russia,69.9,205,142.5,190,537.5,75,F,Валентина Харина,SBD,Single-ply,Open
3,Irina Zaytseva,1966,Russia,75,170,97.5,167.5,435,75,F,Ирина Зайцева,SBD,Single-ply,Open
4,Natalya Kuzina,1991,Russia,71.65,170,82.5,160,412.5,75,F,Наталья Кузина,SBD,Single-ply,Open
1,Mariya Panferova,1977,Russia,77.85,250,152.5,217.5,620,82.5,F,Мария Панферова,SBD,Single-ply,Open
1,Svetlana Sema,1976,Russia,89.05,200,150,170,520,90,F,Светлана Сема,SBD,Single-ply,Open
2,Natalya Trukhina,1991,Russia,87.6,180,120,190,490,90,F,Наталья Трухина,SBD,Single-ply,Open
1,Aleksandra Knyazik,1983,Russia,97.5,170,105,150,425,90+,F,Александра Князик,SBD,Single-ply,Open
1,Leonid Kuznetsov,1993,Russia,55.7,210,105,205,520,56,M,Леонид Кузнецов,SBD,Single-ply,Open
1,Dmitriy Alekseev,1983,Russia,67.45,300,175,237.5,712.5,67.5,M,Дмитрий Алексеев,SBD,Single-ply,Open
2,Kirill Tyurganov,1987,Russia,67.3,260,160,270,690,67.5,M,Кирилл Тюрганов,SBD,Single-ply,Open
3,Aleksandr Baranov,1988,Russia,67.05,240,145,230,615,67.5,M,Александр Баранов,SBD,Single-ply,Open
1,Oleg Ryabinnikov,1978,Russia,74.9,270,172.5,275,717.5,75,M,Олег Рябинников,SBD,Single-ply,Open
2,Artem Varlamov,1989,Russia,73.2,270,147.5,270,687.5,75,M,Артем Варламов,SBD,Single-ply,Open
3,Aleksandr Vasilyev,1992,Russia,74.45,255,162.5,245,662.5,75,M,Александр Васильев,SBD,Single-ply,Open
4,Nikita Saltykov,1989,Russia,74.95,260,155,235,650,75,M,Никита Салтыков,SBD,Single-ply,Open
5,Aleksandr Volchkov,1986,Russia,74,235,150,210,595,75,M,Александр Волчков,SBD,Single-ply,Open
6,Galust Saaryan,1956,Russia,75,230,135,230,595,75,M,Галсут Саарян,SBD,Single-ply,Open
1,Aleksey Nikulin,1982,Russia,81.5,330,200,270,800,82.5,M,Алексей Никулин,SBD,Single-ply,Open
2,Vladimir Chikin,1977,Russia,82.15,290,170,260,720,82.5,M,Владимир Чикин,SBD,Single-ply,Open
3,Dmitriy Alekhin,1986,Russia,78.15,230,165,265,660,82.5,M,Дмитрий Алехин,SBD,Single-ply,Open
4,Evgeniy Kuptsov,1986,Russia,81.35,260,140,255,655,82.5,M,Евгений Купцов,SBD,Single-ply,Open
5,Oleg Buss,1987,Russia,80.9,255,160,235,650,82.5,M,Олег Бусс,SBD,Single-ply,Open
6,Roman Durnov,1986,Russia,81.35,260,170,220,650,82.5,M,Роман Дурнов,SBD,Single-ply,Open
7,Aleksandr Kamenskiy,1989,Russia,77.45,220,155,230,605,82.5,M,Александр Каменский,SBD,Single-ply,Open
8,Vladislav Olekha,1992,Russia,78.5,240,145,190,575,82.5,M,Владислав Олеха,SBD,Single-ply,Open
DQ,Aleksandr Krylov,1981,Russia,77,190,130,,,82.5,M,Александр Крылов,SBD,Single-ply,Open
DQ,Andrey Loginov,1977,Russia,82,,,,,82.5,M,Андрей Логинов,SBD,Single-ply,Open
1,Aleksandr Shpak,1980,Russia,89.45,330,252.5,305.5,888,90,M,Александр Шпак,SBD,Single-ply,Open
2,Oleg Turov,1979,Russia,89.7,355,210,315,880,90,M,Олег Туров,SBD,Single-ply,Open
3,Aleksey Shestakov,1984,Russia,89.75,325,217.5,300,842.5,90,M,Алексей Шестаков,SBD,Single-ply,Open
4,Andrey Chumaev,1979,Russia,87.85,335,220,270,825,90,M,Андрей Чумаев,SBD,Single-ply,Open
5,Denis Nikitin,1988,Russia,89.15,290,255,272.5,817.5,90,M,Денис Никитин,SBD,Single-ply,Open
6,Gennadiy Danilov #2,1978,Russia,89.4,310,197.5,300,807.5,90,M,Геннадий Данилов,SBD,Single-ply,Open
7,Aliaksei Stasevich,1986,Belarus,88.8,280,230,290,800,90,M,,SBD,Single-ply,Open
8,Andrey Serov,1984,Russia,87.95,290,170,300,760,90,M,Андрей Серов,SBD,Single-ply,Open
9,Sergey Mironov,1987,Russia,85.4,260,150,270,680,90,M,Сергей Миронов,SBD,Single-ply,Open
10,Aleksandr Mikheev,1985,Russia,88,220,165,240,625,90,M,Александр Михеев,SBD,Single-ply,Open
11,Dmitriy Voznyuk,1981,Russia,88.65,215,185,220,620,90,M,Дмитрий Вознюк,SBD,Single-ply,Open
12,Sergey Bychkov,1983,Russia,89.05,210,180,220,610,90,M,Сергей Бычков,SBD,Single-ply,Open
DQ,Aleksandr Kovalenko,1988,Russia,86.35,250,,,,90,M,Александр Коваленко,SBD,Single-ply,Open
DQ,Klimentiy Bondarenko,1985,Russia,89,245,,,,90,M,Климентий Бондаренко,SBD,Single-ply,Open
DQ,Igor Bodrov,1989,Russia,86.7,225,,,,90,M,Игорь Бодров,SBD,Single-ply,Open
1,Andrey Ivanets,1984,Belarus,98.25,335,222.5,357.5,915,100,M,,SBD,Single-ply,Open
2,Mikhail Kim,1980,Russia,97.85,345,220,347.5,912.5,100,M,Михаил Ким,SBD,Single-ply,Open
3,Dmitriy Logunov,1987,Russia,99.95,340,220,295,855,100,M,Дмитрий Логунов,SBD,Single-ply,Open
4,Petr Ershov,1983,Russia,99,315,210,305,830,100,M,Петр Ершов,SBD,Single-ply,Open
5,Vladimir Svinarchuk,1983,Russia,99.7,280,240,255,775,100,M,Владимир Свинарчук,SBD,Single-ply,Open
6,Vasiliy Kuzmin,1980,Russia,96.55,275,192.5,260,727.5,100,M,Василий Кузьмин,SBD,Single-ply,Open
7,Evgeniy Kazakov,1984,Russia,93.8,270,170,280,720,100,M,Евгений Казаков,SBD,Single-ply,Open
8,Aleksey Verbus,1987,Russia,97.75,280,180,260,720,100,M,Алексей Вербус,SBD,Single-ply,Open
9,Mikhail Prilepko,1980,Russia,94.85,270,177.5,260,707.5,100,M,Михаил Прилепко,SBD,Single-ply,Open
10,Andrey Sakun,1986,Russia,98.9,250,200,240,690,100,M,Андрей Сакун,SBD,Single-ply,Open
11,Aleksandr Plechov,1983,Russia,98.5,250,170,250,670,100,M,Александр Плечов,SBD,Single-ply,Open
12,Aleksandr Zhavoronkov,1982,Russia,92.95,270,140,250,660,100,M,Александр Жаворонков,SBD,Single-ply,Open
DQ,Marat Zaydullin,1982,Russia,93.1,280,190,,,100,M,Марат Зайдуллин,SBD,Single-ply,Open
DQ,Aleksey Kireev,1980,Russia,98.3,,,,,100,M,Алексей Киреев,SBD,Single-ply,Open
1,Andrey Chernikov,1983,Russia,108.4,350,245,320,915,110,M,Андрей Черников,SBD,Single-ply,Open
2,Sergey Kosarev,1980,Russia,107,330,282.5,290,902.5,110,M,Сергей Косарев,SBD,Single-ply,Open
3,Mikhail Trunov,1987,Russia,105,350,215,325,890,110,M,Михаил Трунов,SBD,Single-ply,Open
4,Aleksandr Drokin,1984,Russia,104.8,300,222.5,315,837.5,110,M,Александр Дрокин,SBD,Single-ply,Open
5,Andrey Belyaev #2,1980,Russia,105.6,317.5,210,285,812.5,110,M,Андрей Беляев,SBD,Single-ply,Open
6,Aleksandr Fateev,1983,Russia,107.5,300,217.5,285,802.5,110,M,Александр Фатеев,SBD,Single-ply,Open
7,Murat Umalatov,1982,Russia,109.25,290,200,250,740,110,M,Мурат Умалатов,SBD,Single-ply,Open
8,Denis Astashin,1981,Russia,110,250,175,250,675,110,M,Денис Асташин,SBD,Single-ply,Open
DQ,Sergey Ostroukh,1985,Russia,107.1,320,,,,110,M,Сергей Остроух,SBD,Single-ply,Open
1,Arkadiy Barinov,1982,Russia,118,350,250,347.5,947.5,125,M,Аркадий Баринов,SBD,Single-ply,Open
2,Evgeniy Portnov,1978,Russia,114.15,340,260,345,945,125,M,Евгений Портнов,SBD,Single-ply,Open
3,Dmitriy Shults,1987,Russia,110.85,350,230,270,850,125,M,Дмитрий Шульц,SBD,Single-ply,Open
4,Anton Alpatskiy,1982,Russia,118.7,310,210,300,820,125,M,Антон Алпацкий,SBD,Single-ply,Open
5,Nikolay Markin,1981,Russia,118.85,270,187.5,270,727.5,125,M,Николай Маркин,SBD,Single-ply,Open
DQ,Maksim Korotkov #1,1973,Russia,124.8,385,,,,125,M,Максим Коротков,SBD,Single-ply,Open
DQ,Sergey Shishkin,1972,Russia,122,,,,,125,M,Сергей Шишкин,SBD,Single-ply,Open
1,Andrey Ushakov,1980,Russia,135.25,300,255,325,880,125+,M,Андрей Ушаков,SBD,Single-ply,Open
2,Sergey Vlaskin,1974,Russia,125.3,300,230,250,780,125+,M,Сергей Власкин,SBD,Single-ply,Open
DQ,Valentin Biryukov,1976,Russia,143.7,,,,,125+,M,Валентин Бирюков,SBD,Single-ply,Open
DQ,Karen Danilyan,1976,Russia,157,,,,,125+,M,Карен Данилян,SBD,Single-ply,Open
