Division,WeightClassKg,Place,Name,Team,BodyweightKg,Best3SquatKg,Best3BenchKg,Best3DeadliftKg,TotalKg,Equipment,Event,Sex,BirthDate
Girls,44.23,1,Syann Hernandez,Weslaco East,40.55,120.2,45.36,127.01,292.57,Single-ply,SBD,F,
Girls,44.23,2,Anabel Martinez,Edcouch-Elsa,43.91,111.13,56.7,124.74,292.57,Single-ply,SBD,F,
Girls,44.23,3,Kaila Gonzalez,McAllen,42.27,115.67,68.04,97.52,281.23,Single-ply,SBD,F,
Girls,44.23,4,Destiny Gonzalez,Weslaco,42.09,102.06,49.9,108.86,260.82,Single-ply,SBD,F,
Girls,44.23,5,Angelina Zuniga,San Benito,43.36,99.79,58.97,99.79,258.55,Single-ply,SBD,F,
Girls,44.23,6,Karla Linares,Victoria West,43,99.79,52.16,97.52,249.48,Single-ply,SBD,F,
Girls,44.23,7,Arianna Malacara,McAllen Memorial,44.18,102.06,47.63,99.79,249.48,Single-ply,SBD,F,
Girls,44.23,8,Savannah Ramirez,San Antonio Southwest Legacy,41.91,95.25,45.36,97.52,238.14,Single-ply,SBD,F,
Girls,44.23,9,Zilah Velez,Edcouch-Elsa,44.09,90.72,43.09,102.06,235.87,Single-ply,SBD,F,
Girls,44.23,10,Yaritza Gonzalez,Roma,41.64,90.72,52.16,86.18,229.06,Single-ply,SBD,F,
Girls,44.23,11,Allison Ambriz,Edinburg,41.37,74.84,36.29,79.38,190.51,Single-ply,SBD,F,
Girls,44.23,12,Ashley Dominuez,McAllen,38.74,65.77,34.02,65.77,165.56,Single-ply,SBD,F,
Girls,44.23,DQ,Jonnissa Scarberry,Harlingen,43.82,,,,,Single-ply,SBD,F,
Girls,44.23,DQ,Brittney Bendetti,PSJA Memorial,44,,,,,Single-ply,SBD,F,
Girls,47.85,1,Sindy Aguilera,Los Fresnos,47.08,122.47,54.43,127.01,303.91,Single-ply,SBD,F,
Girls,47.85,2,Aileen Garza,Roma,47.08,127.01,52.16,117.93,297.1,Single-ply,SBD,F,
Girls,47.85,3,Devany Monsivais,San Antonio East Central,46.18,122.47,49.9,120.2,292.57,Single-ply,SBD,F,
Girls,47.85,4,Destiny Vanausdall,San Antonio Southside,46.9,127.01,47.63,115.67,290.3,Single-ply,SBD,F,
Girls,47.85,5,Kassandra Falcon,McAllen Memorial,47.81,115.67,56.7,117.93,290.3,Single-ply,SBD,F,
Girls,47.85,6,Jazmeen Reyna,Victoria West,46.99,117.93,56.7,111.13,285.76,Single-ply,SBD,F,
Girls,47.85,7,Brianna De La Rosa,Los Fresnos,47.08,111.13,49.9,124.74,285.76,Single-ply,SBD,F,
Girls,47.85,8,Aisha Guijarro,PSJA Southwest,47.26,115.67,49.9,113.4,278.96,Single-ply,SBD,F,
Girls,47.85,9,Naddra Gonzalez,Pharr Valley View,46.72,97.52,52.16,113.4,263.08,Single-ply,SBD,F,
Girls,47.85,10,Daniella Maximo,Harlingen South,46.18,102.06,52.16,106.59,260.82,Single-ply,SBD,F,
Girls,47.85,11,Anyssa Donez,Los Fresnos,47.85,106.59,49.9,90.72,247.21,Single-ply,SBD,F,
Girls,47.85,12,Monica Martinez,Brownsville Veterans Memorial,47.08,95.25,47.63,99.79,242.67,Single-ply,SBD,F,
Girls,47.85,13,Jovanna Hernandez,Victoria East,47.81,90.72,47.63,83.91,222.26,Single-ply,SBD,F,
Girls,47.85,14,Raegan Martinez,Gregory-Portland,47.08,97.52,40.82,74.84,213.19,Single-ply,SBD,F,
Girls,47.85,15,Brooke Ramos,Victoria West,46.99,79.38,40.82,90.72,210.92,Single-ply,SBD,F,
Girls,47.85,16,Aylin Garcia,Harlingen South,47.36,90.72,24.95,68.04,183.7,Single-ply,SBD,F,
Girls,47.85,17,Nicole Salinas,Mission Veterans Memorial,46.67,58.97,38.56,81.65,179.17,Single-ply,SBD,F,
Girls,47.85,18,Victoria Hernandez,Weslaco,47.54,56.7,45.36,72.57,174.63,Single-ply,SBD,F,
Girls,47.85,19,Kiara Martinez,Victoria East,46.72,68.04,34.02,,102.06,Single-ply,SB,F,
Girls,47.85,DQ,Natalie Martinez,Weslaco East,47.63,117.93,,,,Single-ply,SBD,F,
Girls,47.85,DQ,Raylein Gaona,PSJA Memorial,47.63,,,,,Single-ply,SBD,F,
Girls,47.85,DQ,Emily Ayala,PSJA Memorial,47.63,,,,,Single-ply,SBD,F,
Girls,47.85,DQ,Danielle Solis,PSJA Southwest,47.63,115.67,,,,Single-ply,SBD,F,
Girls,47.85,DQ,Roxanne Cantu,Donna,47.63,95.25,,,,Single-ply,SBD,F,
Girls,51.94,1,Miranda Escamilla,Los Fresnos,51.8,154.22,70.31,154.22,378.75,Single-ply,SBD,F,
Girls,51.94,2,Clarissa Sanchez,PSJA Southwest,51.71,136.08,58.97,127.01,322.05,Single-ply,SBD,F,
Girls,51.94,3,Leslie Sequera,McAllen,48.99,127.01,63.5,115.67,306.17,Single-ply,SBD,F,
Girls,51.94,4,Alexia Zapata,PSJA Southwest,51.71,136.08,63.5,104.33,303.91,Single-ply,SBD,F,
Girls,51.94,5,Hailey Martin,Los Fresnos,50.17,117.93,70.31,106.59,294.84,Single-ply,SBD,F,
Girls,51.94,6,Yaleina Ramirez,McAllen Rowe,50.98,120.2,52.16,117.93,290.3,Single-ply,SBD,F,
Girls,51.94,7,Kimberly Esparza,Edcouch-Elsa,51.53,120.2,54.43,113.4,288.03,Single-ply,SBD,F,
Girls,51.94,8,Mikayla Sendejo,San Antonio East Central,51.39,127.01,49.9,108.86,285.76,Single-ply,SBD,F,
Girls,51.94,9,Priscilla Basaldua,Pharr Valley View,51.26,113.4,54.43,113.4,281.23,Single-ply,SBD,F,
Girls,51.94,10,Makayla Gonzales,Floresville,50.58,102.06,47.63,111.13,260.82,Single-ply,SBD,F,
Girls,51.94,11,Bianca Gutierrez,Brownsville Hanna,50.98,92.99,65.77,99.79,258.55,Single-ply,SBD,F,
Girls,51.94,12,Cailin Lopez,Gregory-Portland,51.17,86.18,70.31,102.06,258.55,Single-ply,SBD,F,
Girls,51.94,13,Alexsys de la Cruz,McAllen Rowe,51.07,90.72,49.9,95.25,235.87,Single-ply,SBD,F,
Girls,51.94,14,Esmeralda Najera,San Benito,51.53,102.06,40.82,90.72,233.6,Single-ply,SBD,F,
Girls,51.94,15,America Calderon,McAllen Memorial,51.44,92.99,40.82,95.25,229.06,Single-ply,SBD,F,
Girls,51.94,16,Jesly Muniz,Pharr Valley View,50.26,95.25,43.09,79.38,217.72,Single-ply,SBD,F,
Girls,51.94,17,Krisantha Rodriguez,Mission Veterans Memorial,51.8,83.91,45.36,79.38,208.65,Single-ply,SBD,F,
Girls,51.94,18,Kailyn Gomez,McAllen Rowe,49.44,72.57,36.29,95.25,204.12,Single-ply,SBD,F,
Girls,51.94,19,Aylette Garcia,Harlingen South,51.17,74.84,34.02,92.99,201.85,Single-ply,SBD,F,
Girls,51.94,20,Valeria Quiroz,Weslaco,50.17,65.77,29.48,90.72,185.97,Single-ply,SBD,F,
Girls,51.94,DQ,Lina Garza,San Benito,51.71,,,,,Single-ply,SBD,F,
Girls,51.94,DQ,Julianne Ramirez,PSJA North,51.71,,,,,Single-ply,SBD,F,
Girls,51.94,DQ,Daniella Puga,Mission,51.71,,,,,Single-ply,SBD,F,
Girls,51.94,DQ,Mariana Perez,Castroville Medina Valley,51.71,,,,,Single-ply,SBD,F,
Girls,51.94,DQ,Alyssa Cortez,San Antonio Southside,48.99,,,,,Single-ply,SBD,F,
Girls,51.94,DQ,Romina Encinia,San Benito,50.44,74.84,,,,Single-ply,SBD,F,
Girls,51.94,DQ,Amber Vasquez,PSJA Southwest,51.71,,,,,Single-ply,SBD,F,
Girls,51.94,DQ,Jacky Nino,Mission Veterans Memorial,51.71,,,,,Single-ply,SBD,F,
Girls,56.02,1,Maryssa Lucio,Brownsville Hanna,55.61,151.95,95.25,138.35,385.55,Single-ply,SBD,F,
Girls,56.02,2,Ale Garcia,Los Fresnos,55.43,142.88,74.84,156.49,374.21,Single-ply,SBD,F,
Girls,56.02,3,Veronica Martinez,Los Fresnos,53.16,147.42,72.57,149.69,369.68,Single-ply,SBD,F,
Girls,56.02,4,Deena Flores,Edcouch-Elsa,52.53,145.15,72.57,149.69,367.41,Single-ply,SBD,F,
Girls,56.02,5,Jolette Garza,Mission Sharyland,54.84,136.08,77.11,142.88,356.07,Single-ply,SBD,F,
Girls,56.02,6,Asia De Leon,Brownsville Pace,55.97,129.27,61.23,161.03,351.53,Single-ply,SBD,F,
Girls,56.02,7,Valeria Gutierrez,Donna,55.25,151.95,58.97,136.08,347,Single-ply,SBD,F,
Girls,56.02,8,Abigail Ramos,San Antonio Southwest Legacy,56.02,140.61,65.77,140.61,347,Single-ply,SBD,F,
Girls,56.02,9,Laney Bustos,Gregory-Portland,55.16,127.01,70.31,140.61,337.93,Single-ply,SBD,F,
Girls,56.02,10,Kim Garza,Los Fresnos,55.52,142.88,65.77,127.01,335.66,Single-ply,SBD,F,
Girls,56.02,11,Jimena Quintanilla,Edinburg Vela,54.98,117.93,65.77,106.59,290.3,Single-ply,SBD,F,
Girls,56.02,12,Alexandria Licea,San Antonio East Central,55.43,113.4,56.7,117.93,288.03,Single-ply,SBD,F,
Girls,56.02,13,Evanee Salinas,Los Fresnos,54.88,120.2,49.9,111.13,281.23,Single-ply,SBD,F,
Girls,56.02,14,Jayla Hernandez,Victoria East,55.16,108.86,54.43,115.67,278.96,Single-ply,SBD,F,
Girls,56.02,15,Kylie Olivarez,Donna North,55.75,104.33,47.63,127.01,278.96,Single-ply,SBD,F,
Girls,56.02,16,Katelyn Padalecki,Floresville,51.98,108.86,54.43,104.33,267.62,Single-ply,SBD,F,
Girls,56.02,17,Jaidynne Solis,Floresville,54.34,99.79,49.9,102.06,251.74,Single-ply,SBD,F,
Girls,56.02,18,Destiny Torres,Brownsville Lopez,53.07,102.06,52.16,92.99,247.21,Single-ply,SBD,F,
Girls,56.02,19,Ayleen Perez-Salmeron,Mission,55.29,95.25,49.9,97.52,242.67,Single-ply,SBD,F,
Girls,56.02,20,Danica Rivera,Edinburg,55.79,90.72,52.16,99.79,242.67,Single-ply,SBD,F,
Girls,56.02,21,Katelynn Vela,San Antonio Southside,56.02,102.06,49.9,90.72,242.67,Single-ply,SBD,F,
Girls,56.02,22,Angelina Rodriguez,Edcouch-Elsa,54.52,92.99,40.82,90.72,224.53,Single-ply,SBD,F,
Girls,56.02,23,Kayla Martinez,San Antonio Southside,52.98,136.08,,,136.08,Single-ply,S,F,
Girls,56.02,DQ,Zowie Sifuentes,San Antonio East Central,55.43,108.86,,,,Single-ply,SBD,F,
Girls,56.02,DQ,Summer Garcia,Edinburg North,52.75,113.4,,,,Single-ply,SBD,F,
Girls,56.02,DQ,Ruby Herrera,Floresville,54.34,,,,,Single-ply,SBD,F,
Girls,60.1,1,Princess Rios,Edinburg Economedes,59.87,174.63,104.33,149.69,428.64,Single-ply,SBD,F,
Girls,60.1,2,Georgina Alaniz,Edcouch-Elsa,59.33,170.1,86.18,151.95,408.23,Single-ply,SBD,F,
Girls,60.1,3,Aleena Chavez,Mission,58.33,156.49,79.38,124.74,360.61,Single-ply,SBD,F,
Girls,60.1,4,Tori Escalante,Los Fresnos,60.06,145.15,81.65,127.01,353.8,Single-ply,SBD,F,
Girls,60.1,5,Karla Rodriguez,Weslaco,57.06,124.74,70.31,156.49,351.53,Single-ply,SBD,F,
Girls,60.1,6,Samantha Ware,Gregory-Portland,58.79,140.61,72.57,138.35,351.53,Single-ply,SBD,F,
Girls,60.1,7,Analysa Munoz,San Antonio East Central,59.19,142.88,65.77,142.88,351.53,Single-ply,SBD,F,
Girls,60.1,8,Kimberly Gonzalez,Edinburg,59.24,140.61,81.65,120.2,342.46,Single-ply,SBD,F,
Girls,60.1,9,Iliana Vasquez,Sharyland Pioneer,56.88,136.08,65.77,136.08,337.93,Single-ply,SBD,F,
Girls,60.1,10,Hailey Olivarez,Weslaco East,58.6,136.08,74.84,120.2,331.12,Single-ply,SBD,F,
Girls,60.1,11,Issa Benavidez,McAllen,59.24,133.81,77.11,111.13,322.05,Single-ply,SBD,F,
Girls,60.1,12,Klarissa Solis,PSJA North,59.15,113.4,54.43,129.27,297.1,Single-ply,SBD,F,
Girls,60.1,13,Yuleibi Ruiz,Donna North,59.19,127.01,47.63,117.93,292.57,Single-ply,SBD,F,
Girls,60.1,14,Jennah Sandoval,Edinburg,59.51,115.67,58.97,113.4,288.03,Single-ply,SBD,F,
Girls,60.1,15,Janyssa Espinoza,Mission Veterans Memorial,57.42,97.52,63.5,122.47,283.5,Single-ply,SBD,F,
Girls,60.1,16,Denisse Serna,Edinburg,58.24,111.13,61.23,111.13,283.5,Single-ply,SBD,F,
Girls,60.1,17,Annissa Gomez,Edinburg,58.69,120.2,63.5,99.79,283.5,Single-ply,SBD,F,
Girls,60.1,18,Emilie Angon,McAllen Rowe,60.06,111.13,54.43,113.4,278.96,Single-ply,SBD,F,
Girls,60.1,19,Alyssa Ponce,Mission Sharyland,56.15,106.59,56.7,108.86,272.16,Single-ply,SBD,F,
Girls,60.1,20,Kassandra Castillo,Mercedes,58.15,111.13,49.9,106.59,267.62,Single-ply,SBD,F,
Girls,60.1,21,Madison Lugo,Donna,59.24,104.33,56.7,106.59,267.62,Single-ply,SBD,F,
Girls,60.1,22,Galilea Flores,Donna North,58.2,102.06,43.09,117.93,263.08,Single-ply,SBD,F,
Girls,60.1,23,Landi Lopez,Mission Veterans Memorial,58.6,97.52,49.9,95.25,242.67,Single-ply,SBD,F,
Girls,60.1,24,Jocelyn Duran,Pharr Valley View,58.06,74.84,49.9,108.86,233.6,Single-ply,SBD,F,
Girls,60.1,25,Illiana Hernandez,Gregory-Portland,59.51,88.45,52.16,92.99,233.6,Single-ply,SBD,F,
Girls,60.1,26,Cassidy Gomez,McAllen Rowe,59.78,90.72,43.09,95.25,229.06,Single-ply,SBD,F,
Girls,60.1,27,Gisela Alanz,Rio Grande City,59.87,102.06,,,102.06,Single-ply,S,F,
Girls,60.1,DQ,Madeline Quiroga,Weslaco East,59.87,,,,,Single-ply,SBD,F,
Girls,60.1,DQ,Litzy Martinez,San Benito,57.52,,,,,Single-ply,SBD,F,
Girls,60.1,DQ,Nasha Thomas,Castroville Medina Valley,59.87,,,,,Single-ply,SBD,F,
Girls,60.1,DQ,Alexandra Davila,Brownsville Pace,59.87,,,,,Single-ply,SBD,F,
Girls,67.36,1,Kassandra Mendiola,McAllen Memorial,65.09,172.37,81.65,190.51,444.52,Single-ply,SBD,F,
Girls,67.36,2,Jenifher Gallegos,San Benito,67.13,185.97,86.18,147.42,419.57,Single-ply,SBD,F,
Girls,67.36,3,Gianna Aleman,McAllen,66.59,156.49,111.13,142.88,410.5,Single-ply,SBD,F,
Girls,67.36,4,Daniela Roman,Sharyland Pioneer,65.86,170.1,83.91,154.22,408.23,Single-ply,SBD,F,
Girls,67.36,5,Carmen Lainez,Los Fresnos,66.68,142.88,83.91,142.88,369.68,Single-ply,SBD,F,
Girls,67.36,6,Andrea Rizo,Brownsville Pace,65.5,154.22,65.77,142.88,362.87,Single-ply,SBD,F,
Girls,67.36,7,Franchesca Sanchez,Los Fresnos,66.77,142.88,83.91,136.08,362.87,Single-ply,SBD,F,
Girls,67.36,8,Rebecca Cavazos,McAllen Rowe,64.95,145.15,72.57,140.61,358.34,Single-ply,SBD,F,
Girls,67.36,9,Diony Villanueva,Edinburg Economedes,63.41,136.08,70.31,136.08,342.46,Single-ply,SBD,F,
Girls,67.36,10,Julissa Nino,San Benito,66.22,142.88,61.23,127.01,331.12,Single-ply,SBD,F,
Girls,67.36,11,Amy Aguirre,Edcouch-Elsa,66.77,131.54,74.84,124.74,331.12,Single-ply,SBD,F,
Girls,67.36,12,Amaris Cruz,Edinburg Vela,65.95,129.27,61.23,117.93,308.44,Single-ply,SBD,F,
Girls,67.36,13,Julie Valdez,Harlingen,65.59,124.74,56.7,124.74,306.17,Single-ply,SBD,F,
Girls,67.36,14,Julie Benitez,Edinburg Vela,64.68,129.27,63.5,106.59,299.37,Single-ply,SBD,F,
Girls,67.36,15,Evelyn Rodriguez,Brownsville Veterans Memorial,65.41,120.2,63.5,111.13,294.84,Single-ply,SBD,F,
Girls,67.36,16,Rubi Garcia,Weslaco,65.59,113.4,58.97,122.47,294.84,Single-ply,SBD,F,
Girls,67.36,17,Analie Ayala,PSJA Southwest,64.32,117.93,61.23,113.4,292.57,Single-ply,SBD,F,
Girls,67.36,18,Franki Zavala,Brownsville Hanna,65.59,120.2,65.77,106.59,292.57,Single-ply,SBD,F,
Girls,67.36,19,Jaquline Zuniga,PSJA Memorial,66.59,115.67,58.97,117.93,292.57,Single-ply,SBD,F,
Girls,67.36,20,Arlene Beraza,Donna,65.41,113.4,61.23,97.52,272.16,Single-ply,SBD,F,
Girls,67.36,21,Elana Canales,PSJA Memorial,64.59,104.33,45.36,102.06,251.74,Single-ply,SBD,F,
Girls,67.36,22,Nicole Watts,Gregory-Portland,60.42,102.06,45.36,95.25,242.67,Single-ply,SBD,F,
Girls,67.36,23,Carolena Estrada,Floresville,66.54,83.91,52.16,102.06,238.14,Single-ply,SBD,F,
Girls,67.36,DQ,Lorie Stark,Floresville,65.23,,,,,Single-ply,SBD,F,
Girls,67.36,DQ,Elena Aguinaga,Harlingen,66.68,147.42,,,,Single-ply,SBD,F,
Girls,67.36,DQ,Brianna Marquez,Mission,64.09,,,,,Single-ply,SBD,F,
Girls,67.36,DQ,Miranda Nunez,San Antonio East Central,64.68,120.2,,,,Single-ply,SBD,F,
Girls,67.36,DQ,Angel Gonzales #4,San Antonio Southwest Legacy,61.23,,,,,Single-ply,SBD,F,
Girls,67.36,DQ,Crystal Altamirano,San Antonio Southwest Legacy,67.31,,,,,Single-ply,SBD,F,
Girls,67.36,DQ,Navey Olivarez,PSJA Southwest,67.13,,,,,Single-ply,SBD,F,
Girls,67.36,DQ,Isabella Bucardo,Mission Sharyland,67.13,,,,,Single-ply,SBD,F,
Girls,67.36,DQ,Desrae Tovar,Donna,67.13,,,,,Single-ply,SBD,F,
Girls,75.07,1,Alyssa Echazarreta,McAllen,70.31,174.63,106.59,161.03,442.25,Single-ply,SBD,F,
Girls,75.07,2,Natalia Davila,Mission Sharyland,71.4,179.17,106.59,156.49,442.25,Single-ply,SBD,F,
Girls,75.07,3,Ariana Hernández,San Antonio Southwest,70.44,156.49,88.45,151.95,396.89,Single-ply,SBD,F,
Girls,75.07,4,Mia Gonzalez,Edcouch-Elsa,74.3,167.83,83.91,133.81,385.55,Single-ply,SBD,F,
Girls,75.07,5,Emily Rodriguez,Los Fresnos,73.57,161.03,79.38,142.88,383.29,Single-ply,SBD,F,
Girls,75.07,6,Denise Sanchez,Donna,74.75,154.22,74.84,149.69,378.75,Single-ply,SBD,F,
Girls,75.07,7,Michelle Ramirez,Edinburg North,75.02,149.69,86.18,142.88,378.75,Single-ply,SBD,F,
Girls,75.07,8,Idali Vasquez,Harlingen South,70.13,154.22,68.04,151.95,374.21,Single-ply,SBD,F,
Girls,75.07,9,Polet Tijerina,Edinburg Economedes,71.4,147.42,77.11,142.88,367.41,Single-ply,SBD,F,
Girls,75.07,10,Valerie Garza,Mission Veterans Memorial,72.57,140.61,99.79,124.74,365.14,Single-ply,SBD,F,
Girls,75.07,11,Danielle Barrera,Floresville,72.85,145.15,61.23,158.76,365.14,Single-ply,SBD,F,
Girls,75.07,12,Cassandra Martinez,Mercedes,73.12,154.22,70.31,136.08,360.61,Single-ply,SBD,F,
Girls,75.07,13,Alisa Ramirez,McAllen Rowe,70.03,140.61,70.31,145.15,356.07,Single-ply,SBD,F,
Girls,75.07,14,Matty Flores,Mission Veterans Memorial,71.94,138.35,99.79,113.4,351.53,Single-ply,SBD,F,
Girls,75.07,15,Allison Machado,Floresville,68.99,138.35,68.04,142.88,349.27,Single-ply,SBD,F,
Girls,75.07,16,Jesenia Castillo,Gregory-Portland,71.12,140.61,65.77,124.74,331.12,Single-ply,SBD,F,
Girls,75.07,17,Ixchel Mireles,McAllen Memorial,75.02,117.93,58.97,136.08,312.98,Single-ply,SBD,F,
Girls,75.07,18,Abby Yzaguirre,PSJA North,70.4,117.93,70.31,117.93,306.17,Single-ply,SBD,F,
Girls,75.07,19,Cassandra Cruz,San Benito,73.12,124.74,61.23,117.93,303.91,Single-ply,SBD,F,
Girls,75.07,20,Anett Luna,Brownsville Porter,73.66,127.01,61.23,115.67,303.91,Single-ply,SBD,F,
Girls,75.07,21,Marla Salazar,Los Fresnos,72.85,122.47,52.16,124.74,299.37,Single-ply,SBD,F,
Girls,75.07,22,Savana Gonzales,Harlingen South,75.02,102.06,61.23,113.4,276.69,Single-ply,SBD,F,
Girls,75.07,23,Zahylin Hernandez,Donna,70.49,102.06,47.63,111.13,260.82,Single-ply,SBD,F,
Girls,75.07,24,Monika Heckman,Harlingen,71.67,104.33,47.63,108.86,260.82,Single-ply,SBD,F,
Girls,75.07,25,Danielle Hess,Edinburg Vela,70.13,95.25,49.9,104.33,249.48,Single-ply,SBD,F,
Girls,75.07,26,Maricela Cardenas,San Antonio Southwest,70.99,117.93,,104.33,222.26,Single-ply,SD,F,
Girls,75.07,27,Brianna Benedetti,PSJA Memorial,68.22,111.13,79.38,,190.51,Single-ply,SB,F,
Girls,75.07,28,Savannah Hernandez,McAllen Rowe,74.48,138.35,,,138.35,Single-ply,S,F,
Girls,75.07,DQ,Jocelyn Rodriguez,San Antonio East Central,71.58,151.95,65.77,,,Single-ply,SBD,F,
Girls,82.33,1,Ashley Chavez,Edinburg Economedes,78.47,190.51,111.13,142.88,444.52,Single-ply,SBD,F,
Girls,82.33,2,Leksi Martinez,Castroville Medina Valley,80.56,179.17,97.52,158.76,435.45,Single-ply,SBD,F,
Girls,82.33,3,Araylie Garza,Edcouch-Elsa,77.7,170.1,104.33,147.42,421.84,Single-ply,SBD,F,
Girls,82.33,4,Kimberly Luna,Brownsville Pace,81.24,170.1,83.91,161.03,415.04,Single-ply,SBD,F,
Girls,82.33,5,Mariana Quiroz,Weslaco,79.47,188.24,79.38,145.15,412.77,Single-ply,SBD,F,
Girls,82.33,6,Natalie Rivera,Brownsville Pace,79.88,165.56,90.72,142.88,399.16,Single-ply,SBD,F,
Girls,82.33,7,Angelina Yanez,Donna,80.65,149.69,72.57,170.1,392.36,Single-ply,SBD,F,
Girls,82.33,8,Fernanda Vasquez,Gregory-Portland,80.47,154.22,81.65,149.69,385.55,Single-ply,SBD,F,
Girls,82.33,9,Christen Hernandez,Victoria East,79.2,154.22,56.7,158.76,369.68,Single-ply,SBD,F,
Girls,82.33,10,Jazlynn Hernandez,San Benito,81.74,158.76,54.43,147.42,360.61,Single-ply,SBD,F,
Girls,82.33,11,Zayda Sanchez,Mission Veterans Memorial,81.83,122.47,88.45,145.15,356.07,Single-ply,SBD,F,
Girls,82.33,12,Abby Moreno,Gregory-Portland,76.29,131.54,74.84,142.88,349.27,Single-ply,SBD,F,
Girls,82.33,13,Soila Moreno,Edcouch-Elsa,78.56,140.61,65.77,142.88,349.27,Single-ply,SBD,F,
Girls,82.33,14,Tory Marin,San Antonio East Central,81.47,142.88,63.5,140.61,347,Single-ply,SBD,F,
Girls,82.33,15,Raquel Uvalle,Harlingen,78.47,142.88,63.5,136.08,342.46,Single-ply,SBD,F,
Girls,82.33,16,Amanda Cabrera,Weslaco East,79.47,124.74,74.84,136.08,335.66,Single-ply,SBD,F,
Girls,82.33,17,Michelle Lozano,Mission Sharyland,78.47,136.08,68.04,117.93,322.05,Single-ply,SBD,F,
Girls,82.33,18,Valeria Estrada,Edinburg North,77.61,113.4,70.31,129.27,312.98,Single-ply,SBD,F,
Girls,82.33,19,Victoria De La Rosa,PSJA North,78.93,117.93,54.43,120.2,292.57,Single-ply,SBD,F,
Girls,82.33,20,Irma Ozuna,Edinburg Vela,79.56,147.42,77.11,63.5,288.03,Single-ply,SBD,F,
Girls,82.33,21,Chelsy Salinas,Edinburg,80.56,120.2,58.97,106.59,285.76,Single-ply,SBD,F,
Girls,82.33,22,Samantha Garza,McAllen Rowe,78.65,102.06,65.77,113.4,281.23,Single-ply,SBD,F,
Girls,82.33,DQ,Kristal Espinoza,Donna,82.1,,,,,Single-ply,SBD,F,
Girls,82.33,DQ,Ashlyn Montes,PSJA North,80.83,,,,,Single-ply,SBD,F,
Girls,82.33,DQ,Hannah Trunnell,San Benito,79.74,,,,,Single-ply,SBD,F,
Girls,82.33,DQ,Elizabeth Solis,Mission Veterans Memorial,77.34,127.01,63.5,,,Single-ply,SBD,F,
Girls,90.04,1,Maggie Cepeda,McAllen,89.72,183.7,92.99,142.88,419.57,Single-ply,SBD,F,
Girls,90.04,2,Nallely Garcia,Edinburg Economedes,89.81,183.7,95.25,136.08,415.04,Single-ply,SBD,F,
Girls,90.04,3,Maria Casillas,PSJA North,87.91,176.9,74.84,145.15,396.89,Single-ply,SBD,F,
Girls,90.04,4,Alexis Rodriguez #4,Brownsville Porter,88.31,165.56,79.38,136.08,381.02,Single-ply,SBD,F,
Girls,90.04,5,Hally Cuevas,PSJA North,88.63,145.15,92.99,136.08,374.21,Single-ply,SBD,F,
Girls,90.04,6,Destiny Leandro,Floresville,86.64,145.15,68.04,158.76,371.95,Single-ply,SBD,F,
Girls,90.04,7,Joleen Trujillo,McAllen,84.1,147.42,61.23,147.42,356.07,Single-ply,SBD,F,
Girls,90.04,8,Emma Garza,Edcouch-Elsa,88.99,136.08,63.5,151.95,351.53,Single-ply,SBD,F,
Girls,90.04,9,Alyssa Alvarado,Edinburg,89.18,158.76,77.11,115.67,351.53,Single-ply,SBD,F,
Girls,90.04,10,Jaden Ybarra,San Benito,85.82,154.22,68.04,127.01,349.27,Single-ply,SBD,F,
Girls,90.04,11,Kimberly Cantu,San Antonio East Central,87.59,149.69,68.04,129.27,347,Single-ply,SBD,F,
Girls,90.04,12,Martha Martinez,Brownsville Pace,84.59,138.35,63.5,142.88,344.73,Single-ply,SBD,F,
Girls,90.04,13,Ruth Garza,Gregory-Portland,84.64,117.93,70.31,120.2,308.44,Single-ply,SBD,F,
Girls,90.04,14,Perla Mercado,Brownsville Porter,86.91,131.54,49.9,120.2,301.64,Single-ply,SBD,F,
Girls,90.04,15,Klareeza Guerrero,Donna,84.28,113.4,61.23,120.2,294.84,Single-ply,SBD,F,
Girls,90.04,DQ,Adriana Cancino,Brownsville Hanna,86.55,142.88,,,,Single-ply,SBD,F,
Girls,90.04,DQ,Nadia De La Cruz,Brownsville Porter,89.81,,,,,Single-ply,SBD,F,
Girls,90.04,DQ,Kimberly Garza,Rio Grande City,89.81,,,,,Single-ply,SBD,F,
Girls,90.04,DQ,Hailey Gomez,PSJA Memorial,89.81,,,,,Single-ply,SBD,F,
Girls,90.04,DQ,Nayelie Barrera,Weslaco East,89.81,,,,,Single-ply,SBD,F,
Girls,90.04,DQ,Alyssa Sauceda,Victoria East,87.45,219.99,,,,Single-ply,SBD,F,
Girls,100.02,1,Anahi Garcia,Edinburg Economedes,95.16,208.65,113.4,176.9,498.95,Single-ply,SBD,F,
Girls,100.02,2,Valeria Santiago,McAllen Memorial,99.88,195.04,102.06,158.76,455.86,Single-ply,SBD,F,
Girls,100.02,3,Evelyn Garza,Edcouch-Elsa,98.93,190.51,108.86,149.69,449.06,Single-ply,SBD,F,
Girls,100.02,4,Alejandra Garcia,Los Fresnos,98.43,183.7,95.25,156.49,435.45,Single-ply,SBD,F,
Girls,100.02,5,Allyson Gil,Brownsville Porter,96.71,165.56,92.99,136.08,394.63,Single-ply,SBD,F,
Girls,100.02,6,Linda Rodriguez,Weslaco,99.79,179.17,79.38,127.01,385.55,Single-ply,SBD,F,
Girls,100.02,7,Kayra Guerrero,Donna,98.25,156.49,79.38,142.88,378.75,Single-ply,SBD,F,
Girls,100.02,8,Yvonne De La Fuente,Brownsville Veterans Memorial,99.61,145.15,68.04,138.35,351.53,Single-ply,SBD,F,
Girls,100.02,9,Marissa Peacock,Edinburg North,97.48,145.15,83.91,117.93,347,Single-ply,SBD,F,
Girls,100.02,10,Dora Gonzalez,Donna,96.62,158.76,65.77,115.67,340.19,Single-ply,SBD,F,
Girls,100.02,11,Alyse Gonzales,Victoria West,93.62,136.08,61.23,140.61,337.93,Single-ply,SBD,F,
Girls,100.02,12,Adriana Cavazos,Weslaco,93.62,142.88,77.11,117.93,337.93,Single-ply,SBD,F,
Girls,100.02,13,Emberlynn Burnett,San Antonio Southwest,98.84,136.08,72.57,122.47,331.12,Single-ply,SBD,F,
Girls,100.02,14,Cristina Monjaraz,Pharr Valley View,94.98,145.15,61.23,120.2,326.59,Single-ply,SBD,F,
Girls,100.02,15,Lindsey Gagne,McAllen,94.98,129.27,68.04,120.2,317.51,Single-ply,SBD,F,
Girls,100.02,16,Amy Sauceda,Harlingen South,97.98,127.01,56.7,127.01,310.71,Single-ply,SBD,F,
Girls,100.02,DQ,Isabella Garcia,Mercedes,99.79,,,,,Single-ply,SBD,F,
Girls,100.02,DQ,Kat Salas,Brownsville Porter,99.79,,,,,Single-ply,SBD,F,
Girls,100.02,DQ,Mary Casillas,PSJA North,99.79,,,,,Single-ply,SBD,F,
Girls,100.02,DQ,India Davis,San Antonio East Central,94.71,163.29,,,,Single-ply,SBD,F,
Girls,100.02,DQ,Grace Lopez,Weslaco,97.79,,,,,Single-ply,SBD,F,
Girls,117.71,1,Erika Guerrero,Mission,115.3,240.4,138.35,154.22,532.97,Single-ply,SBD,F,
Girls,117.71,2,Marleen Salazar,Brownsville Lopez,105.05,199.58,115.67,183.7,498.95,Single-ply,SBD,F,
Girls,117.71,3,Crystal Palafox,Sharyland Pioneer,110.86,188.24,113.4,151.95,453.59,Single-ply,SBD,F,
Girls,117.71,4,Leah Cantu,McAllen Memorial,113.31,183.7,115.67,151.95,451.32,Single-ply,SBD,F,
Girls,117.71,5,Alex Aguilar #1,Castroville Medina Valley,117.66,183.7,92.99,165.56,442.25,Single-ply,SBD,F,
Girls,117.71,6,Victoria Pena,Edcouch-Elsa,102.6,181.44,104.33,149.69,435.45,Single-ply,SBD,F,
Girls,117.71,7,Shaylin Franklin,Seguin,112.76,165.56,83.91,172.37,421.84,Single-ply,SBD,F,
Girls,117.71,8,Nayeli Lopez,Brownsville Veterans Memorial,106.96,170.1,88.45,161.03,419.57,Single-ply,SBD,F,
Girls,117.71,9,Sierra Pardo,Floresville,111.67,158.76,81.65,151.95,392.36,Single-ply,SBD,F,
Girls,117.71,10,Sarah Longoria,Mercedes,115.67,161.03,74.84,138.35,374.21,Single-ply,SBD,F,
Girls,117.71,11,Andria Fierros,Gregory-Portland,100.97,140.61,65.77,131.54,337.93,Single-ply,SBD,F,
Girls,117.71,12,Siomara Garcia,Edinburg Economedes,101.33,124.74,77.11,131.54,333.39,Single-ply,SBD,F,
Girls,117.71,13,Elsa Reyna,Edinburg,102.06,99.79,63.5,102.06,265.35,Single-ply,SBD,F,
Girls,117.71,14,Diana Gallardo,Brownsville Lopez,105.23,92.99,61.23,102.06,256.28,Single-ply,SBD,F,
Girls,117.71,15,Gracie Rodriguez,Harlingen South,100.61,102.06,40.82,83.91,226.8,Single-ply,SBD,F,
Girls,117.71,DQ,Laisha Garza,San Benito,117.48,,,,,Single-ply,SBD,F,
Girls,117.71,DQ,Emily Solis,Brownsville Hanna,110.86,,,,,Single-ply,SBD,F,
Girls,117.71,DQ,Kenya Barrientos,Brownsville Pace,108.27,,,,,Single-ply,SBD,F,
Girls,117.71,DQ,Allyson Gil,Brownsville Porter,117.48,,,,,Single-ply,SBD,F,
Girls,117.71,DQ,Oriana Rios,Rio Grande City,117.48,,,,,Single-ply,SBD,F,
Girls,117.71,DQ,Mia Ochoa,PSJA Southwest,117.48,,,,,Single-ply,SBD,F,
Girls,117.71+,1,Aisha Garcia,Edcouch-Elsa,151.59,215.46,104.33,149.69,469.47,Single-ply,SBD,F,
Girls,117.71+,2,Leslie Montelongo,Weslaco,136.44,188.24,97.52,172.37,458.13,Single-ply,SBD,F,
Girls,117.71+,3,Denise Gonzalez,Weslaco,137.35,201.85,86.18,165.56,453.59,Single-ply,SBD,F,
Girls,117.71+,4,Aaliyah Prater,Brownsville Porter,124.38,179.17,79.38,151.95,410.5,Single-ply,SBD,F,
Girls,117.71+,5,Ginger Curly,Brownsville Rivera,122.29,156.49,68.04,127.01,351.53,Single-ply,SBD,F,
Girls,117.71+,6,Emily Jansen,Gregory-Portland,126.55,113.4,81.65,102.06,297.1,Single-ply,SBD,F,
Girls,117.71+,DQ,Britttney Ramirez,Donna North,121.15,181.44,,,,Single-ply,SBD,F,
