Place,Name,CyrillicName,BirthYear,BodyweightKg,Best3SquatKg,Best3BenchKg,Best3DeadliftKg,TotalKg,WeightClassKg,Event,Equipment,Division,Sex,BirthDate
1,Tatyana Kolosova,Татьяна Колосова,1991,45.8,92.5,42.5,102.5,237.5,47,SBD,Single-ply,Open,F,
2,Ekaterina Gorycheva,Екатерина Горычева,1999,45.8,80,45,90,215,47,SBD,Single-ply,Open,F,
1,Olesya Levkina,Олеся Левкина,1998,50.65,127.5,62.5,120,310,52,SBD,Single-ply,Open,F,
2,Irina Terenteva,Ирина Терентьева,1990,50.9,90,60,102.5,252.5,52,SBD,Single-ply,Open,F,
1,Yuliana Materikova,Юлиана Материкова,1990,56.6,135,72.5,150.5,358,57,SBD,Single-ply,Open,F,
2,Nina Grishina,Нина Гришина,1976,56.75,120,70,135,325,57,SBD,Single-ply,Open,F,
3,Naylya Vagapova,Найля Вагапова,1989,56.4,120,62.5,115,297.5,57,SBD,Single-ply,Open,F,
4,Anna Sizova,Анна Сизова,1987,56.75,100,45,115,260,57,SBD,Single-ply,Open,F,
DQ,Ekaterina Balashova,Екатерина Балашова,1987,56.2,90,-42.5,,,57,SBD,Single-ply,Open,F,
1,Mariya Kukushkina,Мария Кукушкина,1992,62.75,130,67.5,125,322.5,63,SBD,Single-ply,Open,F,
2,Kseniya Khramovich,Ксения Храмович,1992,61.45,125,52.5,125,302.5,63,SBD,Single-ply,Open,F,
3,Diana Posmitnaya,Диана Посмитная,1991,62.1,110,67.5,115,292.5,63,SBD,Single-ply,Open,F,
4,Elena Bocharova,Елена Бочарова,1993,62.05,105,42.5,110,257.5,63,SBD,Single-ply,Open,F,
5,Larisa Magazing,Лариса Магазинг,1965,59.7,95,47.5,100,242.5,63,SBD,Single-ply,Open,F,
1,Yuliya Koshurina,Юлия Кошурина,1968,74.3,120,82.5,115,317.5,84,SBD,Single-ply,Open,F,
1,Vladimir Druzhinin,Владимир Дружинин,1985,59,220,170,195,585,59,SBD,Single-ply,Open,M,
2,Vladislav Parshin,Владислав Паршин,2000,59,170,110,160,440,59,SBD,Single-ply,Open,M,
3,Evgeniy Brodyanoy,Евгений Бродяной,2001,56.95,135,90,137.5,362.5,59,SBD,Single-ply,Open,M,
4,Ivan Mysyagin,Иван Мысягин,2002,58.8,142.5,80,140,362.5,59,SBD,Single-ply,Open,M,
1,Roman Malyshev,Роман Малышев,1999,65.8,180,115,195,490,66,SBD,Single-ply,Open,M,
2,Vladimir Soldatkin,Владимир Солдаткин,1985,62.65,120,90,140,350,66,SBD,Single-ply,Open,M,
DQ,Artyom Shifanov,Артём Шифанов,1990,65.85,-200,,,,66,SBD,Single-ply,Open,M,
1,Andrey Lunkov,Андрей Луньков,1990,74,247.5,155,260,662.5,74,SBD,Single-ply,Open,M,
2,Andrey Mokrov,Андрей Мокров,1986,71.7,217.5,160,200,577.5,74,SBD,Single-ply,Open,M,
3,Kirill Gorshkov,Кирилл Горшков,1987,74,215,132.5,195,542.5,74,SBD,Single-ply,Open,M,
4,Dmitriy Yaroslavtsev,Дмитрий Ярославцев,2000,70.55,160,112.5,180,452.5,74,SBD,Single-ply,Open,M,
5,Anton Skvortsov,Антон Скворцов,1994,70.7,145,100,170,415,74,SBD,Single-ply,Open,M,
6,Ilya Veselov,Илья Веселов,2003,72,120,67.5,132.5,320,74,SBD,Single-ply,Open,M,
1,Vladislav Sheruntaev,Владислав Шерунтаев,1997,81.25,280,187.5,265,732.5,83,SBD,Single-ply,Open,M,
2,Dmitriy Ladygin,Дмитрий Ладыгин,1978,80.75,280,180,260,720,83,SBD,Single-ply,Open,M,
3,Aleksandr Gika,Александр Гика,1993,78.65,250,160,260,670,83,SBD,Single-ply,Open,M,
4,Vladislav Filatov,Владислав Филатов,1997,80.9,200,200,182.5,582.5,83,SBD,Single-ply,Open,M,
5,Egor Ankherov,Егор Анхеров,1989,82.6,215,135,210,560,83,SBD,Single-ply,Open,M,
DQ,Sergey Serov,Сергей Серов,1981,82.6,-265,,,,83,SBD,Single-ply,Open,M,
1,Dmitriy Romantsov,Дмитрий Романцов,1985,90.4,277.5,195,280,752.5,93,SBD,Single-ply,Open,M,
2,Ivan Shevlyakov,Иван Шевляков,1990,93,265,192.5,255,712.5,93,SBD,Single-ply,Open,M,
3,Vladimir Mayorov,Владимир Майоров,1990,91.5,257.5,185,220,662.5,93,SBD,Single-ply,Open,M,
4,Evgeniy Kataev,Евгений Катаев,1985,89.75,220,210,215,645,93,SBD,Single-ply,Open,M,
5,Anton Kazakov,Антон Казаков,1983,92.4,240,170,230,640,93,SBD,Single-ply,Open,M,
6,Aleksey Grachev,Алексей Грачев,1976,88.3,212.5,187.5,200,600,93,SBD,Single-ply,Open,M,
7,Valeriy Soldatkin,Валерий Солдаткин,1977,87.35,210,155,220,585,93,SBD,Single-ply,Open,M,
8,Sergey Chaplakhin,Сергей Чаплахин,1976,88.65,180,167.5,200,547.5,93,SBD,Single-ply,Open,M,
9,Oleg Khramovich,Олег Храмович,1988,87.8,200,117.5,200,517.5,93,SBD,Single-ply,Open,M,
10,Artem Georgievskiy,Артем Георгиевский,1989,93,180,112.5,180,472.5,93,SBD,Single-ply,Open,M,
1,Vasiliy Vinogradov,Василий Виноградов,1979,100.35,290,180,275,745,105,SBD,Single-ply,Open,M,
2,Oleg Titov,Олег Титов,1992,101.5,240,165,260,665,105,SBD,Single-ply,Open,M,
3,Dmitriy Yusov,Дмитрий Юсов,1976,104.4,240,180,230,650,105,SBD,Single-ply,Open,M,
4,Evgeniy Lukin,Евгений Лукин,1987,95.25,230,170,245,645,105,SBD,Single-ply,Open,M,
5,Dmitriy Solnyshkin,Дмитрий Солнышкин,1987,104.05,220,175,230,625,105,SBD,Single-ply,Open,M,
6,Andrey Sokolov,Андрей Соколов,1980,101.5,220,190,205,615,105,SBD,Single-ply,Open,M,
DQ,Ivan Kuvshinov,Иван Кувшинов,1992,99.95,240,170,-235,,105,SBD,Single-ply,Open,M,
DQ,Vladimir Sidorov,Владимир Сидоров,1981,102.2,280,205,-260,,105,SBD,Single-ply,Open,M,
1,Nikolay Shanin,Николай Шанин,1989,119.4,300,300,290,890,120,SBD,Single-ply,Open,M,
2,Andrey Revyagin,Андрей Ревягин,1983,118.3,265,202.5,250,717.5,120,SBD,Single-ply,Open,M,
1,Lev Bergert,Лев Бергерт,1966,162.3,330,300,307.5,937.5,120+,SBD,Single-ply,Open,M,
2,Maksim Argudyaev,Максим Аргудяев,1983,133.05,310,290,307.5,907.5,120+,SBD,Single-ply,Open,M,
3,Pyotr Beloglazov,Пётр Белоглазов,1990,134.9,330,235,235,800,120+,SBD,Single-ply,Open,M,
4,Andrey Shmigelskiy,Андрей Шмигельский,1989,132,250,240,245,735,120+,SBD,Single-ply,Open,M,
