Name,Team,Equipment,Sex,BirthDate,BodyweightKg,Age,Division,WeightClassKg,Country,Squat1Kg,Squat2Kg,Squat3Kg,Best3SquatKg,Squat4Kg,Bench1Kg,Bench2Kg,Bench3Kg,Best3BenchKg,Bench4Kg,Deadlift1Kg,Deadlift2Kg,Deadlift3Kg,Best3DeadliftKg,Deadlift4Kg,TotalKg,Event,Place
Carolina González De León,Argentino,Wraps,F,1985-05-08,47.7,35,Open,48,Argentina,132.5,140,-150,140,,55,60,62.5,62.5,,130,137.5,-142.5,137.5,,340,SBD,1
Carina Villanueva,Argentino,Wraps,F,1985-05-08,49.85,35,Open,52,Argentina,90,-100,-107.5,90,,40,45,47.5,47.5,,110,120,-125,120,,257.5,SBD,2
Noemi Anaquin,Argentino,Wraps,F,1992-08-19,50.1,28,Open,52,Argentina,-115,115,-120,115,,52.5,57.5,-62.5,57.5,,120,130,-137.5,130,,302.5,SBD,1
Solana Chasampi,Argentino,Wraps,F,1998-02-28,54.7,22,Jun,56,Argentina,-135,135,150,150,155,60,67.5,-70,67.5,,155,-170,-170,155,,372.5,SBD,1
Solana Chasampi,Argentino,Wraps,F,1998-02-28,54.7,22,Open,56,Argentina,-135,135,150,150,155,60,67.5,-70,67.5,,155,-170,-170,155,,372.5,SBD,3
Ailen Saavedra,Novicios,Wraps,F,1998-09-30,61.35,22,Jun,67.5,Argentina,70,-75,80,80,,35,37.5,-40,37.5,,65,-70,70,70,,187.5,SBD,2
Ailen Saavedra,Novicios,Wraps,F,1998-09-30,61.35,22,Open,67.5,Argentina,70,-75,80,80,,35,37.5,-40,37.5,,65,-70,70,70,,187.5,SBD,5
Maria Gomez,Argentino,Wraps,F,1997-08-05,59.9,23,Jun,60,Argentina,-95,95,-105,95,,35,40,-42.5,40,,90,100,-105,100,,235,SBD,1
Maria Gomez,Argentino,Wraps,F,1997-08-05,59.9,23,Open,60,Argentina,-95,95,-105,95,,35,40,-42.5,40,,90,100,-105,100,,235,SBD,3
Camila Benitez,Argentino,Wraps,F,1997-10-14,63.8,23,Jun,67.5,Argentina,110,-120,-125,110,,60,65,-67.5,65,,140,150,-155.5,150,,325,SBD,1
Camila Benitez,Argentino,Wraps,F,1997-10-14,63.8,23,Open,67.5,Argentina,110,-120,-125,110,,60,65,-67.5,65,,140,150,-155.5,150,,325,SBD,4
Ana Castro,Novicios,Wraps,F,1994-01-20,63,26,Open,67.5,Argentina,115,125,-135,125,,67.5,72.5,77.5,77.5,-80.5,120,132.5,-140,132.5,,335,SBD,3
Maribel Medina,Argentino,Wraps,F,1993-09-17,67.25,27,Open,67.5,Argentina,160,170,-175,170,,75,80,-82.5,80,,170,180,190,190,,440,SBD,1
Magali Santi,Argentino,Wraps,F,1987-08-14,63.35,33,Open,67.5,Argentina,130,-140,145,145,,50,-55,60,60,,130,140,150,150,,355,SBD,2
Lorena Rojas,Argentino,Wraps,F,1979-03-06,68.65,41,M 40-49,75,Argentina,160,170,180,180,,65,75,82.5,82.5,,160,170,180,180,,442.5,SBD,1
Lorena Rojas,Argentino,Wraps,F,1979-03-06,68.65,41,Open,75,Argentina,160,170,180,180,,65,75,82.5,82.5,,160,170,180,180,,442.5,SBD,1
Eliana Ocampo,Argentino,Wraps,F,1986-10-13,54.95,34,Open,56,Argentina,145,160,-170.5,160,,70,75,-80,75,,145,160,-170,160,,395,SBD,2
Mariana Miguez,Argentino,Wraps,F,1983-08-29,55.3,37,Open,56,Argentina,-155,-155,155,155,,72.5,75,-80,75,,155,160,167.5,167.5,,397.5,SBD,1
Ayelén Noguera,Argentino,Wraps,F,1991-12-17,54.8,28,Open,56,Argentina,115,125,135,135,,50,55,57.5,57.5,,110,120,-130,120,,312.5,SBD,4
Adriana Arce,Argentino,Wraps,F,1995-02-05,59.3,25,Open,60,Argentina,110,120,-135,120,,60,-65,67.5,67.5,,110,120,-130,120,,307.5,SBD,2
Natalia Uranga,Argentino,Wraps,F,1987-08-20,60,33,Open,60,Argentina,175,-185,190.5,190.5,,80,85,90,90,-93.5,175,185,195,195,-201,475.5,SBD,1
Valentina Moyano,Argentino,Wraps,F,2004-04-05,70,16,Tn 16-17,75,Argentina,70,80,90,90,,35,40,,40,,75,85,100,100,,230,SBD,1
Valentina Moyano,Argentino,Wraps,F,2004-04-05,70,16,Open,75,Argentina,70,80,90,90,,35,40,,40,,75,85,100,100,,230,SBD,5
Florencia Sande,Novicios,Wraps,F,1990-01-03,74.5,30,Open,75,Argentina,97.5,105,110,110,,50,55,60,60,,100,107.5,115,115,,285,SBD,3
Sabrina D'Angelo,Argentino,Wraps,F,1988-05-09,69.5,32,Open,75,Argentina,100,110,120,120,,45,50,-55,50,,100,-110,,100,,270,SBD,4
Maria Graciela Bernal,Argentino,Wraps,F,1990-10-29,73.45,30,Open,75,Argentina,100,110,120,120,,45,52.5,57.5,57.5,,105,115,125,125,,302.5,SBD,2
Vanessa Leones,Argentino,Wraps,F,1979-04-24,81.9,41,M 40-49,82.5,Argentina,147.5,152.5,160,160,,-72.5,77.5,-82.5,77.5,,147.5,155,-162.5,155,,392.5,SBD,1
Vanessa Leones,Argentino,Wraps,F,1979-04-24,81.9,41,Open,82.5,Argentina,147.5,152.5,160,160,,-72.5,77.5,-82.5,77.5,,147.5,155,-162.5,155,,392.5,SBD,1
Maria Fernanda Godoy Cruz,Argentino,Multi-ply,F,1979-12-11,80.9,40,M 40-49,82.5,Argentina,130,150,160,160,-162.5,55,62.5,65,65,,130,140,150,150,165,375,SBD,1
Maria Fernanda Godoy Cruz,Argentino,Multi-ply,F,1979-12-11,80.9,40,Open,82.5,Argentina,130,150,160,160,-162.5,55,62.5,65,65,,130,140,150,150,165,375,SBD,1
Manuel Sanchez,Novicios,Wraps,M,1998-11-03,54.85,22,Jun,56,Argentina,85,95,100,100,-102.5,60,-67.5,-67.5,60,,110,122.5,130,130,,290,SBD,1
Manuel Sanchez,Novicios,Wraps,M,1998-11-03,54.85,22,Open,56,Argentina,85,95,100,100,-102.5,60,-67.5,-67.5,60,,110,122.5,130,130,,290,SBD,1
Ernesto Llul,Novicios,Wraps,M,2003-11-04,63.55,17,Tn 16-17,67.5,Argentina,110,125,135,135,,70,77.5,82.5,82.5,,110,120,130,130,,347.5,SBD,1
Ernesto Llul,Novicios,Wraps,M,2003-11-04,63.55,17,Open,67.5,Argentina,110,125,135,135,,70,77.5,82.5,82.5,,110,120,130,130,,347.5,SBD,7
Gabriel Orellana,Novicios,Wraps,M,1998-10-18,59.2,22,Jun,60,Argentina,120,-130,130,130,,75,85,87.5,87.5,,140,150,160,160,,377.5,SBD,1
Gabriel Orellana,Novicios,Wraps,M,1998-10-18,59.2,22,Open,60,Argentina,120,-130,130,130,,75,85,87.5,87.5,,140,150,160,160,,377.5,SBD,1
Juan Fernandez Koller,Novicios,Wraps,M,1998-09-24,74.8,22,Jun,75,Argentina,145,157.5,-165,157.5,,-125,127.5,135,135,,200,215,225,225,,517.5,SBD,2
Juan Fernandez Koller,Novicios,Wraps,M,1998-09-24,74.8,22,Open,75,Argentina,145,157.5,-165,157.5,,-125,127.5,135,135,,200,215,225,225,,517.5,SBD,6
Gonzalo Tarelli,Novicios,Wraps,M,1992-11-29,66.7,28,Open,67.5,Argentina,-120,-120,120,120,,80,85,-90,85,,50,,,50,,255,SBD,8
Santiago Piñero,Novicios,Wraps,M,2000-08-14,65.4,20,Jun,67.5,Argentina,160,170,,170,,75,82.5,-85,82.5,,170,-180,180,180,,432.5,SBD,2
Santiago Piñero,Novicios,Wraps,M,2000-08-14,65.4,20,Open,67.5,Argentina,160,170,,170,,75,82.5,-85,82.5,,170,-180,180,180,,432.5,SBD,6
Leonel Zalazar,Novicios,Wraps,M,1998-10-27,74.15,22,Jun,75,Argentina,-150,-152.5,-152.5,,,,,,,,,,,,,,SBD,DQ
Leonel Zalazar,Novicios,Wraps,M,1998-10-27,74.15,22,Open,75,Argentina,-150,-152.5,-152.5,,,,,,,,,,,,,,SBD,DQ
Sergio Goldschmidt,Novicios,Wraps,M,2005-07-07,68.95,15,Tn 13-15,75,Argentina,95,100,105,105,,60,65,-70,65,,95,102.5,110,110,,280,SBD,1
Sergio Goldschmidt,Novicios,Wraps,M,2005-07-07,68.95,15,Open,75,Argentina,95,100,105,105,,60,65,-70,65,,95,102.5,110,110,,280,SBD,12
Jonatan Chiappa,Novicios,Wraps,M,1992-03-12,73.3,28,Open,75,Argentina,155,165,170,170,,105,115,-120,115,,190,-200,217.5,217.5,,502.5,SBD,7
Diego Rodriguez,Novicios,Wraps,M,1989-04-06,74,31,Open,75,Argentina,-135,137.5,142.5,142.5,,110,120,-125,120,,150,160,170,170,,432.5,SBD,11
Juan Campostrini,Novicios,Wraps,M,1996-11-29,74.3,24,Open,75,Argentina,-130,-150,-150,,,,,,,,,,,,,,SBD,DQ
Renato Balbuena,Novicios,Wraps,M,1987-02-24,73.7,33,Open,75,Argentina,150,165,175,175,,112.5,-122.5,122.5,122.5,,185,195,205,205,,502.5,SBD,8
Enzo Escobar,Novicios,Wraps,M,1997-10-09,78,23,Jun,82.5,Argentina,200,210,220,220,,-95,95,100,100,,200,210,220,220,,540,SBD,2
Enzo Escobar,Novicios,Wraps,M,1997-10-09,78,23,Open,82.5,Argentina,200,210,220,220,,-95,95,100,100,,200,210,220,220,,540,SBD,8
Ivan Aquije Matta,Novicios,Wraps,M,1999-04-22,77.95,21,Jun,82.5,Argentina,-170,170,180,180,,90,-100,100,100,,190,205,-215,205,,485,SBD,3
Ivan Aquije Matta,Novicios,Wraps,M,1999-04-22,77.95,21,Open,82.5,Argentina,-170,170,180,180,,90,-100,100,100,,190,205,-215,205,,485,SBD,11
Santiago Cecchini,Novicios,Wraps,M,1989-08-02,78.8,31,Open,82.5,Argentina,210,-220,-220,210,,-110,110,-120,110,,190,200,-220,200,,520,SBD,9
Oscar Montiel,Novicios,Wraps,M,1983-07-03,82,37,Open,82.5,Argentina,-185,-200,-200,,,,,,,,,,,,,,SBD,DQ
Nazareno Forlizzi,Novicios,Wraps,M,1990-02-01,80.7,30,Open,82.5,Argentina,-170,180,195,195,,100,112.5,-117.5,112.5,,180,-200,205,205,,512.5,SBD,10
Ivan Roldan,Novicios,Wraps,M,1996-11-16,85.65,24,Open,90,Argentina,145,160,,160,,100,110,-115,110,,190,-210,210,210,,480,SBD,13
Nicolas Mallo,Novicios,Wraps,M,1972-01-01,88.3,48,M 40-49,90,Argentina,185,200,-215,200,,95,102.5,107.5,107.5,,185,200,220,220,,527.5,SBD,1
Nicolas Mallo,Novicios,Wraps,M,1972-01-01,88.3,48,Open,90,Argentina,185,200,-215,200,,95,102.5,107.5,107.5,,185,200,220,220,,527.5,SBD,9
Emanuel Cascallar,Novicios,Wraps,M,1995-03-02,80.35,25,Open,82.5,Argentina,200,210,-220,210,,115,125,-132.5,125,,200,210,-220,210,,545,SBD,7
Gonzalo Taraborrelli,Novicios,Wraps,M,1992-02-19,88.6,28,Open,90,Argentina,200,-210,-220,200,,100,110,-112.5,110,,210,225,-235,225,,535,SBD,7
Matias Villalba,Novicios,Wraps,M,1983-10-27,85.15,37,Open,90,Argentina,190,-200,-200,190,,90,95,-100,95,,190,200,215,215,,500,SBD,12
Facundo Rocha,Novicios,Wraps,M,2002-02-14,96.25,18,Tn 18-19,100,Argentina,190,200,210,210,,100,-110,110,110,,210,220,-230,220,,540,SBD,2
Facundo Rocha,Novicios,Wraps,M,2002-02-14,96.25,18,Open,100,Argentina,190,200,210,210,,100,-110,110,110,,210,220,-230,220,,540,SBD,13
Emanuel Mansilla,Novicios,Wraps,M,1995-05-30,102.2,25,Open,110,Argentina,190,200,210,210,,100,105,-107.5,105,,190,200,210,210,,525,SBD,4
Gustavo Gonzalez #4,Novicios,Wraps,M,1993-03-02,94.85,27,Open,100,Argentina,180,190,200,200,,100,-110,110,110,,200,215,230,230,,540,SBD,12
Lucas Rufino,Novicios,Wraps,M,1994-03-22,94.65,26,Open,100,Argentina,205,215,-225,215,,-100,100,-110,100,,-220,220,240,240,,555,SBD,11
Ignacio Pita,Novicios,Wraps,M,1997-03-24,96.05,23,Jun,100,Argentina,-180,180,-200,180,,100,110,115,115,,160,170,,170,,465,SBD,3
Ignacio Pita,Novicios,Wraps,M,1997-03-24,96.05,23,Open,100,Argentina,-180,180,-200,180,,100,110,115,115,,160,170,,170,,465,SBD,14
Juan Vallarino,Novicios,Wraps,M,1995-04-26,96.8,25,Open,100,Argentina,200,-210,210,210,,150,160,-170,160,,240,260,-270,260,,630,SBD,7
Joel Bustos,Novicios,Wraps,M,1996-07-13,94.4,24,Open,100,Argentina,190,205,220,220,,-100,-110,110,110,,200,215,230,230,,560,SBD,10
Carlos Martinez,Novicios,Wraps,M,1980-03-01,104.7,40,M 40-49,110,Argentina,170,180,-190,180,,100,107.5,-112.5,107.5,,190,200,215,215,,502.5,SBD,1
Carlos Martinez,Novicios,Wraps,M,1980-03-01,104.7,40,Open,110,Argentina,170,180,-190,180,,100,107.5,-112.5,107.5,,190,200,215,215,,502.5,SBD,6
Andres Tang,Argentino,Wraps,M,2002-05-30,66.5,18,Tn 18-19,67.5,Argentina,180,-190,-190,180,,90,-100,-100,90,,205.5,215,-233,215,,485,SBD,1
Andres Tang,Argentino,Wraps,M,2002-05-30,66.5,18,Open,67.5,Argentina,180,-190,-190,180,,90,-100,-100,90,,205.5,215,-233,215,,485,SBD,4
Ramiro Beltrame,Argentino,Wraps,M,1998-12-24,66,21,Jun,67.5,Argentina,190,-200,200,200,,100,-105,-105,100,,190,200,215,215,,515,SBD,1
Ramiro Beltrame,Argentino,Wraps,M,1998-12-24,66,21,Open,67.5,Argentina,190,-200,200,200,,100,-105,-105,100,,190,200,215,215,,515,SBD,2
Francisco Rumi,Argentino,Wraps,M,1996-05-16,66.95,24,Open,67.5,Argentina,165,170,175,175,,132.5,-135.5,135.5,135.5,-137.5,190,192.5,-200,192.5,,503,SBD,3
Pablo Gomez,Argentino,Wraps,M,1989-07-04,65,31,Open,67.5,Argentina,190,200,-212.5,200,,80,90,-95,90,,180,190,-200,190,,480,SBD,5
Juan Iglesias,Argentino,Wraps,M,1993-05-05,67.15,27,Open,67.5,Argentina,180,190,-200,190,,-130,-130,130,130,,190,205,-215,205,,525,SBD,1
Ramiro Marengo,Argentino,Wraps,M,2007-03-28,71.5,13,Tn 13-15,75,Argentina,100,110,-115,110,,45,-55,-55,45,,100,110,115,115,,270,SBD,2
Ramiro Marengo,Argentino,Wraps,M,2007-03-28,71.5,13,Open,75,Argentina,100,110,-115,110,,45,-55,-55,45,,100,110,115,115,,270,SBD,13
Matias Vasquez,Argentino,Wraps,M,2001-07-02,73.65,19,Tn 18-19,75,Argentina,-170,-170,-170,,,,,,,,,,,,,,SBD,DQ
Matias Vasquez,Argentino,Wraps,M,2001-07-02,73.65,19,Open,75,Argentina,-170,-170,-170,,,,,,,,,,,,,,SBD,DQ
Juan Fontana,Argentino,Wraps,M,1999-12-09,71.95,20,Jun,75,Argentina,200,-215,-215,200,,115,122.5,-130,122.5,,150,165,-180,165,,487.5,SBD,3
Juan Fontana,Argentino,Wraps,M,1999-12-09,71.95,20,Open,75,Argentina,200,-215,-215,200,,115,122.5,-130,122.5,,150,165,-180,165,,487.5,SBD,9
Luciano Escolano,Argentino,Wraps,M,1997-01-22,72.25,23,Jun,75,Argentina,185,195,205,205,,120,-125,125,125,,200,215,225,225,,555,SBD,1
Luciano Escolano,Argentino,Wraps,M,1997-01-22,72.25,23,Open,75,Argentina,185,195,205,205,,120,-125,125,125,,200,215,225,225,,555,SBD,4
Pablo Spagnuolo,Argentino,Wraps,M,1995-10-25,73.9,25,Open,75,Argentina,180,200,210,210,,-145,-145,145,145,,190,220,232.5,232.5,,587.5,SBD,2
Gustavo Peña,Argentino,Wraps,M,1992-07-15,73.25,28,Open,75,Argentina,190,-210,-210,190,,120,127.5,-135,127.5,,190,200,-210,200,,517.5,SBD,5
Leonardo Moreno,Argentino,Wraps,M,1988-07-31,73,32,Open,75,Argentina,210,230,-240,230,,125,135,-140,135,,200,220,-230,220,,585,SBD,3
Pablo Asorey,Argentino,Wraps,M,1990-06-13,73.7,30,Open,75,Argentina,265,275,-280,275,,130,135,137.5,137.5,,-265,265,-275,265,,677.5,SBD,1
Luis Bagnoli,Argentino,Wraps,M,1974-05-07,74.65,46,M 40-49,75,Argentina,-170,-170,170,170,,80,95,-105,95,,150,160,170,170,,435,SBD,1
Luis Bagnoli,Argentino,Wraps,M,1974-05-07,74.65,46,Open,75,Argentina,-170,-170,170,170,,80,95,-105,95,,150,160,170,170,,435,SBD,10
Luca Lantella,Argentino,Wraps,M,2001-05-02,78.45,19,Tn 18-19,82.5,Argentina,245,260.5,-270,260.5,,110,115,-117.5,115,,190,200,,200,,575.5,SBD,1
Luca Lantella,Argentino,Wraps,M,2001-05-02,78.45,19,Open,82.5,Argentina,245,260.5,-270,260.5,,110,115,-117.5,115,,190,200,,200,,575.5,SBD,3
Nicolas Giglio,Argentino,Wraps,M,1997-05-21,80.8,23,Jun,82.5,Argentina,175,-190,-195,175,,125,135,-140,135,,230,245,256,256,260,566,SBD,1
Nicolas Giglio,Argentino,Wraps,M,1997-05-21,80.8,23,Open,82.5,Argentina,175,-190,-195,175,,125,135,-140,135,,230,245,256,256,260,566,SBD,4
Damián Gomez,Argentino,Wraps,M,1993-09-28,81.6,27,Open,82.5,Argentina,-240,-240,-240,,,,,,,,,,,,,,SBD,DQ
Marcos Toconas,Argentino,Wraps,M,1982-05-17,81.2,38,Open,82.5,Argentina,200,210,-220,210,,125,-135,-135,125,,200,210,220,220,,555,SBD,5
Federico Plinski,Argentino,Wraps,M,1985-01-05,78.2,35,Open,82.5,Argentina,150,-160,-160,150,,80,90,-100,90,,180,-190,,180,,420,SBD,12
Rodrigo Bazán,Argentino,Wraps,M,1995-08-11,78.25,25,Open,82.5,Argentina,165,180,190,190,,100,110,120,120,,215,230,240,240,,550,SBD,6
Ezequiel Fernandez Uguet,Argentino,Wraps,M,1993-03-03,80.85,27,Open,82.5,Argentina,-260,-260,-260,,,,,,,,,,,,,,SBD,DQ
Jose Salgado,Argentino,Wraps,M,1993-08-10,80.8,27,Open,82.5,Argentina,275,292.5,310,310,,160,170,175,175,,275,292.5,305,305,,790,SBD,1
Leandro Correa,Argentino,Wraps,M,1979-03-02,82,41,M 40-49,82.5,Argentina,-230,230,-242.5,230,,135,142.5,145,145,,255,265,-272.5,265,,640,SBD,1
Leandro Correa,Argentino,Wraps,M,1979-03-02,82,41,Open,82.5,Argentina,-230,230,-242.5,230,,135,142.5,145,145,,255,265,-272.5,265,,640,SBD,2
Martin Casanova,Argentino,Wraps,M,2001-07-17,87.88,19,Tn 18-19,90,Argentina,200,210,215,215,,107.5,112.5,115,115,,-230,230,240,240,,570,SBD,2
Martin Casanova,Argentino,Wraps,M,2001-07-17,87.88,19,Open,90,Argentina,200,210,215,215,,107.5,112.5,115,115,,-230,230,240,240,,570,SBD,4
Agustin Ercolano,Argentino,Wraps,M,2001-05-28,88.1,19,Tn 18-19,90,Argentina,185,-197.5,200,200,,95,100,105,105,,185,197.5,210,210,,515,SBD,4
Agustin Ercolano,Argentino,Wraps,M,2001-05-28,88.1,19,Open,90,Argentina,185,-197.5,200,200,,95,100,105,105,,185,197.5,210,210,,515,SBD,10
Marco Percivaldi,Argentino,Wraps,M,2001-04-16,86.65,19,Tn 18-19,90,Argentina,-215,215,-230,215,,120,-130,-130,120,,205,-225,-225,205,,540,SBD,3
Marco Percivaldi,Argentino,Wraps,M,2001-04-16,86.65,19,Open,90,Argentina,-215,215,-230,215,,120,-130,-130,120,,205,-225,-225,205,,540,SBD,6
Gianfranco Slepetis,Argentino,Wraps,M,2001-05-02,88.5,19,Tn 18-19,90,Argentina,-285,-285,285,285,300.5,145,147.5,155,155,165,265,285.5,-300.5,285.5,,725.5,SBD,1
Gianfranco Slepetis,Argentino,Wraps,M,2001-05-02,88.5,19,Open,90,Argentina,-285,-285,285,285,300.5,145,147.5,155,155,165,265,285.5,-300.5,285.5,,725.5,SBD,2
Leandro Baez,Argentino,Wraps,M,1985-11-08,89.5,35,Open,90,Argentina,260,-280,280,280,,150,160,170,170,,230,245,-250,245,,695,SBD,3
Leandro Zanette,Argentino,Wraps,M,1989-10-24,96,31,Open,100,Argentina,210,230,240,240,,130,140,-142.5,140,,250,270,280,280,,660,SBD,4
Michele Cuccaro,Argentino,Wraps,M,1990-06-21,87.75,30,Open,90,Argentina,200,210,220,220,,110,-120,-130,110,,215,230,-240,230,,560,SBD,5
Ezequiel del Rio,Argentino,Wraps,M,1987-11-21,89.95,33,Open,90,Argentina,175,185,195,195,,115,120,130,130,,190,200,210,210,,535,SBD,8
Guido Gola,Argentino,Wraps,M,1996-11-05,89.8,24,Open,90,Argentina,260,275,-285,275,,-180,180,-187.5,180,,270,280,287.5,287.5,,742.5,SBD,1
Chen Chie-Hwa,Argentino,Wraps,M,1976-09-16,85.85,44,M 40-49,90,Argentina,160,170,180,180,,115,125,-135,125,,180,190,200,200,,505,SBD,2
Chen Chie-Hwa,Argentino,Wraps,M,1976-09-16,85.85,44,Open,90,Argentina,160,170,180,180,,115,125,-135,125,,180,190,200,200,,505,SBD,11
Lautaro Antonuccio,Argentino,Wraps,M,2002-02-05,96.85,18,Tn 18-19,100,Argentina,245,255,270,270,,115,125,130,130,,240,250.5,-260,250.5,,650.5,SBD,1
Lautaro Antonuccio,Argentino,Wraps,M,2002-02-05,96.85,18,Open,100,Argentina,245,255,270,270,,115,125,130,130,,240,250.5,-260,250.5,,650.5,SBD,6
Lorenzo Cicarelli,Argentino,Wraps,M,2000-08-22,93.35,20,Jun,100,Argentina,215,-230,230,230,,125,-140,-140,125,,230,245,-255,245,,600,SBD,2
Lorenzo Cicarelli,Argentino,Wraps,M,2000-08-22,93.35,20,Open,100,Argentina,215,-230,230,230,,125,-140,-140,125,,230,245,-255,245,,600,SBD,8
Jose Maria Acevedo,Argentino,Wraps,M,1984-01-18,93.8,36,Open,100,Argentina,225,240,-250,240,,150,160,-167.5,160,,240,255,270,270,,670,SBD,3
Juan Pages,Argentino,Wraps,M,1988-02-18,99.45,32,Open,100,Argentina,240,250,260,260,,150,160,165,165,,240,252.5,262.5,262.5,,687.5,SBD,2
Mateo Codesido,Argentino,Wraps,M,1998-09-21,97.9,22,Jun,100,Argentina,240,-260,260,260,,140,-150,,140,,250,260,-270,260,,660,SBD,1
Mateo Codesido,Argentino,Wraps,M,1998-09-21,97.9,22,Open,100,Argentina,240,-260,260,260,,140,-150,,140,,250,260,-270,260,,660,SBD,5
Sebastian Alvarez Nichols,Argentino,Wraps,M,1990-06-11,93.65,30,Open,100,Argentina,195,-210,210,210,,115,125,-135,125,,200,215,225,225,,560,SBD,9
Alan Aparicio,Argentino,Wraps,M,1996-04-08,99.45,24,Open,100,Argentina,-300,300,-325.5,300,,150,160,-165,160,,305,315,320.5,320.5,-330,780.5,SBD,1
Martin Galvan,Argentino,Wraps,M,2000-10-18,116,20,Jun,125,Argentina,255,-267.5,283,283,,-115,115,125,125,,200,215,230,230,,638,SBD,1
Martin Galvan,Argentino,Wraps,M,2000-10-18,116,20,Open,125,Argentina,255,-267.5,283,283,,-115,115,125,125,,200,215,230,230,,638,SBD,2
Federico Meijone,Argentino,Wraps,M,1998-06-25,103.95,22,Jun,110,Argentina,275,300,320,320,,180,-190,190,190,,270,290,305,305,-320,815,SBD,1
Federico Meijone,Argentino,Wraps,M,1998-06-25,103.95,22,Open,110,Argentina,275,300,320,320,,180,-190,190,190,,270,290,305,305,-320,815,SBD,1
Martin Fraguas,Argentino,Wraps,M,1981-09-15,104.2,39,Open,110,Argentina,190,200,-210,200,,102.5,112.5,120,120,,180,192.5,200,200,,520,SBD,5
Emiliano Barrionuevo,Argentino,Wraps,M,1991-12-24,105.3,28,Open,110,Argentina,260,-280,280,280,,170,180,182.5,182.5,,290,-310,310,310,,772.5,SBD,3
Facundo Presta,Argentino,Wraps,M,1993-07-07,108.9,27,Open,110,Argentina,290,-300,-302.5,290,,180,190,,190,,300,310,-320,310,,790,SBD,2
Facundo Estela,Argentino,Wraps,M,1993-03-12,121.7,27,Open,125,Argentina,-240,250,265,265,,-145,155,-160,155,,250,265,275,275,,695,SBD,1
José Coelho,Argentino,Wraps,M,1984-01-10,122.7,36,Open,125,Argentina,175,185,195,195,,80,90,-120,90,,190,205,215,215,,500,SBD,4
Joaquín Díaz,Argentino,Wraps,M,2002-01-25,124,18,Tn 18-19,125,Argentina,220,240,-245,240,,120,130,-140.5,130,,220,-235,235,235,,605,SBD,1
Joaquín Díaz,Argentino,Wraps,M,2002-01-25,124,18,Open,125,Argentina,220,240,-245,240,,120,130,-140.5,130,,220,-235,235,235,,605,SBD,3
Mario Martinez,Argentino,Wraps,M,1979-11-07,131.5,41,M 40-49,140,Argentina,240,260,-270,260,,150,-165,-165,150,,240,255,-265,255,,665,SBD,1
Mario Martinez,Argentino,Wraps,M,1979-11-07,131.5,41,Open,140,Argentina,240,260,-270,260,,150,-165,-165,150,,240,255,-265,255,,665,SBD,1
Mariano Marengo,Argentino,Wraps,M,1974-08-18,143.9,46,M 40-49,140+,Argentina,-200,200,225,225,235,110,130,140,140,145,200,220,240,240,,605,SBD,2
Mariano Marengo,Argentino,Wraps,M,1974-08-18,143.9,46,Open,140+,Argentina,-200,200,225,225,235,110,130,140,140,145,200,220,240,240,,605,SBD,2
Soledad Gambarte,Argentino,Raw,F,1997-01-15,57.1,23,Jun,60,Argentina,,,,,,50,55,-57.5,55,,,,,,,55,B,1
Soledad Gambarte,Argentino,Raw,F,1997-01-15,57.1,23,Open,60,Argentina,,,,,,50,55,-57.5,55,,,,,,,55,B,1
Ana Castro,Argentino,Multi-ply,F,1994-01-20,63.65,26,Open,67.5,Argentina,,,,,,70,77.5,-80,77.5,,,,,,,77.5,B,1
Ariel Orlando,Argentino,Raw,M,1981-08-08,66,39,Open,67.5,Argentina,,,,,,100,-107.5,107.5,107.5,,,,,,,107.5,B,1
Mauro Lejona,Argentino,Raw,M,1982-03-12,79.8,38,Open,82.5,Argentina,,,,,,155,160,-162.5,160,,,,,,,160,B,2
Maximiliano Odino,Argentino,Raw,M,1977-01-13,81.45,43,M 40-49,82.5,Argentina,,,,,,160,-172.5,172.5,172.5,,,,,,,172.5,B,1
Maximiliano Odino,Argentino,Raw,M,1977-01-13,81.45,43,Open,82.5,Argentina,,,,,,160,-172.5,172.5,172.5,,,,,,,172.5,B,1
Franco Pinto,Novicios,Raw,M,1994-03-04,80.7,26,Open,82.5,Argentina,,,,,,140,152.5,-155,152.5,,,,,,,152.5,B,3
Ramon Diaz,Argentino,Raw,M,1992-02-26,81.1,28,Open,82.5,Argentina,,,,,,-140,-140,-140,,,,,,,,,B,DQ
Ruben Reynoso,Argentino,Raw,M,1997-11-06,81,23,Jun,82.5,Argentina,,,,,,130,140,-150,140,,,,,,,140,B,1
Ruben Reynoso,Argentino,Raw,M,1997-11-06,81,23,Open,82.5,Argentina,,,,,,130,140,-150,140,,,,,,,140,B,4
Franco Cruceño,Argentino,Raw,M,2000-01-21,87.9,20,Jun,90,Argentina,,,,,,115,-122.5,-122.5,115,,,,,,,115,B,1
Franco Cruceño,Argentino,Raw,M,2000-01-21,87.9,20,Open,90,Argentina,,,,,,115,-122.5,-122.5,115,,,,,,,115,B,2
Damian Brankovic,Argentino,Raw,M,1980-05-28,90.3,40,M 40-49,100,Argentina,,,,,,140,-147.5,150,150,,,,,,,150,B,2
Damian Brankovic,Argentino,Raw,M,1980-05-28,90.3,40,Open,100,Argentina,,,,,,140,-147.5,150,150,,,,,,,150,B,3
Facundo Paz,Argentino,Raw,M,1974-12-05,87.3,45,M 40-49,90,Argentina,,,,,,-150,162.5,173,173,,,,,,,173,B,1
Facundo Paz,Argentino,Raw,M,1974-12-05,87.3,45,Open,90,Argentina,,,,,,-150,162.5,173,173,,,,,,,173,B,1
Mario Garcia,Argentino,Multi-ply,M,1992-10-20,85,28,Open,90,Argentina,,,,,,150,160,-170,160,,,,,,,160,B,1
Sergio Núñez,Argentino,Raw,M,1964-02-17,94.1,56,M 50-59,100,Argentina,,,,,,-90,90,100,100,,,,,,,100,B,1
Sergio Núñez,Argentino,Raw,M,1964-02-17,94.1,56,Open,100,Argentina,,,,,,-90,90,100,100,,,,,,,100,B,4
Ezequiel Costa,Argentino,Raw,M,1976-08-25,114.7,44,M 40-49,125,Argentina,,,,,,170,180,-190,180,,,,,,,180,B,1
Ezequiel Costa,Argentino,Raw,M,1976-08-25,114.7,44,Open,125,Argentina,,,,,,170,180,-190,180,,,,,,,180,B,3
Ezequiel Millet,Argentino,Raw,M,1986-05-27,97.3,34,Open,100,Argentina,,,,,,185,192.5,-200,192.5,,,,,,,192.5,B,1
Pablo Aurellio,Argentino,Raw,M,1978-12-22,95,41,M 40-49,100,Argentina,,,,,,185.5,-190,190,190,-192.5,,,,,,190,B,1
Pablo Aurellio,Argentino,Raw,M,1978-12-22,95,41,Open,100,Argentina,,,,,,185.5,-190,190,190,-192.5,,,,,,190,B,2
Lisandro Pascuale,Argentino,Raw,M,1968-01-07,103.7,52,M 50-59,110,Argentina,,,,,,130,-140,,130,,,,,,,130,B,2
Lisandro Pascuale,Argentino,Raw,M,1968-01-07,103.7,52,Open,110,Argentina,,,,,,130,-140,,130,,,,,,,130,B,2
Nestor Gonzalez,Argentino,Raw,M,1970-03-06,106,50,M 50-59,110,Argentina,,,,,,120,135,-146,135,,,,,,,135,B,1
Nestor Gonzalez,Argentino,Raw,M,1970-03-06,106,50,Open,110,Argentina,,,,,,120,135,-146,135,,,,,,,135,B,1
Jose Naulle,Argentino,Multi-ply,M,1963-09-02,98.7,57,M 50-59,100,Argentina,,,,,,155,165,172.5,172.5,,,,,,,172.5,B,1
Jose Naulle,Argentino,Multi-ply,M,1963-09-02,98.7,57,Open,100,Argentina,,,,,,155,165,172.5,172.5,,,,,,,172.5,B,1
Erik Anzalo,Argentino,Raw,M,1990-07-18,124.5,30,Open,125,Argentina,,,,,,190,200,210,210,,,,,,,210,B,2
Pablo Garrido,Argentino,Raw,M,1989-09-16,119,31,Open,125,Argentina,,,,,,200,210,-215,210,,,,,,,210,B,1
Maria Del Valle,Argentino,Raw,F,1978-08-29,53.3,42,M 40-49,56,Argentina,,,,,,45,-50,50,50,,80,90,100,100,,150,BD,1
Maria Del Valle,Argentino,Raw,F,1978-08-29,53.3,42,Open,56,Argentina,,,,,,45,-50,50,50,,80,90,100,100,,150,BD,1
Ramon Diaz,Argentino,Raw,M,1992-02-26,81.1,28,Open,82.5,Argentina,,,,,,130,135,140,140,,215,225,230,230,,370,BD,2
Damián Gomez,Argentino,Raw,M,1993-09-28,82.4,27,Open,82.5,Argentina,,,,,,145,155,-160,155,,220,-230,232.5,232.5,,387.5,BD,1
Pablo Raccanello,Novicios,Raw,M,1986-02-15,80.1,34,Open,82.5,Argentina,,,,,,110,120,-130,120,,160,172.5,185,185,,305,BD,3
Luciano Bracco,Argentino,Raw,M,1994-12-11,86.8,25,Open,90,Argentina,,,,,,115,125,130,130,,240,255,-265,255,,385,BD,1
Maximo Ogasawara,Argentino,Raw,M,1983-11-17,89.6,37,Open,90,Argentina,,,,,,130,140,147.5,147.5,,200,220,225,225,,372.5,BD,2
Marcos Di Santo,Argentino,Raw,M,1992-08-06,88.4,28,Open,90,Argentina,,,,,,140,150,-160,150,,-210,210,-220,210,,360,BD,3
Miguel Aguirre,Argentino,Raw,M,1974-04-09,89,46,M 40-49,90,Argentina,,,,,,100,115,-130.5,115,,185,200,210,210,,325,BD,1
Miguel Aguirre,Argentino,Raw,M,1974-04-09,89,46,Open,90,Argentina,,,,,,100,115,-130.5,115,,185,200,210,210,,325,BD,4
Mateo Llanos,Argentino,Raw,M,2000-07-22,107.9,20,Jun,110,Argentina,,,,,,155,165,170,170,172.5,240,255,265,265,-270,435,BD,1
Mateo Llanos,Argentino,Raw,M,2000-07-22,107.9,20,Open,110,Argentina,,,,,,155,165,170,170,172.5,240,255,265,265,-270,435,BD,1
Jose Aguirre,Argentino,Raw,M,1970-11-17,101.6,50,M 50-59,110,Argentina,,,,,,110,120,130,130,,215,230,,230,,360,BD,1
Jose Aguirre,Argentino,Raw,M,1970-11-17,101.6,50,Open,110,Argentina,,,,,,110,120,130,130,,215,230,,230,,360,BD,2
Martin Marquez,Novicios,Raw,M,1998-11-06,112.3,22,Jun,125,Argentina,,,,,,125,135,-145,135,,175,190,205,205,,340,BD,1
Martin Marquez,Novicios,Raw,M,1998-11-06,112.3,22,Open,125,Argentina,,,,,,125,135,-145,135,,175,190,205,205,,340,BD,1
Facundo Giacche,Argentino,Raw,M,1998-01-21,128.9,22,Jun,140,Argentina,,,,,,160,175,185,185,-192.5,225,245,255,255,265,440,BD,1
Facundo Giacche,Argentino,Raw,M,1998-01-21,128.9,22,Open,140,Argentina,,,,,,160,175,185,185,-192.5,225,245,255,255,265,440,BD,1
Nicolas Giglio,Argentino,Raw,M,1997-05-21,81.3,23,Jun,82.5,Argentina,,,,,,,,,,,230,252.5,262.5,262.5,,262.5,D,1
Nicolas Giglio,Argentino,Raw,M,1997-05-21,81.3,23,Open,82.5,Argentina,,,,,,,,,,,230,252.5,262.5,262.5,,262.5,D,1
Jose Luis Rodriguez,Novicios,Raw,M,1989-12-13,79.4,30,Open,82.5,Argentina,,,,,,,,,,,190,205,215,215,,215,D,2
Miguel Aguirre,Argentino,Raw,M,1974-04-09,89,46,M 40-49,90,Argentina,,,,,,,,,,,185,200,210.5,210.5,,210.5,D,1
Miguel Aguirre,Argentino,Raw,M,1974-04-09,89,46,Open,90,Argentina,,,,,,,,,,,185,200,210.5,210.5,,210.5,D,1
Rodrigo Montes,Argentino,Raw,M,1995-12-14,92.3,24,Open,100,Argentina,,,,,,,,,,,225,240,250,250,,250,D,1
Jose Aguirre,Argentino,Raw,M,1970-11-17,101.6,50,M 50-59,110,Argentina,,,,,,,,,,,215,230,,230,,230,D,1
Jose Aguirre,Argentino,Raw,M,1970-11-17,101.6,50,Open,110,Argentina,,,,,,,,,,,215,230,,230,,230,D,1
