Division,WeightClassKg,Place,Name,Team,BodyweightKg,Best3SquatKg,Best3BenchKg,Best3DeadliftKg,TotalKg,Equipment,Event,Sex,BirthDate
Boys,51.71,1,Ethan Lorenz,Decatur,48.08,88.45,49.9,92.99,231.33,Single-ply,SBD,M,
Boys,51.71,2,Mark Teigan,Lake Worth,48.53,72.57,43.09,83.91,199.58,Single-ply,SBD,M,
Boys,59.87,1,Daylon Howard,Decatur,59.42,106.59,63.5,115.67,285.76,Single-ply,SBD,M,
Boys,59.87,2,Jake Dunn #2,Decatur,58.51,97.52,61.23,120.2,278.96,Single-ply,SBD,M,
Boys,67.13,1,Cade Johnson,Decatur,66.68,133.81,79.38,124.74,337.93,Single-ply,SBD,M,
Boys,67.13,2,Luis Ramos #5,Decatur,65.77,122.47,68.04,136.08,326.59,Single-ply,SBD,M,
Boys,74.84,1,Barrett Smith,Weatherford,73.48,158.76,92.99,154.22,405.97,Single-ply,SBD,M,
Boys,74.84,2,Braydon Bork,Weatherford,72.57,165.56,92.99,142.88,401.43,Single-ply,SBD,M,
Boys,74.84,3,Mathew Thomas,Decatur,70.31,117.93,70.31,147.42,335.66,Single-ply,SBD,M,
Boys,74.84,4,Scotty Burns,Lake Worth,74.84,111.13,68.04,136.08,315.25,Single-ply,SBD,M,
Boys,82.1,1,Abel Aldape,Decatur,80.74,158.76,102.06,158.76,419.57,Single-ply,SBD,M,
Boys,82.1,2,Adrew Groh,Weatherford,82.1,151.95,74.84,136.08,362.87,Single-ply,SBD,M,
Boys,82.1,3,Jackson Thomson,Weatherford,82.1,142.88,92.99,124.74,360.61,Single-ply,SBD,M,
Boys,82.1,4,Diego Valenzuela,Lake Worth,79.83,102.06,83.91,145.15,331.12,Single-ply,SBD,M,
Boys,82.1,5,Carson Rocky,Weatherford,79.83,113.4,72.57,111.13,297.1,Single-ply,SBD,M,
Boys,82.1,6,Jayden Gallagher,Lake Worth,79.38,74.84,61.23,124.74,260.82,Single-ply,SBD,M,
Boys,89.81,1,Caylen Wicker,Decatur,87.54,131.54,77.11,138.35,347,Single-ply,SBD,M,
Boys,89.81,2,Mason Scroggins,Weatherford,88.45,124.74,72.57,113.4,310.71,Single-ply,SBD,M,
Boys,99.79,1,Masin Bigsby,Decatur,97.52,163.29,102.06,161.03,426.38,Single-ply,SBD,M,
Boys,99.79,2,Juan Moreno,Lake Worth,96.16,129.27,72.57,183.7,385.55,Single-ply,SBD,M,
Boys,99.79,3,Dominic Alvarez,Lake Worth,96.16,124.74,83.91,174.63,383.29,Single-ply,SBD,M,
Boys,99.79,4,Jorge Pardon,Decatur,91.17,147.42,83.91,147.42,378.75,Single-ply,SBD,M,
Boys,99.79,5,Jayce Mueller,Lake Worth,97.52,113.4,72.57,147.42,333.39,Single-ply,SBD,M,
Boys,99.79,6,Chris Carter #8,Lake Worth,96.62,102.06,63.5,131.54,297.1,Single-ply,SBD,M,
Boys,109.77,1,Miguel Esparza,Decatur,104.33,181.44,79.38,192.78,453.59,Single-ply,SBD,M,
Boys,109.77,2,Eagen Dennett,Weatherford,104.78,158.76,136.08,158.76,453.59,Single-ply,SBD,M,
Boys,124.74,1,Karson Daniel,Weatherford,113.4,215.46,129.27,183.7,528.44,Single-ply,SBD,M,
Boys,124.74,2,Chris Tapia,Lake Worth,124.74,136.08,83.91,142.88,362.87,Single-ply,SBD,M,
Boys,124.74,3,Chasen McCue,Weatherford,123.38,170.1,113.4,,283.5,Single-ply,SB,M,
Boys,124.74,4,Riley Bostick,Weatherford,120.66,120.2,90.72,,210.92,Single-ply,SB,M,
Boys,139.71,1,Ivan Meza,Lake Worth,132.9,129.27,86.18,149.69,365.14,Single-ply,SBD,M,
Boys,,NS,Drew Gam,Decatur,,,,,,Single-ply,SBD,M,
Boys,,NS,Gavin Lopez,Weatherford,,,,,,Single-ply,SBD,M,
