Division,WeightClassKg,Place,Name,Team,BodyweightKg,Best3SquatKg,Best3BenchKg,Best3DeadliftKg,TotalKg,Equipment,Event,Sex,BirthDate
Boys,51.71,1,Josiah Maldonado,Robstown,51.26,136.08,70.31,131.54,337.93,Single-ply,SBD,M,
Boys,51.71,2,Michael Contreras,Alice,51.71,106.59,68.04,122.47,297.1,Single-ply,SBD,M,
Boys,59.87,DQ,Austin Lopez,Robstown,59.74,,,,,Single-ply,SBD,M,
Boys,67.13,1,Luke Davis,Sinton,64.95,204.12,113.4,195.04,512.56,Single-ply,SBD,M,
Boys,67.13,2,Abel Cervantez,Sinton,66.5,188.24,97.52,195.04,480.81,Single-ply,SBD,M,
Boys,67.13,3,Nik Garza,Alice,66.68,138.35,65.77,145.15,349.27,Single-ply,SBD,M,
Boys,74.84,1,Rodney Vaiz,Robstown,74.53,151.95,106.59,165.56,424.11,Single-ply,SBD,M,
Boys,82.1,1,Robert Torres,Sinton,82.1,249.48,136.08,226.8,612.35,Single-ply,SBD,M,
Boys,82.1,2,Jerimiah Nino,Sinton,81.47,183.7,117.93,185.97,487.61,Single-ply,SBD,M,
Boys,82.1,3,Joe Alex Gonzalez,Alice,77.93,174.63,133.81,174.63,483.08,Single-ply,SBD,M,
Boys,89.81,1,Anthony Rivas,Sinton,85.91,120.2,70.31,136.08,326.59,Single-ply,SBD,M,
Boys,89.81,2,James Lobao,Sinton,83.01,120.2,61.23,124.74,306.17,Single-ply,SBD,M,
Boys,99.79,1,Logan Dewald,Sinton,91.44,233.6,113.4,222.26,569.26,Single-ply,SBD,M,
Boys,99.79,DQ,Aric Palomo,Alice,94.8,,,,,Single-ply,SBD,M,
Boys,109.77,1,Marcus Perez,Alice,104.78,165.56,108.86,174.63,449.06,Single-ply,SBD,M,
Boys,109.77,2,Israel Espinoza,Robstown,101.7,181.44,115.67,147.42,444.52,Single-ply,SBD,M,
Boys,109.77,DQ,Landon Southern,Sinton,109.77,,,,,Single-ply,SBD,M,
Boys,124.74,1,Elijah Brown,Sinton,124.74,249.48,154.22,219.99,623.69,Single-ply,SBD,M,
Boys,124.74,2,Paul Pena,Robstown,124.42,249.48,127.01,226.8,603.28,Single-ply,SBD,M,
Boys,124.74,DQ,Aleazar Trejo,Alice,118.84,136.08,113.4,,,Single-ply,SBD,M,
Boys,139.71,1,Nate Martinez #3,Sinton,130.63,265.35,183.7,229.06,678.12,Single-ply,SBD,M,
Boys,139.71,2,Mark Pena,Robstown,136.98,215.46,174.63,210.92,601.01,Single-ply,SBD,M,
Boys,139.71,3,Benjamin Oyervides,Robstown,136.08,188.24,147.42,183.7,519.36,Single-ply,SBD,M,
