Division,WeightClassKg,Place,Name,Team,BodyweightKg,Best3SquatKg,Best3BenchKg,Best3DeadliftKg,TotalKg,Equipment,Event,Sex
Boys,51.71,1,Diego Gallegos,Alvin,51.71,147.42,97.52,181.44,426.38,Single-ply,SBD,M
Boys,51.71,2,Dylan McMullen,Splendora,51.17,102.06,63.5,108.86,274.42,Single-ply,SBD,M
Boys,51.71,3,Danny Sowell,Shepherd,49.12,102.06,54.43,102.06,258.55,Single-ply,SBD,M
Boys,51.71,4,Jack Lockhart,Conroe The Woodlands,50.98,88.45,61.23,104.33,254.01,Single-ply,SBD,M
Boys,51.71,5,Ian Alvarez,Conroe The Woodlands,49.99,79.38,43.09,83.91,206.38,Single-ply,SBD,M
Boys,55.79,2,Clayton Coogler,Shepherd,55.43,136.08,61.23,124.74,322.05,Single-ply,SBD,M
Boys,59.87,1,Ricky Villafana,Splendora,56.02,161.03,92.99,170.1,424.11,Single-ply,SBD,M
Boys,59.87,2,Chase Watson,Shepherd,59.74,161.03,92.99,147.42,401.43,Single-ply,SBD,M
Boys,59.87,3,Matthew Longoria,Alvin,56.7,136.08,111.13,149.69,396.89,Single-ply,SBD,M
Boys,59.87,5,Christian Flores,Alvin,57.88,122.47,70.31,136.08,328.85,Single-ply,SBD,M
Boys,59.87,6,Lane Goodwin,Splendora,58.83,115.67,74.84,120.2,310.71,Single-ply,SBD,M
Boys,59.87,8,Colby Vauter,Dayton,58.56,95.25,56.7,111.13,263.08,Single-ply,SBD,M
Boys,67.13,1,Haze Richey,Shepherd,60.06,161.03,92.99,158.76,412.77,Single-ply,SBD,M
Boys,67.13,1,Cameron Moody,Shepherd,65.91,226.8,122.47,242.67,591.94,Single-ply,SBD,M
Boys,67.13,4,Kris Jordan,Trinity,60.1,151.95,90.72,154.22,396.89,Single-ply,SBD,M
Boys,67.13,5,Marcus Coronado,Alvin,66,136.08,74.84,170.1,381.02,Single-ply,SBD,M
Boys,67.13,6,Nathan Erickson,Splendora,60.78,133.81,95.25,142.88,371.95,Single-ply,SBD,M
Boys,67.13,7,Will Whitaker,Shepherd,59.92,120.2,70.31,120.2,310.71,Single-ply,SBD,M
Boys,67.13,7,Ivan Fuentes,Willis,63.09,136.08,83.91,149.69,369.68,Single-ply,SBD,M
Boys,67.13,8,Juan Carapia,Shepherd,65.77,145.15,68.04,151.95,365.14,Single-ply,SBD,M
Boys,67.13,9,Zac Jenkins,Shepherd,63.55,145.15,65.77,151.95,362.87,Single-ply,SBD,M
Boys,67.13,9,Hollis Williams,New Waverly,59.96,83.91,61.23,102.06,247.21,Single-ply,SBD,M
Boys,67.13,10,Cameron Carson,Shepherd,66.5,127.01,83.91,151.95,362.87,Single-ply,SBD,M
Boys,67.13,11,Tyler Bond,New Caney,66.22,127.01,79.38,147.42,353.8,Single-ply,SBD,M
Boys,67.13,12,Zach Pike,Dayton,66.36,136.08,70.31,136.08,342.46,Single-ply,SBD,M
Boys,67.13,13,Daniel Fernandez,Alvin,63.87,115.67,83.91,129.27,328.85,Single-ply,SBD,M
Boys,67.13,14,Jordan Castro,Conroe The Woodlands,66.72,111.13,63.5,136.08,310.71,Single-ply,SBD,M
Boys,67.13,DQ,Joel Dees,Trinity,66.86,142.88,,,,Single-ply,SBD,M
Boys,67.13,DQ,Blake Haggler,Splendora,66.77,,,,,Single-ply,SBD,M
Boys,74.84,1,Asa Spade,Splendora,73.8,229.06,113.4,206.38,548.85,Single-ply,SBD,M
Boys,74.84,2,Javier Vela,Shepherd,68.99,197.31,120.2,201.85,519.36,Single-ply,SBD,M
Boys,74.84,2,Sal Pruneda,Dayton,67.36,161.03,92.99,185.97,439.98,Single-ply,SBD,M
Boys,74.84,3,Jose Estupinan,Beaumont Ozen,67.36,167.83,88.45,181.44,437.72,Single-ply,SBD,M
Boys,74.84,3,Lucas Erickson,Splendora,68.86,197.31,106.59,206.38,510.29,Single-ply,SBD,M
Boys,74.84,4,Leo Guerrero,Trinity,74.66,197.31,117.93,195.04,510.29,Single-ply,SBD,M
Boys,74.84,4,Logan Hinds,Willis,67.18,170.1,83.91,142.88,396.89,Single-ply,SBD,M
Boys,74.84,5,Colton Boatright,Shepherd,69.94,183.7,111.13,183.7,478.54,Single-ply,SBD,M
Boys,74.84,6,Uri Martinez,New Caney Porter,73.53,172.37,113.4,190.51,476.27,Single-ply,SBD,M
Boys,74.84,7,Kevin Rideau,Dayton,71.17,165.56,117.93,176.9,460.4,Single-ply,SBD,M
Boys,74.84,8,Jordan Martinez,Alvin,73.89,174.63,92.99,192.78,460.4,Single-ply,SBD,M
Boys,74.84,9,Brandon Cheves,Shepherd,72.3,183.7,97.52,176.9,458.13,Single-ply,SBD,M
Boys,74.84,10,Parker Hay,Trinity,71.53,170.1,92.99,179.17,442.25,Single-ply,SBD,M
Boys,74.84,11,Danny Garcia,New Caney,73.71,172.37,97.52,158.76,428.64,Single-ply,SBD,M
Boys,74.84,12,Westly Collins,Willis,71.49,147.42,97.52,172.37,417.3,Single-ply,SBD,M
Boys,74.84,13,Tristan Trigo,Alvin,69.04,145.15,83.91,161.03,390.09,Single-ply,SBD,M
Boys,74.84,14,Andy Garcia,Trinity,74.62,120.2,92.99,158.76,371.95,Single-ply,SBD,M
Boys,74.84,15,Jacob Willard,Conroe The Woodlands,73.84,142.88,65.77,151.95,360.61,Single-ply,SBD,M
Boys,74.84,16,James Harrison,Shepherd,69.17,129.27,63.5,145.15,337.93,Single-ply,SBD,M
Boys,74.84,17,Regan Montgomery,Splendora,72.48,111.13,83.91,129.27,324.32,Single-ply,SBD,M
Boys,74.84,DQ,Charles Graham,Trinity,71.58,,,,,Single-ply,SBD,M
Boys,74.84,DQ,Daniel Vasquez,Shepherd,71.76,,,,,Single-ply,SBD,M
Boys,74.84,DQ,Brett Farris,Shepherd,70.26,,,,,Single-ply,SBD,M
Boys,82.1,1,Kris Narcisse,Beaumont Ozen,80.88,226.8,149.69,199.58,576.06,Single-ply,SBD,M
Boys,82.1,2,Sterling Winzor,Beaumont Ozen,82.05,199.58,122.47,222.26,544.31,Single-ply,SBD,M
Boys,82.1,3,Markell Perry,Beaumont Ozen,80.15,190.51,122.47,217.72,530.7,Single-ply,SBD,M
Boys,82.1,4,Jaxen Halbaedier,Willis,81.65,213.19,120.2,190.51,523.9,Single-ply,SBD,M
Boys,82.1,5,Michael Morris #2,Splendora,80.83,197.31,131.54,188.24,517.1,Single-ply,SBD,M
Boys,82.1,6,Charles McMillen,Trinity,80.78,190.51,90.72,210.92,492.15,Single-ply,SBD,M
Boys,82.1,7,Javonte Oliphant,Trinity,78.52,165.56,99.79,190.51,455.86,Single-ply,SBD,M
Boys,82.1,8,Tim Clay,New Caney Porter,76.84,170.1,106.59,174.63,451.32,Single-ply,SBD,M
Boys,82.1,9,Jared Burke,Shepherd,78.83,165.56,120.2,156.49,442.25,Single-ply,SBD,M
Boys,82.1,11,Keith Martinez,Dayton,78.74,133.81,92.99,192.78,419.57,Single-ply,SBD,M
Boys,82.1,12,Jacob Barrera,Alvin,79.92,161.03,92.99,158.76,412.77,Single-ply,SBD,M
Boys,82.1,13,Daniel Gregory,Conroe The Woodlands,77.2,140.61,90.72,179.17,410.5,Single-ply,SBD,M
Boys,82.1,14,Justin Stein,Alvin,80.24,122.47,58.97,138.35,319.78,Single-ply,SBD,M
Boys,82.1,15,Taken Billenowski,New Waverly,78.34,111.13,74.84,120.2,306.17,Single-ply,SBD,M
Boys,82.1,DQ,Josh Cronin,Shepherd,80.2,188.24,90.72,,,Single-ply,SBD,M
Boys,89.81,1,Trey Keel,Shepherd,85.37,224.53,102.06,204.12,530.7,Single-ply,SBD,M
Boys,89.81,2,Darren Jones,Alvin,88.04,190.51,113.4,201.85,505.76,Single-ply,SBD,M
Boys,89.81,3,Trevin Marcrum,Dayton,83.32,174.63,92.99,174.63,442.25,Single-ply,SBD,M
Boys,89.81,4,Trey Neveu,Conroe The Woodlands,85.73,158.76,90.72,176.9,426.38,Single-ply,SBD,M
Boys,89.81,5,Jesus Rocha,New Caney,87.18,147.42,86.18,145.15,378.75,Single-ply,SBD,M
Boys,89.81,6,Tyler Russ,Alvin,83.91,127.01,70.31,138.35,335.66,Single-ply,SBD,M
Boys,89.81,7,Eduardo Maury,Beaumont Ozen,85.68,106.59,68.04,154.22,328.85,Single-ply,SBD,M
Boys,89.81,8,Andrew Gray,New Waverly,84.23,117.93,68.04,111.13,297.1,Single-ply,SBD,M
Boys,89.81,10,Bradley Harrell,New Waverly,82.33,145.15,106.59,190.51,442.25,Single-ply,SBD,M
Boys,89.81,DQ,Tyler Shirey,Shepherd,89.54,210.92,,,,Single-ply,SBD,M
Boys,99.79,1,Brant Kobersky,Alvin,97.43,263.08,158.76,219.99,641.83,Single-ply,SBD,M
Boys,99.79,2,Alajandro Rodriquez,New Caney Porter,96.93,204.12,138.35,195.04,537.51,Single-ply,SBD,M
Boys,99.79,3,Michael Hoy,Dayton,93.71,183.7,124.74,226.8,535.24,Single-ply,SBD,M
Boys,99.79,4,Clayton Kelleher,Willis,94.39,226.8,104.33,183.7,514.83,Single-ply,SBD,M
Boys,99.79,5,Michael Taylor #2,Splendora,97.2,174.63,136.08,197.31,508.02,Single-ply,SBD,M
Boys,99.79,6,Aiden Humphery,Dayton,91.04,183.7,117.93,170.1,471.74,Single-ply,SBD,M
Boys,99.79,7,Jorge Zumarraga,Willis,92.26,208.65,111.13,151.95,471.74,Single-ply,SBD,M
Boys,99.79,8,Chance Hodgekinson,New Caney Porter,94.48,204.12,117.93,149.69,471.74,Single-ply,SBD,M
Boys,99.79,9,Jake Jones,Willis,93.71,163.29,102.06,192.78,458.13,Single-ply,SBD,M
Boys,99.79,10,Jaycob Salazar,Alvin,92.31,106.59,54.43,133.81,294.84,Single-ply,SBD,M
Boys,99.79,DQ,Angel Limon,Dayton,95.07,188.24,,,,Single-ply,SBD,M
Boys,99.79,DQ,Caleb Richardson,New Caney,93.89,,,,,Single-ply,SBD,M
Boys,99.79,DQ,Alex Dublin,New Waverly,91.99,145.15,,,,Single-ply,SBD,M
Boys,99.79,DQ,Alex Murillo,Dayton,93.12,206.38,113.4,,,Single-ply,SBD,M
Boys,109.77,1,Brad Neal,Dayton,103.37,219.99,161.03,217.72,598.74,Single-ply,SBD,M
Boys,109.77,2,Cameron Providence,New Caney Porter,108.36,226.8,131.54,226.8,585.13,Single-ply,SBD,M
Boys,109.77,3,Elias Garcia,New Caney,107.91,233.6,138.35,192.78,564.72,Single-ply,SBD,M
Boys,109.77,4,Seth Mericle,Splendora,108.14,199.58,158.76,185.97,544.31,Single-ply,SBD,M
Boys,109.77,5,Dylan McCain,Alvin,103.65,199.58,99.79,226.8,526.17,Single-ply,SBD,M
Boys,109.77,6,Glen Bonner,Trinity,103.78,197.31,127.01,197.31,521.63,Single-ply,SBD,M
Boys,109.77,7,Taylor Grice,New Caney Porter,101.88,190.51,136.08,181.44,508.02,Single-ply,SBD,M
Boys,109.77,8,Jamaal Edwards,Beaumont Ozen,102.01,170.1,102.06,192.78,464.93,Single-ply,SBD,M
Boys,109.77,9,Neeairus Withers,Beaumont Ozen,106.64,172.37,108.86,176.9,458.13,Single-ply,SBD,M
Boys,109.77,10,Cale Garrison,Conroe The Woodlands,102.74,190.51,99.79,165.56,455.86,Single-ply,SBD,M
Boys,109.77,11,Eric Taylor,Beaumont Ozen,102.47,192.78,90.72,158.76,442.25,Single-ply,SBD,M
Boys,109.77,12,Nicholas Touch,Alvin,102.56,145.15,92.99,154.22,392.36,Single-ply,SBD,M
Boys,109.77,13,Johnny Hoy,Dayton,103.69,147.42,92.99,151.95,392.36,Single-ply,SBD,M
Boys,109.77,14,Christian Crooks,New Caney,106.5,136.08,86.18,170.1,392.36,Single-ply,SBD,M
Boys,109.77,DQ,Blake Haight,Willis,106.55,226.8,117.93,,,Single-ply,SBD,M
Boys,124.74,1,Cedric Green,Shepherd,117.25,324.32,165.56,231.33,721.21,Single-ply,SBD,M
Boys,124.74,2,Diundre Washington,Beaumont Ozen,110.63,276.69,183.7,204.12,664.51,Single-ply,SBD,M
Boys,124.74,3,Zach Taylor,Shepherd,119.34,244.94,120.2,201.85,566.99,Single-ply,SBD,M
Boys,124.74,4,Chuck Ume,New Caney,111.49,226.8,129.27,199.58,555.65,Single-ply,SBD,M
Boys,124.74,5,Jerome Harmon,Beaumont Ozen,120.25,226.8,108.86,208.65,544.31,Single-ply,SBD,M
Boys,124.74,6,DeJante Granger,Beaumont Ozen,123.42,204.12,124.74,208.65,537.51,Single-ply,SBD,M
Boys,124.74,7,Alan Sowell,Dayton,118.75,192.78,122.47,215.46,530.7,Single-ply,SBD,M
Boys,124.74,8,Kollin Beyer,New Caney Porter,117.25,217.72,117.93,176.9,512.56,Single-ply,SBD,M
Boys,124.74,9,Jason Vargas,Willis,113.81,226.8,102.06,158.76,487.61,Single-ply,SBD,M
Boys,124.74,10,Manuel Alamanza,New Caney,112.13,195.04,102.06,185.97,483.08,Single-ply,SBD,M
Boys,124.74,11,Arthur Harmon,Beaumont Ozen,111.04,192.78,106.59,181.44,480.81,Single-ply,SBD,M
Boys,124.74,12,James Burns,New Caney Porter,115.39,163.29,124.74,172.37,460.4,Single-ply,SBD,M
Boys,124.74,13,Aaron Mata,Alvin,111.86,154.22,79.38,170.1,403.7,Single-ply,SBD,M
Boys,124.74,DQ,Brandon Philips,Trinity,124.33,197.31,,,,Single-ply,SBD,M
Boys,124.74+,1,Jimmy White,Willis,143.97,310.71,185.97,229.06,725.75,Single-ply,SBD,M
Boys,124.74+,2,Quinlan Beck,Shepherd,143.11,272.16,176.9,215.46,664.51,Single-ply,SBD,M
Boys,124.74+,3,Ambrows Moreland,Beaumont Ozen,144.2,238.14,122.47,222.26,582.87,Single-ply,SBD,M
Boys,124.74+,4,Noah Barajas,Alvin,127.69,147.42,106.59,170.1,424.11,Single-ply,SBD,M
