Place,Name,Sex,BirthDate,Age,State,Equipment,Division,BodyweightKg,WeightClassKg,Squat1Kg,Squat2Kg,Squat3Kg,Best3SquatKg,Bench1Kg,Bench2Kg,Bench3Kg,Best3BenchKg,Deadlift1Kg,Deadlift2Kg,Deadlift3Kg,Best3DeadliftKg,TotalKg,Event
1,Kole Snelling,M,,22,MO,Raw,J20-23,98.52,100,161.03,170.1,-181.44,170.1,120.2,124.74,129.27,129.27,188.24,197.31,204.12,204.12,503.49,SBD
1,Kevin Shepard,M,,40,MO,Wraps,M40-44,97.2,100,158.76,165.56,-183.7,165.56,-106.59,106.59,111.13,111.13,174.63,183.7,188.24,188.24,464.93,SBD
1,Lee McQueen,M,,43,MO,Wraps,M40-44,136.44,140,195.04,201.85,229.06,229.06,142.88,145.15,147.42,147.42,206.38,224.53,-238.14,224.53,601.01,SBD
1,Roberto Rodriguez,M,,32,MO,Wraps,Open,97.7,100,183.7,210.92,217.72,217.72,-142.88,151.95,-158.76,151.95,226.8,240.4,247.21,247.21,616.89,SBD
1,Joshua Reed,M,,26,MO,Wraps,Open,134.58,140,215.46,226.8,-238.14,226.8,115.67,-124.74,-124.74,115.67,215.46,226.8,233.6,233.6,576.06,SBD
1,Arthur Sims,M,,17,MO,Raw,T16-17,65.86,67.5,,,,,90.72,102.06,-104.33,102.06,201.85,217.72,222.26,222.26,324.32,BD
