Division,WeightClassKg,Place,Name,Team,BodyweightKg,Best3SquatKg,Best3BenchKg,Best3DeadliftKg,TotalKg,Equipment,Event,Sex,BirthDate
Girls,44.23,1,Victoria Bautista,Anna,38.37,90.72,47.63,92.99,231.33,Single-ply,SBD,F,
Girls,44.23,2,Lillia Pruitt,Callisburg,43.91,90.72,45.36,81.65,217.72,Single-ply,SBD,F,
Girls,44.23,3,Evelyn Bush,Wylie,44.09,79.38,45.36,88.45,213.19,Single-ply,SBD,F,
Girls,44.23,4,Sagrario Labrada,Whitesboro,42.37,79.38,49.9,81.65,210.92,Single-ply,SBD,F,
Girls,44.23,5,Austyn Hance,Azle,41.64,83.91,36.29,88.45,208.65,Single-ply,SBD,F,
Girls,44.23,6,Emily Serrano,Princeton,44.18,65.77,45.36,86.18,197.31,Single-ply,SBD,F,
Girls,44.23,7,Riane Maher,Aubrey,43.18,68.04,38.56,86.18,192.78,Single-ply,SBD,F,
Girls,44.23,8,Brianna Guadalupe,Prosper,42.55,70.31,43.09,74.84,188.24,Single-ply,SBD,F,
Girls,44.23,9,Erika Soltero,Wylie,41.82,70.31,34.02,81.65,185.97,Single-ply,SBD,F,
Girls,44.23,10,Talia Pettis,Denison,44,68.04,38.56,77.11,183.7,Single-ply,SBD,F,
Girls,44.23,11,Melanie Villanuvea,Krum,38.92,56.7,36.29,70.31,163.29,Single-ply,SBD,F,
Girls,44.23,12,Lily Dozier,Krum,41.37,54.43,22.68,63.5,140.61,Single-ply,SBD,F,
Girls,44.23,13,Shelby Stickley,Wolfe City,43.64,54.43,38.56,45.36,138.35,Single-ply,SBD,F,
Girls,44.23,14,Sophia Payne,Bells,37.56,34.02,24.95,52.16,111.13,Single-ply,SBD,F,
Girls,44.23,DQ,Maria Rodriquez,Denison,40.73,,,,,Single-ply,SBD,F,
Girls,47.85,1,Tatiana Contreras,Springtown,47.63,115.67,61.23,136.08,312.98,Single-ply,SBD,F,
Girls,47.85,2,Melissa Ocasio,Little Elm,46.54,102.06,61.23,115.67,278.96,Single-ply,SBD,F,
Girls,47.85,3,Asia Sharpe,Gainesville,45.18,102.06,52.16,115.67,269.89,Single-ply,SBD,F,
Girls,47.85,4,Madison Villa,Sadler S & S Cons,45.27,104.33,54.43,102.06,260.82,Single-ply,SBD,F,
Girls,47.85,5,Britney Yanello,Springtown,47.63,97.52,38.56,115.67,251.74,Single-ply,SBD,F,
Girls,47.85,6,Ashley Colucci,Denison,46.36,92.99,43.09,104.33,240.4,Single-ply,SBD,F,
Girls,47.85,7,Jennifer Muniz,Sherman,46.9,95.25,43.09,97.52,235.87,Single-ply,SBD,F,
Girls,47.85,8,Sofia Collantes,Gainesville,46.72,86.18,49.9,97.52,233.6,Single-ply,SBD,F,
Girls,47.85,9,Heather Hough,Aubrey,46.72,86.18,52.16,92.99,231.33,Single-ply,SBD,F,
Girls,47.85,10,Taylor Barnes,Valley View,46.27,95.25,40.82,90.72,226.8,Single-ply,SBD,F,
Girls,47.85,11,Mackenzie Benton,Azle,47.36,83.91,47.63,72.57,204.12,Single-ply,SBD,F,
Girls,47.85,12,Jessi Maher,Aubrey,46.99,77.11,38.56,81.65,197.31,Single-ply,SBD,F,
Girls,47.85,13,Sophia Ramirez,Little Elm,46.99,52.16,34.02,68.04,154.22,Single-ply,SBD,F,
Girls,47.85,DQ,Genesis Palos,Anna,46.45,95.25,,,,Single-ply,SBD,F,
Girls,51.94,1,Natalie Walker,Princeton,50.98,149.69,90.72,147.42,387.82,Single-ply,SBD,F,
Girls,51.94,2,Vicky Aragon-Marcial,Anna,51.07,142.88,108.86,136.08,387.82,Single-ply,SBD,F,
Girls,51.94,3,Shelley Sugiharto,Wylie,51.89,111.13,70.31,129.27,310.71,Single-ply,SBD,F,
Girls,51.94,4,Samantha Calvache,Wylie,51.8,99.79,65.77,120.2,285.76,Single-ply,SBD,F,
Girls,51.94,5,Caitlyn Coleman,Springtown,50.44,120.2,47.63,111.13,278.96,Single-ply,SBD,F,
Girls,51.94,6,Rachel Stephens,Springtown,49.71,104.33,52.16,111.13,267.62,Single-ply,SBD,F,
Girls,51.94,7,Sydney Duvall,Prosper,49.9,102.06,61.23,104.33,267.62,Single-ply,SBD,F,
Girls,51.94,8,Carina Mata,Sherman,49.08,106.59,52.16,106.59,265.35,Single-ply,SBD,F,
Girls,51.94,9,Cameran Bilderback,Aubrey,49.26,97.52,63.5,95.25,256.28,Single-ply,SBD,F,
Girls,51.94,10,Madelynn Rezabek,Azle,50.44,92.99,54.43,104.33,251.74,Single-ply,SBD,F,
Girls,51.94,11,Maura Ballard,Anna,51.71,104.33,47.63,83.91,235.87,Single-ply,SBD,F,
Girls,51.94,12,Emily Lamberson,Little Elm,50.17,92.99,43.09,83.91,219.99,Single-ply,SBD,F,
Girls,51.94,13,Christyn Phipps,Bells,47.99,83.91,54.43,79.38,217.72,Single-ply,SBD,F,
Girls,51.94,14,Agape Nebiyu,Wylie,50.89,86.18,52.16,79.38,217.72,Single-ply,SBD,F,
Girls,51.94,15,Ellie Saele,Valley View,49.8,90.72,38.56,86.18,215.46,Single-ply,SBD,F,
Girls,51.94,16,Caleigh Cummings,Celeste,49.44,77.11,56.7,79.38,213.19,Single-ply,SBD,F,
Girls,51.94,17,Litzi Juarez,Whitesboro,50.71,81.65,47.63,83.91,213.19,Single-ply,SBD,F,
Girls,51.94,18,Elizabeth Gray #1,Gainesville,50.62,90.72,31.75,83.91,206.38,Single-ply,SBD,F,
Girls,51.94,19,Kylie Pizzurro,Prosper,50.26,83.91,36.29,83.91,204.12,Single-ply,SBD,F,
Girls,51.94,20,Liya Henok,Wylie,49.35,70.31,45.36,86.18,201.85,Single-ply,SBD,F,
Girls,51.94,21,Xitlali Padilla,Bonham,49.08,81.65,38.56,77.11,197.31,Single-ply,SBD,F,
Girls,51.94,22,Julie Quintana,Whitesboro,50.44,63.5,43.09,88.45,195.04,Single-ply,SBD,F,
Girls,51.94,DQ,Ashley Landers,Sadler S & S Cons,51.71,,,,,Single-ply,SBD,F,
Girls,51.94,DQ,Audrey Colwell,Lindsay,51.07,38.56,34.02,68.04,,Single-ply,SBD,F,
Girls,51.94,DQ,Sydney Blankenship,Aubrey,49.99,88.45,47.63,,,Single-ply,SBD,F,
Girls,56.02,1,Kacey Boston,Prosper,55.61,120.2,65.77,111.13,297.1,Single-ply,SBD,F,
Girls,56.02,2,Lauren Osborne,Springtown,55.43,113.4,65.77,113.4,292.57,Single-ply,SBD,F,
Girls,56.02,3,Dana McAlister,Aubrey,54.43,113.4,56.7,115.67,285.76,Single-ply,SBD,F,
Girls,56.02,4,Sydney Wright,Aubrey,55.07,106.59,61.23,106.59,274.42,Single-ply,SBD,F,
Girls,56.02,5,Skyler Arellano,Azle,55.61,95.25,52.16,115.67,263.08,Single-ply,SBD,F,
Girls,56.02,6,Grace Nwaege,Wylie,52.62,97.52,43.09,113.4,254.01,Single-ply,SBD,F,
Girls,56.02,7,Arianna Hughes,Wylie,54.16,102.06,52.16,99.79,254.01,Single-ply,SBD,F,
Girls,56.02,8,Abby Carraway,Lucas Lovejoy,55.61,92.99,52.16,99.79,244.94,Single-ply,SBD,F,
Girls,56.02,9,Kyleigh Richter,Wylie,54.34,99.79,47.63,95.25,242.67,Single-ply,SBD,F,
Girls,56.02,10,Hailey Bellamy,Wylie,54.79,104.33,45.36,88.45,238.14,Single-ply,SBD,F,
Girls,56.02,11,Theresa Mote,Gainesville,54.07,88.45,38.56,106.59,233.6,Single-ply,SBD,F,
Girls,56.02,12,Alectra Mask,Bells,53.52,88.45,47.63,88.45,224.53,Single-ply,SBD,F,
Girls,56.02,13,Alyssa Martinez,Wylie,55.07,90.72,45.36,88.45,224.53,Single-ply,SBD,F,
Girls,56.02,14,Taylor Winfrey,Little Elm,53.25,92.99,58.97,70.31,222.26,Single-ply,SBD,F,
Girls,56.02,15,Lorelai Turner,Little Elm,53.71,92.99,49.9,79.38,222.26,Single-ply,SBD,F,
Girls,56.02,16,Savannah Kirby,Denton Guyer,53.98,83.91,43.09,92.99,219.99,Single-ply,SBD,F,
Girls,56.02,17,Abbi Boyd,Van Alstyne,55.88,83.91,36.29,90.72,210.92,Single-ply,SBD,F,
Girls,56.02,18,Alana Grady,Anna,54.52,77.11,38.56,86.18,201.85,Single-ply,SBD,F,
Girls,56.02,19,Haley Davidson,Blue Ridge,55.34,74.84,38.56,88.45,201.85,Single-ply,SBD,F,
Girls,56.02,20,Mackenzie Hess,Lindsay,53.16,72.57,40.82,81.65,195.04,Single-ply,SBD,F,
Girls,56.02,21,Ashley Tankersley,Blue Ridge,51.98,72.57,43.09,77.11,192.78,Single-ply,SBD,F,
Girls,56.02,22,Nadia Balthrop,Lindsay,54.16,68.04,38.56,79.38,185.97,Single-ply,SBD,F,
Girls,56.02,23,Allyson Richerson,Sadler S & S Cons,54.7,65.77,36.29,65.77,167.83,Single-ply,SBD,F,
Girls,56.02,24,Fernand Gonzales,Krum,52.16,61.23,31.75,70.31,163.29,Single-ply,SBD,F,
Girls,56.02,25,Abigail Colvert,Wolfe City,52.44,52.16,34.02,68.04,154.22,Single-ply,SBD,F,
Girls,56.02,26,Gabriella Bailey,Princeton,55.7,58.97,27.22,52.16,138.35,Single-ply,SBD,F,
Girls,56.02,DQ,Mohai Owens,Azle,55.97,115.67,,,,Single-ply,SBD,F,
Girls,60.1,1,Ellie Davis,Aubrey,59.42,113.4,70.31,124.74,308.44,Single-ply,SBD,F,
Girls,60.1,2,Leah Frith,Whitesboro,59.15,115.67,63.5,124.74,303.91,Single-ply,SBD,F,
Girls,60.1,3,Korina Wallace,Anna,57.88,115.67,72.57,104.33,292.57,Single-ply,SBD,F,
Girls,60.1,4,Hermanyonie Dominguez,Whitesboro,58.79,102.06,52.16,131.54,285.76,Single-ply,SBD,F,
Girls,60.1,5,Brie Michelli,Azle,59.24,111.13,56.7,115.67,283.5,Single-ply,SBD,F,
Girls,60.1,6,Angel Sainz,Gainesville,60.06,106.59,68.04,102.06,276.69,Single-ply,SBD,F,
Girls,60.1,7,Jenna King,Whitesboro,56.61,111.13,52.16,108.86,272.16,Single-ply,SBD,F,
Girls,60.1,8,Alyssa Jacobs,Wylie,57.97,106.59,58.97,106.59,272.16,Single-ply,SBD,F,
Girls,60.1,9,Lacie Weinschenk,Celina,59.51,115.67,65.77,90.72,272.16,Single-ply,SBD,F,
Girls,60.1,10,Erin Hall,Springtown,59.15,102.06,56.7,102.06,260.82,Single-ply,SBD,F,
Girls,60.1,11,Macy Chavez,Springtown,58.06,102.06,52.16,102.06,256.28,Single-ply,SBD,F,
Girls,60.1,12,Rachel Baumann,Azle,59.15,92.99,52.16,108.86,254.01,Single-ply,SBD,F,
Girls,60.1,13,Morgan Foster #1,Prosper,59.6,83.91,61.23,106.59,251.74,Single-ply,SBD,F,
Girls,60.1,14,Sage Murray,Celina,57.61,95.25,56.7,92.99,244.94,Single-ply,SBD,F,
Girls,60.1,15,Phoebe Attaway,Farmersville,57.42,88.45,52.16,97.52,238.14,Single-ply,SBD,F,
Girls,60.1,16,Brenda Contreras,Wylie,59.24,102.06,54.43,81.65,238.14,Single-ply,SBD,F,
Girls,60.1,17,Hannah Griffin,Van Alstyne,58.79,95.25,47.63,92.99,235.87,Single-ply,SBD,F,
Girls,60.1,18,Jaida Ford,Prosper,56.25,90.72,45.36,90.72,226.8,Single-ply,SBD,F,
Girls,60.1,19,Jenna Ball,Aubrey,56.88,79.38,61.23,86.18,226.8,Single-ply,SBD,F,
Girls,60.1,20,Emmilee Ratliff,Farmersville,56.97,79.38,49.9,95.25,224.53,Single-ply,SBD,F,
Girls,60.1,21,Ariel Waller,Tom Bean,56.06,77.11,47.63,90.72,215.46,Single-ply,SBD,F,
Girls,60.1,22,Evelyn Pecory,Prosper,59.42,74.84,45.36,92.99,213.19,Single-ply,SBD,F,
Girls,60.1,23,Sara Henry,Bonham,57.88,79.38,45.36,81.65,206.38,Single-ply,SBD,F,
Girls,60.1,24,Jade Cox,Howe,57.97,90.72,49.9,63.5,204.12,Single-ply,SBD,F,
Girls,60.1,25,Gabriella Parks,Anna,56.79,74.84,45.36,77.11,197.31,Single-ply,SBD,F,
Girls,60.1,26,Tyler Fenley,Sadler S & S Cons,56.25,79.38,31.75,81.65,192.78,Single-ply,SBD,F,
Girls,60.1,27,Jordan McPherson,Blue Ridge,57.42,70.31,34.02,81.65,185.97,Single-ply,SBD,F,
Girls,60.1,28,Abbie Schnakenburg,Sadler S & S Cons,59.06,72.57,34.02,77.11,183.7,Single-ply,SBD,F,
Girls,60.1,29,Briana Hawley,Dallas Life Oak Cliff,56.52,68.04,34.02,79.38,181.44,Single-ply,SBD,F,
Girls,60.1,30,Jessica Carter,Callisburg,57.7,56.7,34.02,88.45,179.17,Single-ply,SBD,F,
Girls,60.1,31,Abigail Easterwood,Anna,58.33,72.57,36.29,65.77,174.63,Single-ply,SBD,F,
Girls,60.1,32,Emilee Wells,Sadler S & S Cons,58.06,54.43,36.29,54.43,145.15,Single-ply,SBD,F,
Girls,60.1,DQ,Giselle Hendrickson,Wylie,57.06,90.72,,,,Single-ply,SBD,F,
Girls,60.1,DQ,Samantha Ormsby,Aubrey,56.97,72.57,,,,Single-ply,SBD,F,
Girls,67.36,1,Cierra Miller,Springtown,66.5,129.27,70.31,131.54,331.12,Single-ply,SBD,F,
Girls,67.36,2,Maddy Lewis,Bells,67.22,115.67,65.77,131.54,312.98,Single-ply,SBD,F,
Girls,67.36,3,Brianna Sowunmi,Wylie,65.32,115.67,49.9,131.54,297.1,Single-ply,SBD,F,
Girls,67.36,4,Kornkanok Sophonsakulraot,Prosper,63.87,117.93,61.23,115.67,294.84,Single-ply,SBD,F,
Girls,67.36,5,Anaie Rodriguez,Springtown,65.32,120.2,38.56,136.08,294.84,Single-ply,SBD,F,
Girls,67.36,6,Victoria Azevedo,Bells,64.5,104.33,74.84,108.86,288.03,Single-ply,SBD,F,
Girls,67.36,7,Ashlyn Garrison,Gainesville,66.04,111.13,61.23,115.67,288.03,Single-ply,SBD,F,
Girls,67.36,8,Delanie Hamilton,Anna,65.5,111.13,68.04,104.33,283.5,Single-ply,SBD,F,
Girls,67.36,9,Skyler Brannan,Whitesboro,63.59,102.06,61.23,111.13,274.42,Single-ply,SBD,F,
Girls,67.36,10,Addy Roody,Van Alstyne,65.59,113.4,47.63,106.59,267.62,Single-ply,SBD,F,
Girls,67.36,11,Desi Ortega,Valley View,66.22,108.86,54.43,104.33,267.62,Single-ply,SBD,F,
Girls,67.36,12,Karen Lopez,Sherman,61.87,102.06,58.97,97.52,258.55,Single-ply,SBD,F,
Girls,67.36,13,Tanealia Barnum,Denison,63.5,99.79,43.09,115.67,258.55,Single-ply,SBD,F,
Girls,67.36,14,Abigail Velten,Whitesboro,60.78,81.65,61.23,108.86,251.74,Single-ply,SBD,F,
Girls,67.36,15,Natalia Sepuiveda,Sherman,67.31,102.06,52.16,97.52,251.74,Single-ply,SBD,F,
Girls,67.36,16,Kirstyn Eitelman,Tioga,65.68,111.13,52.16,83.91,247.21,Single-ply,SBD,F,
Girls,67.36,17,Jilleighan Boivin,Azle,62.78,99.79,47.63,92.99,240.4,Single-ply,SBD,F,
Girls,67.36,18,Hannah McCarson,Prosper,63.32,83.91,52.16,97.52,233.6,Single-ply,SBD,F,
Girls,67.36,19,Beterin Corrales,Tom Bean,64.32,86.18,52.16,90.72,229.06,Single-ply,SBD,F,
Girls,67.36,20,Allie James,Blue Ridge,65.14,79.38,38.56,102.06,219.99,Single-ply,SBD,F,
Girls,67.36,21,Brynnah Adams,Callisburg,65.86,74.84,36.29,104.33,215.46,Single-ply,SBD,F,
Girls,67.36,22,Shelby Smercina,Wylie,64.05,83.91,49.9,77.11,210.92,Single-ply,SBD,F,
Girls,67.36,23,Robin Hall,Van Alstyne,67.04,83.91,43.09,83.91,210.92,Single-ply,SBD,F,
Girls,67.36,24,Mia Baker,Little Elm,61.78,86.18,36.29,83.91,206.38,Single-ply,SBD,F,
Girls,67.36,25,Ava Horner,Lindsay,66.5,81.65,45.36,74.84,201.85,Single-ply,SBD,F,
Girls,67.36,26,Dominique Wars,Dallas Life Oak Cliff,65.41,70.31,29.48,74.84,174.63,Single-ply,SBD,F,
Girls,67.36,27,Kylee Lewis,Sadler S & S Cons,64.95,65.77,36.29,70.31,172.37,Single-ply,SBD,F,
Girls,67.36,28,Bailey Stevens,Wolfe City,67.04,70.31,47.63,54.43,172.37,Single-ply,SBD,F,
Girls,67.36,29,Alondra Liamas,Celina,61.96,70.31,24.95,74.84,170.1,Single-ply,SBD,F,
Girls,67.36,30,Cynthia Payne,Bells,66.95,70.31,34.02,63.5,167.83,Single-ply,SBD,F,
Girls,67.36,31,Marissa Veliz,Celina,67.22,74.84,31.75,61.23,167.83,Single-ply,SBD,F,
Girls,67.36,32,Fionna Stewart,Wolfe City,60.6,70.31,29.48,61.23,161.03,Single-ply,SBD,F,
Girls,67.36,33,Rachel Montgomery,Dallas Life Oak Cliff,61.05,56.7,31.75,70.31,158.76,Single-ply,SBD,F,
Girls,67.36,DQ,Casey Villianueva,Blue Ridge,66.32,65.77,,,,Single-ply,SBD,F,
Girls,67.36,DQ,Makinna Hill,Celeste,64.77,65.77,,,,Single-ply,SBD,F,
Girls,67.36,DQ,Addison Meuhnth,Farmersville,65.05,74.84,,,,Single-ply,SBD,F,
Girls,67.36,DQ,Brynn Sanders,Krum,66.04,,,,,Single-ply,SBD,F,
Girls,75.07,1,Linsey Dolan,Denison,70.4,142.88,72.57,147.42,362.87,Single-ply,SBD,F,
Girls,75.07,2,Ashley Boatright,Sherman,68.9,151.95,79.38,129.27,360.61,Single-ply,SBD,F,
Girls,75.07,3,Angela Pando,Springtown,72.12,145.15,74.84,136.08,356.07,Single-ply,SBD,F,
Girls,75.07,4,Lanie Fajerson,Sherman,68.95,136.08,70.31,129.27,335.66,Single-ply,SBD,F,
Girls,75.07,5,Debra Lester,Azle,70.08,131.54,77.11,124.74,333.39,Single-ply,SBD,F,
Girls,75.07,6,Erica Kissinger,Celina,70.31,133.81,63.5,115.67,312.98,Single-ply,SBD,F,
Girls,75.07,7,Cori Jordan,Celeste,70.35,117.93,65.77,127.01,310.71,Single-ply,SBD,F,
Girls,75.07,8,Aubri Norton,Azle,72.21,117.93,70.31,122.47,310.71,Single-ply,SBD,F,
Girls,75.07,9,Lexi Yandall,Denison,73.66,120.2,83.91,106.59,310.71,Single-ply,SBD,F,
Girls,75.07,10,Bela Herrera,Aubrey,69.54,127.01,58.97,120.2,306.17,Single-ply,SBD,F,
Girls,75.07,11,Carley Hall,Wylie,74.25,120.2,65.77,120.2,306.17,Single-ply,SBD,F,
Girls,75.07,12,Aviana Baca,Princeton,74.71,124.74,45.36,136.08,306.17,Single-ply,SBD,F,
Girls,75.07,13,Tea Mosby,Aubrey,68.04,102.06,54.43,147.42,303.91,Single-ply,SBD,F,
Girls,75.07,14,Vanessa De Jesus,Farmersville,74.84,108.86,61.23,117.93,288.03,Single-ply,SBD,F,
Girls,75.07,15,Paola Santamarica,Wylie,69.76,111.13,61.23,111.13,283.5,Single-ply,SBD,F,
Girls,75.07,16,Georgia Green,Aubrey,72.53,99.79,63.5,108.86,272.16,Single-ply,SBD,F,
Girls,75.07,17,Kennedy Brooks,Krum,71.99,97.52,49.9,120.2,267.62,Single-ply,SBD,F,
Girls,75.07,18,Jade Williams,Anna,74.43,113.4,47.63,102.06,263.08,Single-ply,SBD,F,
Girls,75.07,19,Jamie Neel,Sadler S & S Cons,69.67,97.52,54.43,108.86,260.82,Single-ply,SBD,F,
Girls,75.07,20,Michaela Gonzales,Little Elm,70.13,104.33,47.63,104.33,256.28,Single-ply,SBD,F,
Girls,75.07,21,McKena Jensen,Van Alstyne,74.89,111.13,52.16,92.99,256.28,Single-ply,SBD,F,
Girls,75.07,22,Morgan Clark #2,Tom Bean,74.89,97.52,52.16,97.52,247.21,Single-ply,SBD,F,
Girls,75.07,23,Skylar Atkins,Denison,68.04,99.79,61.23,83.91,244.94,Single-ply,SBD,F,
Girls,75.07,24,Tuilaiah Jones,Sherman,74.03,83.91,52.16,106.59,242.67,Single-ply,SBD,F,
Girls,75.07,25,Dayna Rosales,Celina,74.75,108.86,29.48,102.06,240.4,Single-ply,SBD,F,
Girls,75.07,26,Isabell Gonzales,Little Elm,70.17,86.18,47.63,102.06,235.87,Single-ply,SBD,F,
Girls,75.07,27,D'Kota Gibbs,Little Elm,71.44,95.25,47.63,92.99,235.87,Single-ply,SBD,F,
Girls,75.07,28,Shawnee Quackenbus,Krum,67.99,90.72,40.82,99.79,231.33,Single-ply,SBD,F,
Girls,75.07,29,Jaylynn Huff,Howe,74.53,102.06,40.82,83.91,226.8,Single-ply,SBD,F,
Girls,75.07,30,Monica Bonilla,Lucas Lovejoy,70.85,70.31,52.16,99.79,222.26,Single-ply,SBD,F,
Girls,75.07,31,Marisa Langford,Tom Bean,71.12,83.91,47.63,90.72,222.26,Single-ply,SBD,F,
Girls,75.07,32,Hailey Whitton,Prosper,67.49,83.91,47.63,88.45,219.99,Single-ply,SBD,F,
Girls,75.07,33,Ava Fink,Aubrey,69.72,68.04,45.36,97.52,210.92,Single-ply,SBD,F,
Girls,75.07,34,Kendall Anderson,Wolfe City,73.26,74.84,54.43,81.65,210.92,Single-ply,SBD,F,
Girls,75.07,35,Hannah Lynn,Whitesboro,69.49,70.31,47.63,88.45,206.38,Single-ply,SBD,F,
Girls,75.07,36,Faith Batchter,Wolfe City,68.95,74.84,45.36,83.91,204.12,Single-ply,SBD,F,
Girls,75.07,37,Mollie Gauagher,Van Alstyne,73.84,77.11,29.48,79.38,185.97,Single-ply,SBD,F,
Girls,75.07,38,Kyleigh Sandmann,Lindsay,73.07,83.91,38.56,58.97,181.44,Single-ply,SBD,F,
Girls,75.07,39,Loren Freeman,Lindsay,75.02,47.63,40.82,72.57,161.03,Single-ply,SBD,F,
Girls,75.07,DQ,Marisabel Blanco,Little Elm,73.98,124.74,,,,Single-ply,SBD,F,
Girls,75.07,DQ,Zenobia McMillon,Anna,75.07,86.18,,,,Single-ply,SBD,F,
Girls,75.07,DQ,Kianna Jones,Denison,72.48,136.08,65.77,136.08,,Single-ply,SBD,F,
Girls,75.07,DQ,Claire Gallogher,Van Alstyne,74.57,79.38,,,,Single-ply,SBD,F,
Girls,75.07,DQ,Stormie Stevens,Prosper,68.22,,,,,Single-ply,SBD,F,
Girls,82.33,1,Keely Clark,Callisburg,82.1,149.69,83.91,147.42,381.02,Single-ply,SBD,F,
Girls,82.33,2,Nicole Overton,Denton Guyer,76.7,142.88,88.45,133.81,365.14,Single-ply,SBD,F,
Girls,82.33,3,Sydney Bazan,Princeton,77.56,156.49,72.57,129.27,358.34,Single-ply,SBD,F,
Girls,82.33,4,Hayden Thompson #1,Whitewright,81.33,133.81,88.45,136.08,358.34,Single-ply,SBD,F,
Girls,82.33,5,Reyna Alcantar,Azle,77.25,140.61,70.31,136.08,347,Single-ply,SBD,F,
Girls,82.33,6,Tia Dodd,Princeton,77.56,122.47,74.84,104.33,301.64,Single-ply,SBD,F,
Girls,82.33,7,Maria Mendez,Gainesville,81.28,111.13,61.23,120.2,292.57,Single-ply,SBD,F,
Girls,82.33,8,Kinsey Lock,Van Alstyne,81.83,113.4,49.9,120.2,283.5,Single-ply,SBD,F,
Girls,82.33,9,Lauren Brown,Sadler S & S Cons,75.75,97.52,54.43,127.01,278.96,Single-ply,SBD,F,
Girls,82.33,10,Kendall Brooks,Prosper,80.92,95.25,65.77,113.4,274.42,Single-ply,SBD,F,
Girls,82.33,11,Kalynn Byxbe,Princeton,76.7,111.13,61.23,99.79,272.16,Single-ply,SBD,F,
Girls,82.33,12,Piper Dickeson,Sadler S & S Cons,76.7,113.4,63.5,95.25,272.16,Single-ply,SBD,F,
Girls,82.33,13,Jasmine Autamirano,Aubrey,77.07,81.65,61.23,108.86,251.74,Single-ply,SBD,F,
Girls,82.33,14,Graci Dombroski,Van Alstyne,78.11,99.79,45.36,106.59,251.74,Single-ply,SBD,F,
Girls,82.33,15,Kylie Montgomery,Aubrey,75.89,86.18,56.7,90.72,233.6,Single-ply,SBD,F,
Girls,82.33,16,Savannah Torres,Aubrey,78.65,83.91,58.97,90.72,233.6,Single-ply,SBD,F,
Girls,82.33,17,Sabrina LaRue,Bonham,80.69,81.65,47.63,92.99,222.26,Single-ply,SBD,F,
Girls,82.33,DQ,Layla Hubbard,Gainesville,80.56,,,,,Single-ply,SBD,F,
Girls,82.33,DQ,Kj Delaney,Celeste,77.84,,,,,Single-ply,SBD,F,
Girls,90.04,1,Rosemary Pena,Gainesville,90.04,136.08,86.18,124.74,347,Single-ply,SBD,F,
Girls,90.04,2,Kayley Rohrbough,Callisburg,86.82,129.27,58.97,136.08,324.32,Single-ply,SBD,F,
Girls,90.04,3,Cameron Hernandez,Little Elm,86.18,129.27,70.31,117.93,317.51,Single-ply,SBD,F,
Girls,90.04,4,Jordan Passanisi,Bonham,83.64,124.74,68.04,113.4,306.17,Single-ply,SBD,F,
Girls,90.04,5,Callie Lamb,Bells,82.69,117.93,72.57,113.4,303.91,Single-ply,SBD,F,
Girls,90.04,6,Janessa Crawford,Van Alstyne,83.19,111.13,49.9,129.27,290.3,Single-ply,SBD,F,
Girls,90.04,7,Abigail Scoble,Wylie,89.81,111.13,74.84,104.33,290.3,Single-ply,SBD,F,
Girls,90.04,8,Jessica Thomas,Van Alstyne,84.05,102.06,61.23,122.47,285.76,Single-ply,SBD,F,
Girls,90.04,9,Erica Hunt,Princeton,85.77,106.59,61.23,117.93,285.76,Single-ply,SBD,F,
Girls,90.04,10,Natalia Sandoval,Farmersville,88,120.2,56.7,104.33,281.23,Single-ply,SBD,F,
Girls,90.04,11,Alexi Jordan,Denison,85.23,92.99,49.9,122.47,265.35,Single-ply,SBD,F,
Girls,90.04,12,Elaina Camp,Little Elm,87.63,113.4,58.97,90.72,263.08,Single-ply,SBD,F,
Girls,90.04,13,Cierra Glenn,Callisburg,84.87,81.65,45.36,97.52,224.53,Single-ply,SBD,F,
Girls,90.04,14,Makayla Asberry,Aubrey,82.51,68.04,47.63,106.59,222.26,Single-ply,SBD,F,
Girls,90.04,15,Cassidy Tackett,Lindsay,84.14,83.91,40.82,86.18,210.92,Single-ply,SBD,F,
Girls,90.04,16,Natalie Emanuel,Dallas Life Oak Cliff,87.27,61.23,45.36,95.25,201.85,Single-ply,SBD,F,
Girls,90.04,17,MaKinna Sanders,Wolfe City,83.42,56.7,49.9,72.57,179.17,Single-ply,SBD,F,
Girls,90.04,18,Emzie Austin,Farmersville,87.54,58.97,36.29,83.91,179.17,Single-ply,SBD,F,
Girls,100.02,1,Emma Thurman,Gainesville,91.9,145.15,90.72,120.2,356.07,Single-ply,SBD,F,
Girls,100.02,2,Emily Constantino,Gainesville,93.98,145.15,72.57,131.54,349.27,Single-ply,SBD,F,
Girls,100.02,3,Haley Walker,Sadler S & S Cons,92.44,149.69,72.57,124.74,347,Single-ply,SBD,F,
Girls,100.02,4,Angela Chavez,Springtown,91.53,138.35,65.77,136.08,340.19,Single-ply,SBD,F,
Girls,100.02,5,Kendra Haskett,Whitewright,96.62,138.35,92.99,106.59,337.93,Single-ply,SBD,F,
Girls,100.02,6,Zoie Stratton,Whitewright,92.49,127.01,68.04,102.06,297.1,Single-ply,SBD,F,
Girls,100.02,7,Victoria Okafor,Wylie,92.53,111.13,61.23,124.74,297.1,Single-ply,SBD,F,
Girls,100.02,8,Cagen Burkard,Bonham,91.67,131.54,61.23,102.06,294.84,Single-ply,SBD,F,
Girls,100.02,9,Savannah Hawkins,Anna,91.63,83.91,68.04,111.13,263.08,Single-ply,SBD,F,
Girls,100.02,10,Heavan Warner,Bonham,95.07,106.59,58.97,95.25,260.82,Single-ply,SBD,F,
Girls,100.02,11,Raelynne Murphy,Blue Ridge,91.76,65.77,38.56,86.18,190.51,Single-ply,SBD,F,
Girls,117.71,1,Dania Arguello,Bonham,104.6,156.49,77.11,142.88,376.48,Single-ply,SBD,F,
Girls,117.71,2,Tori McCoy,Sadler S & S Cons,103.51,140.61,86.18,136.08,362.87,Single-ply,SBD,F,
Girls,117.71,3,Deysy Fuentes,Princeton,115.48,154.22,65.77,142.88,362.87,Single-ply,SBD,F,
Girls,117.71,4,Ayjan Smith,Prosper,115.62,129.27,70.31,124.74,324.32,Single-ply,SBD,F,
Girls,117.71,5,Daniela Fialavlz,Sherman,109.23,95.25,58.97,113.4,267.62,Single-ply,SBD,F,
Girls,117.71,6,Nyla Blankinship,Valley View,111.27,117.93,43.09,104.33,265.35,Single-ply,SBD,F,
Girls,117.71,DQ,Kylie Fisher,Cooper,111.08,117.93,,,,Single-ply,SBD,F,
Girls,117.71+,1,Trinity Hall,Azle,130.63,165.56,83.91,117.93,367.41,Single-ply,SBD,F,
Girls,117.71+,2,Carolanne Condie,Gainesville,121.2,122.47,90.72,129.27,342.46,Single-ply,SBD,F,
Girls,117.71+,3,Gracie Smith,Farmersville,126.28,122.47,77.11,138.35,337.93,Single-ply,SBD,F,
Girls,117.71+,4,Semaj Gabriel,Princeton,136.17,129.27,70.31,136.08,335.66,Single-ply,SBD,F,
Girls,117.71+,DQ,Blake Jarvis,Springtown,121.97,,,,,Single-ply,SBD,F,
