Division,WeightClassKg,Place,Name,Team,BodyweightKg,Best3SquatKg,Best3BenchKg,Best3DeadliftKg,TotalKg,Equipment,Event,Sex
Boys,55.79,1,Zack Rayos,Pecos,51.89,142.88,70.31,140.61,353.8,Single-ply,SBD,M
Boys,51.71,2,Marshall Chappell,Seminole,48.08,138.35,79.38,127.01,344.73,Single-ply,SBD,M
Boys,51.71,3,Jonathon Valderas,Levelland,50.35,136.08,68.04,124.74,328.85,Single-ply,SBD,M
Boys,51.71,4,Zach Martin,Midland Greenwood,47.81,102.06,52.16,124.74,278.96,Single-ply,SBD,M
Boys,51.71,5,Rafael Rodriguez,Levelland,49.53,97.52,65.77,108.86,272.16,Single-ply,SBD,M
Boys,51.71,6,Israel Celaya,Fort Stockton,51.53,102.06,52.16,117.93,272.16,Single-ply,SBD,M
Boys,51.71,7,Darian Vidana,Monahans,49.99,99.79,54.43,115.67,269.89,Single-ply,SBD,M
Boys,51.71,8,Lane Miller,Dalhart,47.17,102.06,38.56,108.86,249.48,Single-ply,SBD,M
Boys,51.71,9,Andrew Yara,Perryton,43,77.11,43.09,79.38,199.58,Single-ply,SBD,M
Boys,51.71,10,Wesley Payton,Lamesa,48.44,81.65,56.7,61.23,199.58,Single-ply,SBD,M
Boys,55.79,1,Jamie Longoria,Levelland,54.79,151.95,79.38,176.9,408.23,Single-ply,SBD,M
Boys,55.79,2,Brett Salas,Lubbock Cooper,54.43,158.76,70.31,170.1,399.16,Single-ply,SBD,M
Boys,55.79,3,Jacob Villalpando,Sweetwater,55.34,145.15,79.38,163.29,387.82,Single-ply,SBD,M
Boys,55.79,4,Zach Gass,Lubbock Cooper,54.98,136.08,74.84,147.42,358.34,Single-ply,SBD,M
Boys,55.79,5,Wesley Sappington,Perryton,55.79,136.08,65.77,151.95,353.8,Single-ply,SBD,M
Boys,59.87,6,Pablo Hinojosa,Lamesa,56,140.61,65.77,142.88,349.27,Single-ply,SBD,M
Boys,55.79,7,Nicholas Ybarra,Pecos,55.61,131.54,72.57,138.35,342.46,Single-ply,SBD,M
Boys,55.79,DQ,Cailer Woolam,Lubbock Cooper,55.52,92.99,,,,Single-ply,SBD,M
Boys,55.79,DQ,Martin Hernandez #3,Andrews,55.7,129.27,,,,Single-ply,SBD,M
Boys,59.87,DQ,Joel Jaramillo,Pecos,55.97,,,,,Single-ply,SBD,M
Boys,67.13,1,Angel Guerrero,Levelland,60,183.7,88.45,167.83,439.98,Single-ply,SBD,M
Boys,67.13,2,Federico Juarez,Andrews,60,163.29,88.45,172.37,424.11,Single-ply,SBD,M
Boys,59.87,3,Coe Kubicek,Seminole,59.6,158.76,99.79,158.76,417.3,Single-ply,SBD,M
Boys,59.87,4,Michael Rivas,Dalhart,58.06,147.42,79.38,170.1,396.89,Single-ply,SBD,M
Boys,59.87,5,Trey Cave,Midland Greenwood,58.97,136.08,77.11,149.69,362.87,Single-ply,SBD,M
Boys,67.13,6,Donald Baker,Sweetwater,60,136.08,77.11,131.54,344.73,Single-ply,SBD,M
Boys,67.13,7,German Rodriguez,Monahans,60,127.01,79.38,127.01,333.39,Single-ply,SBD,M
Boys,59.87,8,Marcus Renteria,Lamesa,57.61,113.4,83.91,127.01,324.32,Single-ply,SBD,M
Boys,59.87,DQ,Ernesto Muro,Perryton,59.06,136.08,79.38,,,Single-ply,SBD,M
Boys,67.13,DQ,Dario Alvarez,Pecos,60,,,,,Single-ply,SBD,M
Boys,67.13,1,Dustin Smith,Levelland,66.59,199.58,104.33,192.78,496.68,Single-ply,SBD,M
Boys,67.13,2,Stephen Apolinar,Pecos,65.77,199.58,115.67,179.17,494.42,Single-ply,SBD,M
Boys,67.13,3,Rafael Robles,Andrews,66.59,174.63,108.86,192.78,476.27,Single-ply,SBD,M
Boys,67.13,4,Choeung Sei,Snyder,66.68,190.51,108.86,174.63,474,Single-ply,SBD,M
Boys,67.13,5,Michael Prieto,Lubbock Cooper,65.68,165.56,88.45,190.51,444.52,Single-ply,SBD,M
Boys,67.13,6,John Ripley,Fort Stockton,66.22,172.37,97.52,165.56,435.45,Single-ply,SBD,M
Boys,67.13,7,Jose Villalobos,Dalhart,65.32,156.49,90.72,176.9,424.11,Single-ply,SBD,M
Boys,67.13,8,Larry Polanco,Andrews,66.04,147.42,86.18,185.97,419.57,Single-ply,SBD,M
Boys,67.13,9,Adrian Lopez #2,Sweetwater,64.59,136.08,99.79,156.49,392.36,Single-ply,SBD,M
Boys,67.13,DQ,Brice Burgess,Midland Greenwood,65.68,167.83,,,,Single-ply,SBD,M
Boys,82.1,1,Lasalle Washington,Levelland,75,217.72,108.86,195.04,521.63,Single-ply,SBD,M
Boys,82.1,2,Corey Richardson,Levelland,75,199.58,117.93,195.04,512.56,Single-ply,SBD,M
Boys,74.84,3,Sam Nemir,Sweetwater,73.48,195.04,108.86,199.58,503.49,Single-ply,SBD,M
Boys,82.1,4,Donovan Rodriguez,Pecos,75,181.44,111.13,185.97,478.54,Single-ply,SBD,M
Boys,74.84,5,Ryan Linebaugh,Sweetwater,70.67,176.9,99.79,195.04,471.74,Single-ply,SBD,M
Boys,74.84,6,Tavish Lightner,Perryton,74.03,165.56,120.2,183.7,469.47,Single-ply,SBD,M
Boys,74.84,7,Bubba Boyett,Monahans,73.57,179.17,95.25,174.63,449.06,Single-ply,SBD,M
Boys,74.84,8,Logan Claborn,Dalhart,72.39,172.37,106.59,158.76,437.72,Single-ply,SBD,M
Boys,74.84,DQ,Lomas Gonzales,Pecos,72.76,,,,,Single-ply,SBD,M
Boys,74.84,DQ,Justin Thornton,Pecos,74.75,,,,,Single-ply,SBD,M
Boys,82.1,1,Cole Barton #3,Midland Greenwood,79.02,204.12,142.88,215.46,562.45,Single-ply,SBD,M
Boys,82.1,2,Dylan Winkle,Borger,78.65,199.58,117.93,215.46,532.97,Single-ply,SBD,M
Boys,82.1,3,Aaron Galarza,Levelland,78.74,199.58,113.4,208.65,521.63,Single-ply,SBD,M
Boys,82.1,4,Josh Garcia,Perryton,79.92,185.97,120.2,204.12,510.29,Single-ply,SBD,M
Boys,82.1,5,Jesus Castillo,Fort Stockton,78.65,167.83,97.52,215.46,480.81,Single-ply,SBD,M
Boys,82.1,6,Baxter Pilley,Fort Stockton,80.92,170.1,115.67,195.04,480.81,Single-ply,SBD,M
Boys,82.1,7,Max Zetzman,Sweetwater,80.47,158.76,120.2,188.24,467.2,Single-ply,SBD,M
Boys,82.1,8,Dusty Ortiz,Lamesa,76.11,158.76,102.06,183.7,444.52,Single-ply,SBD,M
Boys,82.1,9,Ignacio Jimenez,Lamesa,78.38,158.76,97.52,176.9,433.18,Single-ply,SBD,M
Boys,82.1,10,Will Welch,Midland Greenwood,76.88,158.76,102.06,165.56,426.38,Single-ply,SBD,M
Boys,82.1,DQ,Kane Isaacks,Levelland,81.74,,,,,Single-ply,SBD,M
Boys,89.81,1,Temperance Childers,Levelland,83.28,208.65,138.35,204.12,551.11,Single-ply,SBD,M
Boys,89.81,2,Jake Varela,Pecos,88.63,204.12,129.27,208.65,542.04,Single-ply,SBD,M
Boys,89.81,3,Tim Bergara,Brownfield,87.63,176.9,129.27,201.85,508.02,Single-ply,SBD,M
Boys,89.81,4,Robert Herrera,Pecos,89.63,183.7,129.27,190.51,503.49,Single-ply,SBD,M
Boys,89.81,5,Cameron Litterell,Borger,86.45,185.97,136.08,176.9,498.95,Single-ply,SBD,M
Boys,89.81,6,Collin McLarty,Lubbock Cooper,89.72,197.31,99.79,176.9,474,Single-ply,SBD,M
Boys,89.81,7,Cory Burns,Sweetwater,89.45,174.63,102.06,192.78,469.47,Single-ply,SBD,M
Boys,89.81,8,Roddy Landeros,Midland Greenwood,88.36,170.1,111.13,174.63,455.86,Single-ply,SBD,M
Boys,89.81,9,Andrew Vidales,Levelland,88.09,167.83,102.06,181.44,451.32,Single-ply,SBD,M
Boys,89.81,10,Spencer Young,Sweetwater,82.92,156.49,99.79,188.24,444.52,Single-ply,SBD,M
Boys,99.79,1,Daniel Allen,Seminole,98.07,285.76,165.56,217.72,669.05,Single-ply,SBD,M
Boys,99.79,2,Brandon Sanchez,Fort Stockton,94.17,238.14,115.67,242.67,596.47,Single-ply,SBD,M
Boys,109.77,3,Enrique Sotelo,Pecos,100,238.14,147.42,210.92,596.47,Single-ply,SBD,M
Boys,99.79,4,Mateo Gonzales,Sweetwater,99.16,213.19,129.27,210.92,553.38,Single-ply,SBD,M
Boys,99.79,5,Filberto Jaquez,Lubbock Cooper,96.89,208.65,127.01,190.51,526.17,Single-ply,SBD,M
Boys,99.79,6,Shawn Garner,Borger,93.53,192.78,124.74,204.12,521.63,Single-ply,SBD,M
Boys,99.79,7,Junior Rodriguez,Levelland,98.79,210.92,104.33,204.12,519.36,Single-ply,SBD,M
Boys,99.79,8,Caleb Weaverling,Midland Greenwood,93.08,222.26,106.59,174.63,503.49,Single-ply,SBD,M
Boys,109.77,9,Angel Martinez #8,Fort Stockton,100,197.31,113.4,181.44,492.15,Single-ply,SBD,M
Boys,99.79,DQ,Ibraham Carrasco,Andrews,97.52,231.33,120.2,,,Single-ply,SBD,M
Boys,109.77,1,Jose Flores #6,Seminole,108.23,231.33,158.76,226.8,616.89,Single-ply,SBD,M
Boys,109.77,2,Joey Elizardo,Brownfield,106.23,231.33,140.61,240.4,612.35,Single-ply,SBD,M
Boys,109.77,3,Dallas Green #3,Borger,106.59,238.14,142.88,213.19,594.21,Single-ply,SBD,M
Boys,109.77,4,Peter Sunderland,Midland Greenwood,108.5,244.94,129.27,213.19,587.4,Single-ply,SBD,M
Boys,109.77,5,Eddie Luna,Levelland,106.5,226.8,127.01,219.99,573.79,Single-ply,SBD,M
Boys,109.77,6,Daniel Montez,Sweetwater,106.14,208.65,145.15,215.46,569.26,Single-ply,SBD,M
Boys,124.74,7,Anthony Ford,Monahans,110,208.65,145.15,215.46,569.26,Single-ply,SBD,M
Boys,109.77,8,Nivardo Miranda,Borger,104.78,204.12,136.08,190.51,530.7,Single-ply,SBD,M
Boys,109.77,9,Jerry Nino,Levelland,104.69,195.04,117.93,188.24,501.22,Single-ply,SBD,M
Boys,109.77,DQ,Ashton Lara,Lubbock Cooper,106.05,215.46,131.54,,,Single-ply,SBD,M
Boys,124.74,1,Ty Coker,Midland Greenwood,122.47,283.5,174.63,238.14,696.26,Single-ply,SBD,M
Boys,124.74,2,Irvin Sanchez,Andrews,118.84,281.23,163.29,215.46,659.98,Single-ply,SBD,M
Boys,124.74,3,O'Scotty Castro,Dalhart,115.58,226.8,129.27,226.8,582.87,Single-ply,SBD,M
Boys,124.74,4,Matt Ornelas,Monahans,114.67,240.4,129.27,208.65,578.33,Single-ply,SBD,M
Boys,124.74,5,Cameron Ford,Dalhart,119.57,204.12,97.52,183.7,485.34,Single-ply,SBD,M
Boys,124.74,6,Santos Rodriguez,Lamesa,114.12,158.76,111.13,174.63,444.52,Single-ply,SBD,M
Boys,124.74,7,Gunner Burklow,Lamesa,112.49,172.37,106.59,158.76,437.72,Single-ply,SBD,M
Boys,124.74,8,Derek Washington,Levelland,115.58,170.1,102.06,154.22,426.38,Single-ply,SBD,M
Boys,124.74,DQ,Saul Barron,Dalhart,117.93,,,,,Single-ply,SBD,M
Boys,124.74,DQ,Alex Jaramillo,Andrews,110.4,,,,,Single-ply,SBD,M
Boys,124.74,DQ,Andrew Rawling,Monahans,116.21,,,,,Single-ply,SBD,M
Boys,124.74+,1,Hippo Brito,Fort Stockton,137.89,258.55,124.74,222.26,605.55,Single-ply,SBD,M
Boys,124.74+,2,Al Valderas,Levelland,149.32,285.76,145.15,174.63,605.55,Single-ply,SBD,M
Boys,124.74+,3,Louis Rodriguez,Pecos,128.19,235.87,124.74,242.67,603.28,Single-ply,SBD,M
Boys,124.74+,4,Byron Lara,Lubbock Cooper,130.63,226.8,147.42,210.92,585.13,Single-ply,SBD,M
Boys,124.74+,5,Guillermo Juarez,Fort Stockton,130.63,215.46,136.08,190.51,542.04,Single-ply,SBD,M
Boys,124.74+,DQ,James Penman,Andrews,155.4,242.67,90.72,,,Single-ply,SBD,M
Boys,124.74+,DQ,Tyler Ramos,Pecos,136.71,,,,,Single-ply,SBD,M
Boys,124.74+,DQ,Dylan Early,Snyder,133.81,238.14,,,,Single-ply,SBD,M
Boys,124.74+,DQ,Juan Delgado,Dalhart,125.83,,,,,Single-ply,SBD,M
Boys,124.74+,DQ,Dillon Beesinger,Lubbock Cooper,139.34,,,,,Single-ply,SBD,M
