Place,Name,State,WeightClassKg,BodyweightKg,Age,Best3SquatKg,Best3BenchKg,Best3DeadliftKg,TotalKg,Sex,Division,Equipment,Squat4Kg,Deadlift4Kg,Bench4Kg,Event
1,Morgan Neeley,WV,67.5,67.04,18,85,55,115,255,F,Juniors 18-19,Raw,,,,SBD
1,Tequila Rogers,WV,75,72.67,20,97.5,52.5,132.5,282.5,F,Juniors 20-23,Raw,,,,SBD
1,Kenna Compton,WV,90+,96.16,14,82.5,45,107.5,235,F,Juniors 13-15,Raw,,,,SBD
1,Gayla Channel,WV,48,47.99,54,80,46,122.5,248.5,F,Open,Raw,,,,SBD
1,Charlie Rubish,KY,52,51.53,24,102.5,65,135,302.5,F,Open,Raw,,,,SBD
1,Leigh Hobbs,WV,56,54.34,28,125,55,132.5,312.5,F,Open,Raw,,,,SBD
2,Tonya Miller,WV,56,52.89,42,85,45,110,240,F,Open,Raw,,,,SBD
1,Tracy L. Jones,KY,67.5,63.05,34,112.5,52.5,142.5,307.5,F,Open,Raw,,,,SBD
DQ,Brittany Martin,WV,67.5,65.68,29,-105,-52.5,-117.5,,F,Open,Raw,,,,SBD
1,Jessica Davis,OH,75,74.93,25,145,75,165,385,F,Open,Raw,,,,SBD
2,Casey Clark #1,PA,75,72.76,29,140,77.5,160,377.5,F,Open,Raw,,,,SBD
3,Jamie Robinette,WV,75,71.4,27,127.5,75,157.5,360,F,Open,Raw,,,,SBD
1,Jessica Tincher,WV,82.5,81.65,33,137.5,77.5,180,395,F,Open,Raw,,,,SBD
1,Erika Scott,WV,67.5,65.68,39,122.5,77.5,145,345,F,Submasters 35-39,Raw,,,,SBD
1,Sidney Scott,WV,75,70.58,36,92.5,50,137.5,280,F,Submasters 35-39,Raw,,,,SBD
1,Katie Cobbs,WV,82.5,82.01,37,137.5,62.5,150,350,F,Submasters 35-39,Raw,,,,SBD
2,Brandy Messer,WV,82.5,78.74,36,107.5,60,140,307.5,F,Submasters 35-39,Raw,,,,SBD
1,Melissa Hudson,OH,90,89.36,35,92.5,67.5,117.5,277.5,F,Submasters 35-39,Raw,,,,SBD
1,Gayla Channel,WV,48,47.99,54,80,46,122.5,248.5,F,Masters 50-54,Raw,,,,SBD
1,Tonya Miller,WV,56,52.89,42,85,45,110,240,F,Masters 40-44,Raw,,,,SBD
1,Alex Huff,OH,75,73.57,21,167.5,125,192.5,485,M,Juniors 20-23,Raw,,,,SBD
1,John Guseman,PA,82.5,80.2,15,170,105,192.5,467.5,M,Juniors 13-15,Raw,175,205,,SBD
1,Neil Shah,PA,82.5,82.1,22,165,102.5,235,502.5,M,Juniors 20-23,Raw,,,,SBD
1,Austin Keene,WV,90,89.36,15,160,135,212.5,507.5,M,Juniors 13-15,Raw,,,,SBD
1,Travis Whitten,WV,90,89.81,22,215,182.5,287.5,685,M,Juniors 20-23,Raw,,,,SBD
DQ,Matt Cowser,OH,90,88.99,23,192.5,-150,235,,M,Juniors 20-23,Raw,,,,SBD
1,Matthew Hess,WV,100,97.25,23,227.5,185,280,692.5,M,Juniors 20-23,Raw,,,,SBD
1,Logan Reed #2,VA,110,105.05,19,220,125,242.5,587.5,M,Juniors 18-19,Raw,,,,SBD
1,Neal Petro,VA,125,115.94,20,222.5,172.5,272.5,667.5,M,Juniors 20-23,Raw,,,,SBD
1,Ethan Dew,VA,140,133.54,21,272.5,160,297.5,730,M,Juniors 20-23,Raw,,,,SBD
1,Clinton White,WV,82.5,80.29,28,202.5,137.5,240,580,M,Open,Raw,,,,SBD
2,Eric Davis,OH,82.5,78.93,26,207.5,112.5,245,565,M,Open,Raw,,,,SBD
1,Danny Walls,WV,90,88.54,26,242.5,172.5,310,725,M,Open,Raw,,,,SBD
2,Allen Fisher #1,WV,90,89.72,29,205,127.5,255,587.5,M,Open,Raw,,,,SBD
3,Chris Brown #9,WV,90,89.27,25,155,125,230,510,M,Open,Raw,,,,SBD
1,Brandon Franklin,WV,100,95.62,26,300,180,325,805,M,Open,Raw,,,,SBD
2,Nathan Lester,PA,100,98.97,25,227.5,162.5,305,695,M,Open,Raw,,,,SBD
3,Aaron Perry,WV,100,98.79,25,230,127.5,255,612.5,M,Open,Raw,,,,SBD
1,Seth Fluharty,OH,110,107.68,27,252.5,210,280,742.5,M,Open,Raw,,,,SBD
2,Brandon Sizemore,WV,110,109.95,28,102.5,170,260,532.5,M,Open,Raw,,,,SBD
1,Coty Whitt,WV,125,113.13,28,280,197.5,317.5,795,M,Open,Raw,,,,SBD
1,Derrick Martin,WV,140,126.82,30,295,222.5,340,857.5,M,Open,Raw,,,,SBD
1,Ryan Scott,WV,82.5,80.92,37,172.5,105,205,482.5,M,Submasters 35-39,Raw,,,,SBD
1,Clayton Workman,WV,125,118.66,39,215,150,250,615,M,Submasters 35-39,Raw,,,,SBD
1,Joshua Adkins,WV,140,139.98,37,192.5,192.5,150,535,M,Submasters 35-39,Raw,,,,SBD
1,Chuck Spencer,OH,100,97.7,40,195,175,270,640,M,Masters 40-44,Raw,,,,SBD
1,Hannah Dolin,WV,60,58.88,14,62.5,37.5,80,180,F,Juniors 13-15,Wraps,,,,SBD
1,Kurt Chiodo,WV,67.5,64.14,22,175,107.5,220,502.5,M,Juniors 20-23,Wraps,,,,SBD
1,Zach Homol,OH,82.5,79.47,22,242.5,165,252.5,660,M,Juniors 20-23,Wraps,,,,SBD
2,Tom Bell,WV,82.5,81.92,21,210,130,242.5,582.5,M,Juniors 20-23,Wraps,,,,SBD
1,Jacob Starcher,WV,90,89.54,17,235,150,242.5,627.5,M,Juniors 16-17,Wraps,,,152.5,SBD
1,Tyler Kennedy,WV,100,97.61,22,260,175,292.5,727.5,M,Juniors 20-23,Wraps,,,,SBD
2,Lance Westlake,OH,100,97.34,23,230,200,265,695,M,Juniors 20-23,Wraps,,,,SBD
1,Nicholas Guinther,OH,110,105.05,25,205,150,240,595,M,Open,Wraps,,,,SBD
1,Zachary Swisher,OH,125,117.66,28,250,140,252.5,642.5,M,Open,Wraps,,,,SBD
1,Jon Brown,OH,110,108.41,37,325,290,272.5,887.5,M,Open,Single-ply,,,,SBD
1,Anthony Ferguson,OH,75,72.03,28,,115,,115,M,Open,Raw,,,,B
1,George Skinner,WV,82.5,82.19,43,,145,,145,M,Open,Raw,,,,B
1,Pete Rubish,KY,100,99.34,23,,190,,190,M,Open,Raw,,,,B
1,David Gandee,WV,100,98.79,35,,182.5,,182.5,M,Submasters 35-39,Raw,,,,B
1,George Skinner,WV,82.5,82.19,43,,145,,145,M,Masters 40-44,Raw,,,,B
1,Joe White,WV,110,108.32,27,,280,,280,M,Open,Single-ply,,,,B
DQ,Samual Sebok,WV,125,121.74,32,,-252.5,,,M,Open,Single-ply,,,,B
1,Zach Howerton,WV,140+,146.33,22,,285,,285,M,Open,Single-ply,,,,B
DQ,Mark Jarrell,WV,140+,165.65,37,,-290,,,M,Submasters 35-39,Multi-ply,,,,B
1,Abner Nazario,NJ,82.5,80.65,22,,,280,280,M,Juniors 20-23,Raw,,,,D
1,Pete Rubish,KY,100,99.34,23,,,345,345,M,Open,Raw,,,,D
1,David Gandee,WV,100,98.79,35,,,250,250,M,Submasters 35-39,Raw,,,,D
1,Pat Costlow,OH,82.5,77.11,71,,,185,185,M,Masters 70-74,Raw,,,,D
1,Jessica Stewart,WV,82.5,78.02,29,,,195,195,F,Open,Single-ply,,,,D
