Division,WeightClassKg,Place,Name,Team,BodyweightKg,Best3SquatKg,Best3BenchKg,Best3DeadliftKg,TotalKg,Equipment,Event,Sex
Boys,51.71,1,Dylan Elkins,Needville,51.44,147.42,99.79,131.54,378.75,Single-ply,SBD,M
Boys,51.71,2,Adam Morton,Louise,47.58,104.33,52.16,111.13,267.62,Single-ply,SBD,M
Boys,55.79,3,Fernando Valdez,Needville,51.94,81.65,56.7,117.93,256.28,Single-ply,SBD,M
Boys,51.71,4,Mitchell Hamblek,Clute Brazoswood,50.85,79.38,52.16,113.4,244.94,Single-ply,SBD,M
Boys,51.71,5,Kayden Kurtz,Vanderbilt Industrial,45.81,72.57,40.82,102.06,215.46,Single-ply,SBD,M
Boys,51.71,6,Kelton Rodriguez,Louise,47.54,70.31,43.09,95.25,208.65,Single-ply,SBD,M
Boys,51.71,DQ,Rolando Ramirez,El Maton Tidehaven,51.71,,,,,Single-ply,SBD,M
Boys,51.71,DQ,Mason Rice,West Columbia,47.67,,38.56,108.86,,Single-ply,SBD,M
Boys,55.79,1,Bryant Roman,Alvin,53.66,97.52,77.11,133.81,308.44,Single-ply,SBD,M
Boys,55.79,2,Jake Buzek,Edna,54.25,99.79,72.57,108.86,281.23,Single-ply,SBD,M
Boys,55.79,DQ,Trey Marerro,Alvin,54.52,,,,,Single-ply,SBD,M
Boys,59.87,DQ,Josiah Williams,Vanderbilt Industrial,55.97,,56.7,,,Single-ply,SBD,M
Boys,55.79,DQ,Michael Gonzalez,Edna,55.79,,,,,Single-ply,SBD,M
Boys,55.79,DQ,Jacob Ryder,Needville,55.79,,,,,Single-ply,SBD,M
Boys,67.13,1,Michael Latapie,Palacios,60.06,163.29,129.27,174.63,467.2,Single-ply,SBD,M
Boys,59.87,2,Eduardo Trevino,Clute Brazoswood,59.06,129.27,77.11,172.37,378.75,Single-ply,SBD,M
Boys,59.87,3,Rhett Musser,Vanderbilt Industrial,59.28,133.81,74.84,133.81,342.46,Single-ply,SBD,M
Boys,59.87,4,Matthew Galvez,El Maton Tidehaven,59.01,111.13,83.91,136.08,331.12,Single-ply,SBD,M
Boys,59.87,5,Isaac Cervantes,Needville,58.51,108.86,70.31,149.69,328.85,Single-ply,SBD,M
Boys,59.87,6,Daniel Santillan,Vanderbilt Industrial,58.47,117.93,54.43,127.01,299.37,Single-ply,SBD,M
Boys,59.87,7,Cortrae Wiggins,Bay City,56.06,102.06,74.84,111.13,288.03,Single-ply,SBD,M
Boys,59.87,8,Chace Luxton,West Columbia,58.06,83.91,63.5,113.4,260.82,Single-ply,SBD,M
Boys,59.87,DQ,Kyle Jones,Needville,58.2,83.91,,79.38,,Single-ply,SBD,M
Boys,59.87,DQ,Al-Delwin Nelson,Bay City,59.87,,,,,Single-ply,SBD,M
Boys,59.87,DQ,Michael Hernandez,Edna,59.87,,,,,Single-ply,SBD,M
Boys,67.13,1,Tanner Surratt,Louise,66.86,172.37,111.13,217.72,501.22,Single-ply,SBD,M
Boys,74.84,2,Brice LaMach,Bay City,67.31,201.85,92.99,206.38,501.22,Single-ply,SBD,M
Boys,67.13,3,Jose Jimenez #11,Palacios,66.41,172.37,115.67,188.24,476.27,Single-ply,SBD,M
Boys,67.13,4,Kristian Grifaldo,Edna,61.87,172.37,97.52,156.49,426.38,Single-ply,SBD,M
Boys,67.13,5,Brandon Maraggia,Vanderbilt Industrial,65.14,142.88,88.45,174.63,405.97,Single-ply,SBD,M
Boys,67.13,6,Devin Noiseux,Needville,66.54,113.4,104.33,158.76,376.48,Single-ply,SBD,M
Boys,74.84,7,Nathan Perkins,Palacios,67.22,122.47,92.99,158.76,374.21,Single-ply,SBD,M
Boys,67.13,8,David Nunes,Edna,61.14,140.61,74.84,136.08,351.53,Single-ply,SBD,M
Boys,67.13,9,David Franz,Vanderbilt Industrial,63.23,133.81,70.31,147.42,351.53,Single-ply,SBD,M
Boys,67.13,10,Marquis Earls,Edna,64.5,117.93,81.65,136.08,335.66,Single-ply,SBD,M
Boys,67.13,11,Sergio Olvera,Needville,62.28,111.13,79.38,136.08,326.59,Single-ply,SBD,M
Boys,67.13,12,Da'Shaun Smith,Bay City,62.6,92.99,70.31,124.74,288.03,Single-ply,SBD,M
Boys,67.13,13,Jerry Marming,Bay City,65.18,90.72,,102.06,192.78,Single-ply,SD,M
Boys,67.13,DQ,Matt Durham,West Columbia,62.01,,,,,Single-ply,SD,M
Boys,67.13,DQ,Sam Fisher,Bay City,67.13,,,,,Single-ply,SD,M
Boys,67.13,DQ,Jonathan Nelson,Clute Brazoswood,65.05,113.4,83.91,,,Single-ply,SBD,M
Boys,74.84,1,Matthew Nguyen,Palacios,73.07,217.72,122.47,233.6,573.79,Single-ply,SBD,M
Boys,74.84,2,Courtland Taylor,Bay City,69.35,179.17,124.74,204.12,508.02,Single-ply,SBD,M
Boys,74.84,3,Raymond Glover,Clute Brazoswood,74.25,174.63,129.27,192.78,496.68,Single-ply,SBD,M
Boys,74.84,4,Justin Hussey,West Columbia,69.58,181.44,113.4,181.44,476.27,Single-ply,SBD,M
Boys,74.84,5,Denzell Banks,Edna,73.48,174.63,92.99,204.12,471.74,Single-ply,SBD,M
Boys,74.84,6,Jonathan Saenz,Clute Brazoswood,74.16,170.1,92.99,172.37,435.45,Single-ply,SBD,M
Boys,74.84,7,Noah Seaman,Palacios,70.76,163.29,86.18,174.63,424.11,Single-ply,SBD,M
Boys,74.84,8,Nick Ornowski,West Columbia,69.44,142.88,99.79,167.83,410.5,Single-ply,SBD,M
Boys,74.84,9,Ta'Von Cantu,Edna,68.17,147.42,86.18,165.56,399.16,Single-ply,SBD,M
Boys,74.84,10,Marco Chavarria,Vanderbilt Industrial,72.35,165.56,83.91,142.88,392.36,Single-ply,SBD,M
Boys,74.84,11,Eloi Fernandez,Alvin,69.26,142.88,104.33,142.88,390.09,Single-ply,SBD,M
Boys,74.84,12,Tristan Tomas,Edna,71.26,140.61,92.99,156.49,390.09,Single-ply,SBD,M
Boys,74.84,13,Josh Alvarez,Louise,74.39,138.35,92.99,138.35,369.68,Single-ply,SBD,M
Boys,82.1,1,Oziel Rios,Palacios,75.48,136.08,120.2,181.44,437.72,Single-ply,SBD,M
Boys,82.1,2,Tanner Hohman,Alvin,81.78,156.49,97.52,170.1,424.11,Single-ply,SBD,M
Boys,82.1,3,Will Knopp,Vanderbilt Industrial,81.56,156.49,92.99,165.56,415.04,Single-ply,SBD,M
Boys,82.1,4,Eli Milner,Vanderbilt Industrial,76.75,149.69,97.52,151.95,399.16,Single-ply,SBD,M
Boys,82.1,5,Miguel Ramirez,Vanderbilt Industrial,79.02,145.15,81.65,165.56,392.36,Single-ply,SBD,M
Boys,82.1,6,Eugene Sims,West Columbia,80.51,147.42,72.57,142.88,362.87,Single-ply,SBD,M
Boys,82.1,7,Ty Cammack,Needville,77.79,83.91,70.31,102.06,256.28,Single-ply,SBD,M
Boys,82.1,DQ,Rudy Alvarez,Louise,80.78,,,,,Single-ply,SBD,M
Boys,82.1,DQ,Jared Zbranck,El Maton Tidehaven,78.15,,,,,Single-ply,SBD,M
Boys,82.1,DQ,Stevie Franklin,Bay City,81.56,167.83,,,,Single-ply,SBD,M
Boys,82.1,DQ,Jack Perry,Vanderbilt Industrial,79.29,,102.06,174.63,,Single-ply,SBD,M
Boys,82.1,DQ,Kevin Holdgraf,Vanderbilt Industrial,79.56,,,133.81,,Single-ply,SBD,M
Boys,82.1,DQ,Carlos Zanzen,Needville,82.1,,,,,Single-ply,SBD,M
Boys,89.81,1,Jay Bonaiaby,Clute Brazoswood,86.68,204.12,127.01,176.9,508.02,Single-ply,SBD,M
Boys,89.81,2,Patrick Hobbs,Clute Brazoswood,88.13,183.7,102.06,204.12,489.88,Single-ply,SBD,M
Boys,89.81,3,Juan Evangalista,Bay City,89.54,181.44,113.4,192.78,487.61,Single-ply,SBD,M
Boys,89.81,4,Jordan Branum,Vanderbilt Industrial,84.73,185.97,113.4,185.97,485.34,Single-ply,SBD,M
Boys,89.81,5,Gavyn Wells,Clute Brazoswood,83.37,176.9,111.13,188.24,476.27,Single-ply,SBD,M
Boys,89.81,6,Jj Vernon,El Maton Tidehaven,89.77,192.78,92.99,183.7,469.47,Single-ply,SBD,M
Boys,89.81,7,Abe Fernandez,Alvin,82.55,163.29,120.2,183.7,467.2,Single-ply,SBD,M
Boys,89.81,DQ,Joe Woodson,El Maton Tidehaven,84.69,,,,,Single-ply,SBD,M
Boys,89.81,DQ,Russell Taylor #3,Needville,84.46,163.29,104.33,,,Single-ply,SBD,M
Boys,89.81,DQ,Jonathan Cornwell,El Maton Tidehaven,89.81,,,,,Single-ply,SBD,M
Boys,89.81,DQ,Chris Sherrill,Bay City,89.81,,,,,Single-ply,SBD,M
Boys,89.81,DQ,Luis Escobedo,Needville,89.81,,,,,Single-ply,SBD,M
Boys,89.81,DQ,Chris Hobbs,West Columbia,89.81,,,,,Single-ply,SBD,M
Boys,99.79,1,Alex Tamez,Louise,96.48,238.14,122.47,192.78,553.38,Single-ply,SBD,M
Boys,99.79,2,Kj Brown,Bay City,98.16,170.1,133.81,204.12,508.02,Single-ply,SBD,M
Boys,99.79,3,Juan Lopez,Palacios,90.08,172.37,106.59,226.8,505.76,Single-ply,SBD,M
Boys,99.79,4,Zeke Zomora,Bay City,90.63,181.44,113.4,192.78,487.61,Single-ply,SBD,M
Boys,99.79,5,Mason Davis,Vanderbilt Industrial,97.07,188.24,106.59,192.78,487.61,Single-ply,SBD,M
Boys,109.77,6,Nick Goza,Needville,99.88,167.83,113.4,190.51,471.74,Single-ply,SBD,M
Boys,99.79,7,Kyle Dunk,Needville,95.16,131.54,106.59,142.88,381.02,Single-ply,SBD,M
Boys,99.79,8,Jorge Franco,Louise,94.94,158.76,79.38,140.61,378.75,Single-ply,SBD,M
Boys,99.79,DQ,Chris Mejias,Bay City,98.79,172.37,,,,Single-ply,SBD,M
Boys,99.79,DQ,Travis Alexander,Vanderbilt Industrial,90.63,,92.99,151.95,,Single-ply,SBD,M
Boys,99.79,DQ,Daniel Lema,Clute Brazoswood,99.79,,,,,Single-ply,SBD,M
Boys,109.77,1,Adam Aucoin,Palacios,109.36,297.1,165.56,242.67,705.34,Single-ply,SBD,M
Boys,109.77,2,Chris Shepherd,Alvin,107.68,242.67,136.08,222.26,601.01,Single-ply,SBD,M
Boys,109.77,3,Jose Morales,Clute Brazoswood,103.87,199.58,124.74,188.24,512.56,Single-ply,SBD,M
Boys,109.77,4,Danny Calixto,El Maton Tidehaven,100.74,165.56,111.13,183.7,460.4,Single-ply,SBD,M
Boys,109.77,5,Anthony Norman,Edna,107.55,156.49,92.99,165.56,415.04,Single-ply,SBD,M
Boys,109.77,DQ,Carlos Martinez,Louise,101.38,,,,,Single-ply,SBD,M
Boys,109.77,DQ,Alex McLennan,Bay City,103.74,115.67,,183.7,,Single-ply,SBD,M
Boys,124.74,1,James Marin,Alvin,114.53,204.12,147.42,210.92,562.45,Single-ply,SBD,M
Boys,124.74,2,Jacob Sanchez,Alvin,116.44,192.78,97.52,188.24,478.54,Single-ply,SBD,M
Boys,124.74,3,Michael Yonts,West Columbia,120.56,154.22,102.06,145.15,401.43,Single-ply,SBD,M
Boys,124.74,4,Levi Perry,Vanderbilt Industrial,115.21,131.54,104.33,127.01,362.87,Single-ply,SBD,M
Boys,124.74,DQ,Alex Polomares,Bay City,118.98,183.7,,,,Single-ply,SBD,M
Boys,124.74,DQ,Logan Robinson,Edna,123.79,210.92,115.67,,,Single-ply,SBD,M
Boys,124.74+,1,Brandon Garza,Clute Brazoswood,139.21,226.8,138.35,226.8,591.94,Single-ply,SBD,M
