Division,WeightClassKg,Place,Name,Team,BodyweightKg,Best3SquatKg,Best3BenchKg,Best3DeadliftKg,TotalKg,Equipment,Event,Sex
Boys,51.71,1,Brandon Fernandez,Poteet,49.9,156.49,83.91,154.22,394.63,Single-ply,SBD,M
Boys,51.71,2,Javier Aleman,Karnes City,51.71,122.47,77.11,129.27,328.85,Single-ply,SBD,M
Boys,51.71,3,Justin Bronaugh,Skidmore-Tynan,51.71,104.33,52.16,115.67,272.16,Single-ply,SBD,M
Boys,55.79,1,Cole Terry,Skidmore-Tynan,53.52,170.1,99.79,163.29,433.18,Single-ply,SBD,M
Boys,55.79,2,Ashton Gomez,Stockdale,55.79,106.59,61.23,115.67,283.5,Single-ply,SBD,M
Boys,59.87,1,Reece Feagin,Karnes City,58.06,145.15,77.11,142.88,365.14,Single-ply,SBD,M
Boys,59.87,2,Regan Villarreal,Kenedy,59.42,140.61,61.23,149.69,351.53,Single-ply,SBD,M
Boys,59.87,3,Adrian Valdez,Goliad,58.51,120.2,79.38,145.15,344.73,Single-ply,SBD,M
Boys,59.87,4,Jacob Ricks,Pleasanton,59.87,120.2,77.11,124.74,322.05,Single-ply,SBD,M
Boys,59.87,5,Javier Ontivares,Refugio,57.15,104.33,70.31,104.33,278.96,Single-ply,SBD,M
Boys,59.87,6,Andre Davis,Goliad,57.61,86.18,58.97,95.25,240.4,Single-ply,SBD,M
Boys,67.13,1,Chris Velazquez,Geronimo Navarro,66.22,229.06,129.27,197.31,555.65,Single-ply,SBD,M
Boys,67.13,2,Justin Cardenas,Pettus,67.13,183.7,117.93,219.99,521.63,Single-ply,SBD,M
Boys,67.13,3,Tyler Bouquet,Geronimo Navarro,67.13,174.63,111.13,165.56,451.32,Single-ply,SBD,M
Boys,67.13,4,Logan Arriba,George West,66.22,140.61,74.84,149.69,365.14,Single-ply,SBD,M
Boys,67.13,5,Ricky Ramon,Three Rivers,60.33,102.06,65.77,111.13,278.96,Single-ply,SBD,M
Boys,74.84,1,Logen Schanen,Skidmore-Tynan,73.94,195.04,115.67,215.46,526.17,Single-ply,SBD,M
Boys,74.84,2,Nemencio Tijerina,Poteet,73.94,185.97,111.13,190.51,487.61,Single-ply,SBD,M
Boys,74.84,3,Alvin Amador,Kenedy,71.21,176.9,99.79,208.65,485.34,Single-ply,SBD,M
Boys,74.84,4,Trevon Moore,Universal City Randolph,69.4,172.37,117.93,163.29,453.59,Single-ply,SBD,M
Boys,74.84,5,Nicholas Bourne,Karnes City,73.48,172.37,92.99,183.7,449.06,Single-ply,SBD,M
Boys,74.84,6,Tristan Trevino,Poth,73.94,181.44,90.72,174.63,446.79,Single-ply,SBD,M
Boys,74.84,7,Micheal Kroll,Karnes City,67.59,145.15,106.59,172.37,424.11,Single-ply,SBD,M
Boys,74.84,8,Fernando Castillo,George West,71.21,158.76,97.52,158.76,415.04,Single-ply,SBD,M
Boys,74.84,9,Robert Mendez,Poth,69.85,154.22,97.52,156.49,408.23,Single-ply,SBD,M
Boys,74.84,10,Devon Garrett,Pettus,72.57,147.42,99.79,147.42,394.63,Single-ply,SBD,M
Boys,74.84,11,Ayden Walpole,Poth,71.67,147.42,92.99,147.42,387.82,Single-ply,SBD,M
Boys,74.84,12,Jarran Carillo,Three Rivers,74.39,140.61,68.04,154.22,362.87,Single-ply,SBD,M
Boys,74.84,13,Adrian Flores,Kenedy,73.94,136.08,72.57,142.88,351.53,Single-ply,SBD,M
Boys,74.84,14,Carson Morris,Universal City Randolph,70.76,117.93,68.04,142.88,328.85,Single-ply,SBD,M
Boys,74.84,DQ,Joseph Valdez,Kenedy,67.59,147.42,,,,Single-ply,SBD,M
Boys,82.1,1,John Hodge,Pettus,82.1,240.4,138.35,249.48,628.23,Single-ply,SBD,M
Boys,82.1,2,Matthew Gilliam,Geronimo Navarro,81.65,208.65,122.47,197.31,528.44,Single-ply,SBD,M
Boys,82.1,3,Jeremy Voelkel,Stockdale,81.65,188.24,122.47,192.78,503.49,Single-ply,SBD,M
Boys,82.1,4,Tristan Breitenkamp,Geronimo Navarro,78.93,167.83,102.06,183.7,453.59,Single-ply,SBD,M
Boys,82.1,5,Xavier Vega,Pleasanton,77.56,151.95,92.99,165.56,410.5,Single-ply,SBD,M
Boys,82.1,6,Cole Mouser,Geronimo Navarro,75.75,140.61,95.25,151.95,387.82,Single-ply,SBD,M
Boys,82.1,7,Taylor Stockton,Three Rivers,79.83,138.35,79.38,149.69,367.41,Single-ply,SBD,M
Boys,82.1,8,Aidan Garza,Karnes City,77.56,111.13,54.43,120.2,285.76,Single-ply,SBD,M
Boys,82.1,DQ,Jerry Edlin,George West,75.75,,,,,Single-ply,SBD,M
Boys,89.81,1,Euler de Leon,Geronimo Navarro,86.64,247.21,156.49,254.01,657.71,Single-ply,SBD,M
Boys,89.81,2,Jacob Trujillo,Universal City Randolph,85.28,219.99,142.88,226.8,589.67,Single-ply,SBD,M
Boys,89.81,3,Izac Canchola,Refugio,87.09,219.99,120.2,219.99,560.19,Single-ply,SBD,M
Boys,89.81,4,Michael Gomez #1,Poteet,89.36,233.6,131.54,195.04,560.19,Single-ply,SBD,M
Boys,89.81,5,Diego Rubio,Stockdale,86.64,163.29,104.33,183.7,451.32,Single-ply,SBD,M
Boys,89.81,6,Alex Diaz #3,Three Rivers,83.01,167.83,95.25,165.56,428.64,Single-ply,SBD,M
Boys,89.81,7,Salvador Damian,Karnes City,83.91,158.76,97.52,172.37,428.64,Single-ply,SBD,M
Boys,89.81,8,George De Los Santos,Kenedy,89.36,142.88,88.45,183.7,415.04,Single-ply,SBD,M
Boys,99.79,1,Sean Allen,Poth,97.07,249.48,163.29,215.46,628.23,Single-ply,SBD,M
Boys,99.79,2,Moses Carrasco,Poteet,98.88,249.48,120.2,244.94,614.62,Single-ply,SBD,M
Boys,99.79,3,Sebastian Segura,Karnes City,99.34,254.01,138.35,217.72,610.08,Single-ply,SBD,M
Boys,99.79,4,Tim Carrasco,Poteet,97.07,235.87,129.27,217.72,582.87,Single-ply,SBD,M
Boys,99.79,5,Cole Booker,Geronimo Navarro,98.88,188.24,127.01,208.65,523.9,Single-ply,SBD,M
Boys,99.79,6,Michael Cespedes,Universal City Randolph,97.07,217.72,106.59,192.78,517.1,Single-ply,SBD,M
Boys,99.79,7,Benji DeNava,Refugio,96.62,195.04,120.2,188.24,503.49,Single-ply,SBD,M
Boys,99.79,8,Dylan Lageschulte,Pleasanton,94.35,192.78,104.33,188.24,485.34,Single-ply,SBD,M
Boys,99.79,9,Garrett Garcia,Universal City Randolph,96.16,190.51,90.72,181.44,462.66,Single-ply,SBD,M
Boys,99.79,10,Zack Guerra,Goliad,94.8,163.29,104.33,163.29,430.91,Single-ply,SBD,M
Boys,99.79,11,DJ Nunez,Karnes City,97.52,165.56,79.38,167.83,412.77,Single-ply,SBD,M
Boys,99.79,12,Steven Nava,Karnes City,93.44,151.95,99.79,142.88,394.63,Single-ply,SBD,M
Boys,99.79,13,Jared Rilkins,Universal City Randolph,93.89,127.01,90.72,124.74,342.46,Single-ply,SBD,M
Boys,99.79,14,Marcus Tristan,Karnes City,93.44,102.06,65.77,127.01,294.84,Single-ply,SBD,M
Boys,109.77,1,Thomas Puentes,Skidmore-Tynan,105.23,272.16,158.76,249.48,680.39,Single-ply,SBD,M
Boys,109.77,2,Richard Villarreal,Kenedy,105.23,272.16,138.35,219.99,630.49,Single-ply,SBD,M
Boys,109.77,3,David Reyna,Geronimo Navarro,103.42,242.67,165.56,204.12,612.35,Single-ply,SBD,M
Boys,109.77,4,Nathaniel Gomez,Karnes City,108.41,249.48,133.81,195.04,578.33,Single-ply,SBD,M
Boys,109.77,5,Richard Salazar,George West,105.69,217.72,111.13,195.04,523.9,Single-ply,SBD,M
Boys,109.77,6,Kevin Zaiontz,Poth,103.42,197.31,117.93,197.31,512.56,Single-ply,SBD,M
Boys,109.77,7,Logan Hebert,Stockdale,104.33,190.51,129.27,192.78,512.56,Single-ply,SBD,M
Boys,109.77,8,Michael San Miguel,Pleasanton,105.23,215.46,99.79,183.7,498.95,Single-ply,SBD,M
Boys,109.77,9,Brandon Glaspie,Universal City Randolph,106.59,195.04,113.4,188.24,496.68,Single-ply,SBD,M
Boys,109.77,10,Deshawn Borders,Universal City Randolph,108.41,199.58,99.79,190.51,489.88,Single-ply,SBD,M
Boys,109.77,11,Andrew Zuniga,Three Rivers,105.69,185.97,124.74,176.9,487.61,Single-ply,SBD,M
Boys,109.77,12,Chris Keiser,Stockdale,100.24,156.49,97.52,149.69,403.7,Single-ply,SBD,M
Boys,109.77,13,Zeke Guzman,Karnes City,103.42,158.76,79.38,154.22,392.36,Single-ply,SBD,M
Boys,109.77,14,Dylan Lopez,Poth,107.5,124.74,90.72,133.81,349.27,Single-ply,SBD,M
Boys,124.74,1,Dylan Hatfield,Geronimo Navarro,124.74,306.17,192.78,242.67,741.62,Single-ply,SBD,M
Boys,124.74,2,Jace Gonzales,Karnes City,116.57,281.23,147.42,235.87,664.51,Single-ply,SBD,M
Boys,124.74,3,Clayton Klekar,Goliad,117.48,254.01,151.95,238.14,644.1,Single-ply,SBD,M
Boys,124.74,4,Jacob Hernandez,Stockdale,119.75,240.4,176.9,213.19,630.49,Single-ply,SBD,M
Boys,124.74,5,Dalton Perry,Poth,123.38,215.46,136.08,188.24,539.77,Single-ply,SBD,M
Boys,124.74,6,Nick Sanchez,Poth,111.13,176.9,102.06,185.97,464.93,Single-ply,SBD,M
Boys,124.74,7,Jaydin Jones,Goliad,113.4,147.42,115.67,172.37,435.45,Single-ply,SBD,M
Boys,124.74,8,Keoki Bray,Three Rivers,124.28,115.67,70.31,129.27,315.25,Single-ply,SBD,M
Boys,124.74,9,Trey Dean,Three Rivers,113.85,92.99,70.31,122.47,285.76,Single-ply,SBD,M
Boys,124.74+,1,Sergio Hernandez,Geronimo Navarro,154.67,254.01,208.65,249.48,712.14,Single-ply,SBD,M
Boys,124.74+,2,Seth Ritchey,Poteet,133.36,272.16,124.74,226.8,623.69,Single-ply,SBD,M
Boys,124.74+,3,Xavier Perry,Goliad,144.7,267.62,136.08,208.65,612.35,Single-ply,SBD,M
Boys,124.74+,4,Rudy Orosco,Pettus,126.1,235.87,140.61,190.51,566.99,Single-ply,SBD,M
Boys,124.74+,5,Jaedon Segura,Goliad,140.16,208.65,147.42,181.44,537.51,Single-ply,SBD,M
Boys,124.74+,6,Thomas Ables,Pleasanton,143.79,192.78,99.79,167.83,460.4,Single-ply,SBD,M
Boys,124.74+,DQ,Justin Connell,Kenedy,134.72,149.69,,,,Single-ply,SBD,M
Boys,,NS,Ethan Thomas,Geronimo Navarro,,,,,,Single-ply,SBD,M
Boys,,NS,Cody Shaffer,Karnes City,,,,,,Single-ply,SBD,M
Boys,,NS,Josiah Salinas,Geronimo Navarro,,,,,,Single-ply,SBD,M
Boys,,NS,Kyle Jones,Poth,,,,,,Single-ply,SBD,M
Boys,,NS,Marcus Hinojosa,Skidmore-Tynan,,,,,,Single-ply,SBD,M
Boys,,NS,Peyton Eichman,Pleasanton,,,,,,Single-ply,SBD,M
Boys,,NS,Tim Sanchez,Pleasanton,,,,,,Single-ply,SBD,M
Boys,,NS,Andrew Orta,Pleasanton,,,,,,Single-ply,SBD,M
Boys,,NS,Jj Morales,Pleasanton,,,,,,Single-ply,SBD,M
Boys,,NS,Harrison Gaenzel,Pleasanton,,,,,,Single-ply,SBD,M
Boys,,NS,Breden Nino,Pleasanton,,,,,,Single-ply,SBD,M
Boys,,NS,Weston Price,Pleasanton,,,,,,Single-ply,SBD,M
Boys,,NS,Daniel Hernandez,Skidmore-Tynan,,,,,,Single-ply,SBD,M
Boys,,NS,Declan McCarn,Skidmore-Tynan,,,,,,Single-ply,SBD,M
Boys,,NS,Keegan Westmoreland,Skidmore-Tynan,,,,,,Single-ply,SBD,M
Boys,,NS,Jayden Arthur,Universal City Randolph,,,,,,Single-ply,SBD,M
Boys,,NS,Mateo Arteaga,Skidmore-Tynan,,,,,,Single-ply,SBD,M
Boys,,NS,Nathan Meza,Refugio,,,,,,Single-ply,SBD,M
Boys,,NS,Waylon Ramzinski,Stockdale,,,,,,Single-ply,SBD,M
Boys,,NS,Kyler Conkel,Stockdale,,,,,,Single-ply,SBD,M
Boys,,NS,Rafael Garza,Poteet,,,,,,Single-ply,SBD,M
Boys,,NS,Ethan Acevedo,Poteet,,,,,,Single-ply,SBD,M
Boys,,NS,Benjamin Luna,Goliad,,,,,,Single-ply,SBD,M
Boys,,NS,Mateo Martinez,Goliad,,,,,,Single-ply,SBD,M
Boys,,NS,Paul Rojas,Goliad,,,,,,Single-ply,SBD,M
Boys,,NS,Angel Hernandez #8,Goliad,,,,,,Single-ply,SBD,M
